Wall time,Step,Value
1553789221.5981174,0,0.7613636255264282
1553789225.471577,1,0.9407467246055603
1553789229.0184417,2,0.9788960814476013
1553789232.1570635,3,1.0
1553789235.8126469,4,0.9943181872367859
1553789239.027274,5,1.0
1553789242.069694,6,1.0
1553789245.460058,7,1.0
1553789248.994121,8,1.0
1553789252.2286277,9,1.0
1553789255.4161184,10,1.0
1553789259.0339098,11,1.0
1553789262.0339005,12,1.0
1553789265.1702218,13,1.0
1553789268.2483385,14,1.0
1553789271.2639527,15,1.0
1553789274.3617399,16,1.0
1553789278.0804775,17,1.0
1553789281.6524966,18,1.0
1553789285.230612,19,1.0
1553789288.27646,20,1.0
1553789291.8253856,21,1.0
1553789294.872251,22,1.0
1553789297.9826305,23,1.0
1553789301.1342976,24,1.0
1553789305.8686595,25,1.0
1553789308.9230802,26,1.0
1553789312.1432445,27,1.0
1553789318.1744776,28,1.0
1553789321.7179253,29,1.0
1553789326.5460353,30,1.0
1553789332.9254587,31,1.0
1553789338.1313667,32,1.0
1553789341.1313574,33,1.0
1553789344.1938486,34,1.0
1553789348.3395917,35,1.0
1553789352.2954175,36,1.0
1553789355.9280276,37,1.0
1553789359.0061438,38,1.0
1553789362.065098,39,1.0
1553789365.3033388,40,1.0
1553789369.0533278,41,1.0
1553789372.6605043,42,1.0
1553789376.2386189,43,1.0
1553789379.365781,44,1.0
1553789382.9172251,45,1.0
1553789386.167726,46,1.0
1553789389.2550838,47,1.0
1553789392.3433788,48,1.0
1553789395.4280746,49,1.0
1553789398.531521,50,1.0
1553789402.1312506,51,1.0
1553789406.006241,52,1.0
1553789411.4911563,53,1.0
1553789414.6085393,54,1.0
1553789423.7647638,55,1.0
1553789427.3192735,56,1.0
1553789433.9444475,57,1.0
1553789437.5789883,58,1.0
1553789441.1798475,59,1.0
1553789444.2267144,60,1.0
1553789447.2856967,61,1.0
1553789450.3481877,62,1.0
1553789453.3794298,63,1.0
1553789456.5356684,64,1.0
1553789459.928271,65,1.0
1553789463.5144837,66,1.0
1553789466.7702036,67,1.0
1553789470.6070795,68,1.0
1553789474.1544569,69,1.0
1553789477.6856964,70,1.0
1553789481.5319357,71,1.0
1553789484.5847282,72,1.0
1553789487.64722,73,1.0
1553789491.3190837,74,1.0
1553789495.834697,75,1.0
1553789503.7953882,76,1.0
1553789509.842245,77,1.0
1553789515.7484777,78,1.0
1553789522.0140836,79,1.0
1553789528.1365411,80,1.0
1553789531.7007964,81,1.0
1553789541.5601408,82,1.0
1553789553.310107,83,1.0
1553789559.659351,84,1.0
1553789563.578695,85,1.0
1553789567.116093,86,1.0
1553789570.652826,87,1.0
1553789574.1215663,88,1.0
1553789577.7621808,89,1.0
1553789581.3020759,90,1.0
1553789584.7809134,91,1.0
1553789588.0777793,92,1.0
1553789591.1341903,93,1.0
1553789595.1498055,94,1.0
1553789598.192598,95,1.0
1553789601.708214,96,1.0
1553789604.7082043,97,1.0
1553789608.0163167,98,1.0
1553789611.5350235,99,1.0
