Wall time,Step,Value,Wall time,Step,Value,Wall time,Step,Value,Wall time,Step,Value,Wall time,Step,Value,Wall time,Step,Value
1553789221.5981174,0,0.6449825167655945,1553789645.9411716,0,0.644932210445404,1553789993.9812436,0,0.5086389780044556,1553790275.672117,0,0.668408215045929,1553790557.92986,0,0.5355682969093323,1553790904.4444525,0,0.48677369952201843
1553789225.4559507,1,0.163164421916008,1553789667.1286075,1,0.13167192041873932,1553789996.679861,1,0.1516278088092804,1553790278.2909417,1,0.1703014224767685,1553790561.289224,1,0.1730138659477234,1553790907.7100677,1,0.09937500953674316
1553789229.0184417,2,0.06083245202898979,1553789670.144224,2,0.07748398184776306,1553789999.2182193,2,0.04182584583759308,1553790280.8278272,2,0.02992940880358219,1553790564.4610908,2,0.030547896400094032,1553790910.960057,2,0.014700076542794704
1553789232.1570635,3,0.005013840273022652,1553789673.1442149,3,0.048203904181718826,1553790001.7338367,3,0.006344920955598354,1553790283.361502,3,0.002378324745222926,1553790567.6329553,3,0.0009629902197048068,1553790914.163173,3,0.0010337232379242778
1553789235.8126469,4,0.017207639291882515,1553789676.1285806,4,0.02403283305466175,1553790004.23869,4,0.0005890705506317317,1553790285.8964462,4,0.000514824059791863,1553790570.7891967,4,0.00026516232173889875,1553790917.3194132,4,0.0003814202209468931
1553789239.027274,5,0.002835947787389159,1553789679.1249275,5,0.0006164677324704826,1553790006.7543075,5,0.00029261549934744835,1553790288.4169183,5,0.00023037989740259945,1553790573.9766884,5,0.0001441136992070824,1553790920.460031,5,0.0001799877645680681
1553789242.069694,6,0.0002562444715294987,1553789682.124919,6,0.00021488717175088823,1553790009.2579467,6,0.00017960804689209908,1553790290.932536,6,0.00016190910537261516,1553790577.1329296,6,9.768167365109548e-05,1553790923.6318948,6,0.00011065292346756905
1553789245.460058,7,0.00012326946307439357,1553789685.160181,7,0.00013771987869404256,1553790011.7611465,7,0.00012244930258020759,1553790293.4381528,7,0.00012053912359988317,1553790580.304794,7,7.057093898765743e-05,1553790926.7725108,7,7.893258589319885e-05
1553789248.994121,8,9.00247905519791e-05,1553789688.1757977,8,9.681827941676602e-05,1553790014.3104372,8,9.597431198926643e-05,1553790295.9718783,8,9.410765778739005e-05,1553790583.4922853,8,5.20298708579503e-05,1553790929.9131253,8,6.0185237089172006e-05
1553789252.2286277,9,6.848338671261445e-05,1553789691.1857858,9,7.328188075916842e-05,1553790016.7994235,9,7.191971235442907e-05,1553790298.5031207,9,7.509879651479423e-05,1553790586.6797748,9,4.029038973385468e-05,1553790933.0849922,9,4.7924382670316845e-05
1553789255.4161184,10,5.473929923027754e-05,1553789694.1879447,10,5.743788642575964e-05,1553790019.330548,10,5.79696825298015e-05,1553790301.026021,10,6.011288132867776e-05,1553790589.8516397,10,3.073165862588212e-05,1553790936.2412326,10,3.8242509617703035e-05
1553789259.0339098,11,4.459856791072525e-05,1553789697.2035606,11,4.561651439871639e-05,1553790021.8502915,11,4.660974082071334e-05,1553790303.5303447,11,5.018017691327259e-05,1553790593.0391304,11,2.386663982179016e-05,1553790939.3818483,11,3.1147763365879655e-05
1553789262.0339005,12,3.669068610179238e-05,1553789700.203552,12,3.73572256648913e-05,1553790024.3541358,12,4.0253034967463464e-05,1553790306.0649078,12,4.192374035483226e-05,1553790596.2109964,12,1.8923599782283418e-05,1553790942.553714,12,2.5941615604097024e-05
1553789265.1702218,13,3.0918286938685924e-05,1553789703.2191672,13,3.1089533877093345e-05,1553790026.8726876,13,3.332311098347418e-05,1553790308.5672235,13,3.554785143933259e-05,1553790599.3828619,13,1.5412493667099625e-05,1553790945.7568302,13,2.221905378974043e-05
1553789268.2483385,14,2.6045701815746725e-05,1553789706.2141783,14,2.631715324241668e-05,1553790029.3883057,14,2.8302549253567122e-05,1553790311.1032455,14,3.017049493792001e-05,1553790602.5547268,14,1.2883995623269584e-05,1553790948.8974452,14,1.8246155377710238e-05
1553789271.2639527,15,2.2281450583250262e-05,1553789709.2141693,15,2.2276779418461956e-05,1553790031.893552,15,2.450611827953253e-05,1553790313.6546745,15,2.588456482044421e-05,1553790605.7265925,15,1.0832338375621475e-05,1553790952.053686,15,1.6257588868029416e-05
1553789274.3617399,16,1.9108378182863817e-05,1553789712.2338803,16,1.9101462385151535e-05,1553790034.412071,16,2.113664049829822e-05,1553790316.1715763,16,2.2842170437797904e-05,1553790608.8984578,16,9.161532943835482e-06,1553790955.2099283,16,1.3718893569603097e-05
1553789278.0804775,17,1.6540881915716454e-05,1553789715.2695684,17,1.634622094570659e-05,1553790036.9155123,17,1.8664630260900594e-05,1553790318.6871922,17,2.009978015848901e-05,1553790612.0703237,17,7.893683687143493e-06,1553790958.366167,17,1.2153087482147384e-05
1553789281.6524966,18,1.4469085726886988e-05,1553789718.4247,18,1.4179319805407431e-05,1553790039.4311306,18,1.635278204048518e-05,1553790321.2112427,18,1.73674870893592e-05,1553790615.289065,18,6.79543154546991e-06,1553790961.5224068,18,1.042154326569289e-05
1553789285.230612,19,1.2652659279410727e-05,1553789721.4100783,19,1.220346621266799e-05,1553790041.9526272,19,1.447128761355998e-05,1553790323.7268608,19,1.5183828509179875e-05,1553790618.5546794,19,5.911469543207204e-06,1553790964.6786475,19,9.030473847815301e-06
1553789288.27646,20,1.1046022336813621e-05,1553789724.4276526,20,1.0630897122609895e-05,1553790044.4994946,20,1.2693226381088607e-05,1553790326.2424784,20,1.3583954569185153e-05,1553790621.7265444,20,5.163723471923731e-06,1553790967.8348897,20,8.194536349037662e-06
1553789291.8253856,21,9.79802462097723e-06,1553789727.4297442,21,9.333667549071833e-06,1553790047.0151129,21,1.1507075214467477e-05,1553790328.782112,21,1.2068184332747478e-05,1553790624.898411,21,4.495492248679511e-06,1553790970.9911287,21,7.206373538792832e-06
1553789294.872251,22,8.612266356067266e-06,1553789730.4453607,22,8.075136065599509e-06,1553790049.5394576,22,1.0118467798747588e-05,1553790331.297729,22,1.0912873221968766e-05,1553790628.0546517,22,3.976079824496992e-06,1553790974.1786191,22,6.2439571593131404e-06
1553789297.9826305,23,7.675973392906599e-06,1553789733.4500675,23,7.088180609571282e-06,1553790052.0394506,23,9.205931746691931e-06,1553790333.8214607,23,9.730814781505615e-06,1553790631.2265189,23,3.540541001711972e-06,1553790977.3504848,23,5.609571871900698e-06
1553789301.1342976,24,6.777502221666509e-06,1553789736.4547162,24,6.178644071042072e-06,1553790054.5593581,24,8.196677299565636e-06,1553790336.3527033,24,8.737009920878336e-06,1553790634.3983827,24,3.1255010526365368e-06,1553790980.5067246,24,5.001960289519047e-06
1553789305.8686595,25,6.045843747415347e-06,1553789739.67447,25,5.367444373405306e-06,1553790057.2779486,25,7.558400284324307e-06,1553790339.0917373,25,7.856716365495231e-06,1553790637.7733734,25,2.766069428616902e-06,1553790983.8817163,25,4.468017323233653e-06
1553789308.9230802,26,5.4046581681177486e-06,1553789742.7057111,26,4.799031557922717e-06,1553790059.7935674,26,6.784920969948871e-06,1553790341.6116765,26,7.1398503678210545e-06,1553790640.9452374,26,2.4653729724377627e-06,1553790987.0223317,26,4.0142322177416645e-06
1553789312.1432445,27,4.8375973165093455e-06,1553789745.744077,27,4.187320882920176e-06,1553790062.3091843,27,6.072731594031211e-06,1553790344.1772738,27,6.496370133390883e-06,1553790644.1796048,27,2.1925734472461045e-06,1553790990.1785707,27,3.5947739434050163e-06
1553789318.1744776,28,4.332968728704145e-06,1553789748.7468264,28,3.7482520838238997e-06,1553790064.8208675,28,5.564733783103293e-06,1553790346.7138789,28,5.8309792621003e-06,1553790647.3514678,28,1.9726705886569107e-06,1553790993.3504374,28,3.253033582950593e-06
1553789321.7179253,29,3.895341251336504e-06,1553789751.7670784,29,3.31590672431048e-06,1553790067.320862,29,5.11442431161413e-06,1553790349.2294953,29,5.33960155735258e-06,1553790650.5077107,29,1.776941417119815e-06,1553790996.5223036,29,2.9523837383749196e-06
1553789326.5460353,30,3.5074606330454117e-06,1553789754.7675846,30,2.9547331905632745e-06,1553790069.8425355,30,4.614894805854419e-06,1553790351.754361,30,4.840433575736824e-06,1553790653.6795752,30,1.5866808098508045e-06,1553790999.6785438,30,2.646536131578614e-06
1553789332.9254587,31,3.1436709377885563e-06,1553789757.788046,31,2.6449461074662395e-06,1553790072.3742912,31,4.2439414755790494e-06,1553790354.2695234,31,4.45217983724433e-06,1553790656.8358157,31,1.4304290516520268e-06,1553791002.8347843,31,2.388257826169138e-06
1553789338.1313667,32,2.8341230517980875e-06,1553789760.804963,32,2.3327363578573568e-06,1553790074.9237792,32,3.870843556796899e-06,1553790356.8007672,32,4.048122264066478e-06,1553790660.023306,32,1.2936625353177078e-06,1553791006.0378995,32,2.1493290205398807e-06
1553789341.1313574,33,2.5603287667763652e-06,1553789763.7939358,33,2.078201077893027e-06,1553790077.4318779,33,3.5477637538861018e-06,1553790359.3434696,33,3.7139518553885864e-06,1553790663.1951709,33,1.1700401501002489e-06,1553791009.1941397,33,1.9044255168410018e-06
1553789344.1938486,34,2.324854449398117e-06,1553789766.934552,34,1.8728707118498278e-06,1553790079.9474952,34,3.258046035625739e-06,1553790361.8596985,34,3.3947167139558587e-06,1553790666.3670373,34,1.0648462875906262e-06,1553791012.3503811,34,1.618804731151613e-06
1553789348.3395917,35,2.089332383548026e-06,1553789769.9345434,35,1.6858288063303917e-06,1553790082.485191,35,3.0255359888542444e-06,1553790364.3753161,35,3.141072511425591e-06,1553790669.5389025,35,9.651671462052036e-07,1553791015.5066214,35,1.2952253882758669e-06
1553789352.2954175,36,1.8967732557939598e-06,1553789772.9337292,36,1.5038667697808705e-06,1553790085.0164342,36,2.774214181044954e-06,1553790366.89815,36,2.8510589800134767e-06,1553790672.726393,36,8.784019769336737e-07,1553791018.6784866,36,1.006665456770861e-06
1553789355.9280276,37,1.7207136124852696e-06,1553789775.9675047,37,1.3528207318813656e-06,1553790087.5320525,37,2.5494427973171696e-06,1553790369.4159765,37,2.6664322376745986e-06,1553790675.9138834,37,8.022066708690545e-07,1553791021.819102,37,6.985296749917325e-07
1553789359.0061438,38,1.5707797729191952e-06,1553789778.9987447,38,1.2249497558514122e-06,1553790090.0556364,38,2.3560983208881225e-06,1553790371.9510703,38,2.411916511846357e-06,1553790679.085749,38,7.334105021072901e-07,1553791024.9909682,38,5.265621325634129e-07
1553789362.065098,39,1.4294097354650148e-06,1553789782.009533,39,1.1038522416129126e-06,1553790092.558296,39,2.1693774669984123e-06,1553790374.4979372,39,2.2258382159634493e-06,1553790682.288864,39,6.676473276456818e-07,1553791028.178459,39,4.143837486481061e-07
1553789365.3033388,40,1.3086021226627054e-06,1553789785.0095236,40,1.0019138017014484e-06,1553790095.073914,40,2.017806764342822e-06,1553790377.0291796,40,2.0573036181303905e-06,1553790685.4607296,40,6.137867671895947e-07,1553791031.3503237,40,3.1479731887884554e-07
1553789369.0533278,41,1.1927292007385404e-06,1553789788.0130355,41,9.087323178391671e-07,1553790097.636407,41,1.8540946484790766e-06,1553790379.5414057,41,1.9027711459784769e-06,1553790688.6325953,41,5.632351758322329e-07,1553791034.5534408,41,2.556521110363974e-07
1553789372.6605043,42,1.0872103075598716e-06,1553789791.0145555,42,8.260494723799638e-07,1553790100.1520243,42,1.7186738432428683e-06,1553790382.059909,42,1.7541644865559647e-06,1553790691.820086,42,5.172332180336525e-07,1553791037.7096798,42,2.1089114454753144e-07
1553789376.2386189,43,9.951897936844034e-07,1553789794.0178056,43,7.622353450642549e-07,1553790102.6837473,43,1.5937691841827473e-06,1553790384.592719,43,1.6144462051670416e-06,1553790694.9763265,43,4.799169914804224e-07,1553791040.8815453,43,2.0101066411370994e-07
1553789379.365781,44,9.149258062279841e-07,1553789797.0177963,44,6.906802809680812e-07,1553790105.217363,44,1.4818195950283553e-06,1553790387.1114047,44,1.4958748124627164e-06,1553790698.148192,44,4.435658240709017e-07,1553791044.0377858,44,0.31020641326904297
1553789382.9172251,45,8.398869795200881e-07,1553789800.0177877,45,6.327686605800409e-07,1553790107.8053563,45,1.3801533214063966e-06,1553790389.6270359,45,1.3852040865458548e-06,1553790701.3513079,45,4.111668943096447e-07,1553791047.3346524,45,0.06947733461856842
1553789386.167726,46,7.740408705103619e-07,1553789803.0433438,46,5.78630704239913e-07,1553790110.3209724,46,1.2734329857266857e-06,1553790392.1426404,46,1.2927755506098038e-06,1553790704.5544226,46,3.79778981596246e-07,1553791050.5065167,46,0.0044927094131708145
1553789389.2550838,47,7.112908519957273e-07,1553789806.075487,47,5.328626571099448e-07,1553790112.856991,47,1.1831525625893846e-06,1553790394.6738815,47,1.2001144114037743e-06,1553790707.7106633,47,3.541355795277923e-07,1553791053.678383,47,0.00046848933561705053
1553789392.3433788,48,6.576850068995554e-07,1553789809.0799236,48,4.910618258691102e-07,1553790115.3629186,48,1.1146597671540803e-06,1553790397.1894987,48,1.1154124877066351e-06,1553790710.882531,48,3.3033043678187823e-07,1553791056.818998,48,0.00017128461331594735
1553789395.4280746,49,6.066433684281947e-07,1553789812.082431,49,4.5492151912185363e-07,1553790117.8965676,49,1.0347786201236886e-06,1553790399.7207408,49,1.0282703897246392e-06,1553790714.070019,49,3.100179242210288e-07,1553791060.0064895,49,0.00010200466203968972
1553789398.531521,50,5.632458623949788e-07,1553789815.1680894,50,4.2066807282026275e-07,1553790120.4790342,50,9.636708000471117e-07,1553790402.327355,50,9.57627435127506e-07,1553790717.2887604,50,2.9034882231826487e-07,1553791063.2252288,50,7.428146636812016e-05
1553789402.1312506,51,5.21977199241519e-07,1553789818.1713605,51,3.896561509009189e-07,1553790123.0187304,51,9.065637982530461e-07,1553790404.8591125,51,8.874492323229788e-07,1553790720.4606261,51,2.738506452715228e-07,1553791066.4127197,51,5.794729440822266e-05
1553789406.006241,52,4.8433707888762e-07,1553789821.1713502,52,3.647401740636269e-07,1553790125.5343485,52,8.394061978833633e-07,1553790407.3903549,52,8.369651709472237e-07,1553790723.6168666,52,2.5707677764330583e-07,1553791069.5689623,52,4.644376167561859e-05
1553789411.4911563,53,4.5259938019626134e-07,1553789824.1869671,53,3.389049822999368e-07,1553790128.0499654,53,7.872951641729742e-07,1553790409.905973,53,7.737583018752048e-07,1553790726.7731085,53,2.439793433950399e-07,1553791072.7408264,53,3.8033060263842344e-05
1553789414.6085393,54,4.213939064356964e-07,1553789827.1955562,54,3.1989142712518515e-07,1553790130.5736802,54,7.370434218501032e-07,1553790412.4317622,54,7.223446800708189e-07,1553790729.9449725,54,2.2950325728743337e-07,1553791075.8970675,54,3.1657353247283027e-05
1553789423.7647638,55,3.9236553561750043e-07,1553789830.1951187,55,2.983137221690413e-07,1553790133.0924935,55,6.904514293637476e-07,1553790414.9544775,55,6.736615318914119e-07,1553790733.1168385,55,2.183819418632993e-07,1553791079.0533073,55,2.6908050131169148e-05
1553789427.3192735,56,3.670625119411852e-07,1553789833.2142386,56,2.809935324421531e-07,1553790135.6584077,56,6.431043857446639e-07,1553790417.4730525,56,6.322402441583108e-07,1553790736.304329,56,2.070308511292751e-07,1553791082.2095475,56,2.2920807168702595e-05
1553789433.9444475,57,3.465007694103406e-07,1553789836.2830093,57,2.655601463175117e-07,1553790138.1740263,57,6.085382437959197e-07,1553790419.974577,57,5.911093126087508e-07,1553790739.4761934,57,1.9802351403086504e-07,1553791085.3657875,57,1.987574614759069e-05
1553789437.5789883,58,3.241005970266997e-07,1553789839.28729,58,2.5157820005006215e-07,1553790140.681327,58,5.697890514966275e-07,1553790422.4939287,58,5.58692704544228e-07,1553790742.6480594,58,1.8970550286212529e-07,1553791088.506403,58,1.7297321392106824e-05
1553789441.1798475,59,3.04264574424451e-07,1553789842.2901962,59,2.3754785161145264e-07,1553790143.2000675,59,5.363266950553225e-07,1553790425.0126684,59,5.182590143704147e-07,1553790745.8042998,59,1.8138750590424024e-07,1553791091.6626441,59,1.5072821952344384e-05
1553789444.2267144,60,2.8660568318628066e-07,1553789845.2901862,60,2.260333076264942e-07,1553790145.7187653,60,5.018766273678921e-07,1553790427.5300584,60,4.879918265032757e-07,1553790748.960541,60,1.7504559934877761e-07,1553791094.8657606,60,1.3196386134950444e-05
1553789447.2856967,61,2.7204316666029627e-07,1553789848.3058028,61,2.1451874943068105e-07,1553790148.2218204,61,4.71260904078008e-07,1553790430.045675,61,4.581313248763763e-07,1553790752.1167815,61,1.6773863364960562e-07,1553791098.1938746,61,1.168187827715883e-05
1553789450.3481877,62,2.566581542851054e-07,1553789851.3149202,62,2.0469752826102194e-07,1553790150.7397995,62,4.456412625586381e-07,1553790432.5839465,62,4.3076889255644346e-07,1553790755.2886486,62,1.6332687380327116e-07,1553791101.3501155,62,1.0379721970821265e-05
1553789453.3794298,63,2.4311162860612967e-07,1553789854.3159223,63,1.963760780654411e-07,1553790153.2554166,63,4.225196903462347e-07,1553790435.1320033,63,4.097968542282615e-07,1553790758.4605129,63,1.5776622319663147e-07,1553791104.5063555,63,9.195001439366024e-06
1553789456.5356684,64,2.3159707041031652e-07,1553789857.3325503,64,1.8795788037095917e-07,1553790155.7710352,64,3.955638590014132e-07,1553790437.6632476,64,3.864429061195551e-07,1553790761.6167552,64,1.5307873013625795e-07,1553791107.662596,64,8.199104740924668e-06
1553789459.928271,65,2.203727973437708e-07,1553789860.332542,65,1.806524352332417e-07,1553790158.293913,65,3.7645082784365513e-07,1553790440.1741247,65,3.6233376476957346e-07,1553790764.835493,65,1.4871292819407245e-07,1553791110.803213,65,7.349177394644357e-06
1553789463.5144837,66,2.112772676809982e-07,1553789863.3549273,66,1.7450813061259396e-07,1553790160.8476794,66,3.57802548478503e-07,1553790442.6932685,66,3.4037412888210383e-07,1553790767.991734,66,1.458177081303802e-07,1553791113.9750776,66,6.573015525646042e-06
1553789466.7702036,67,2.0276230827676045e-07,1553789866.3861685,67,1.6841218553054205e-07,1553790163.519548,67,3.384571130027325e-07,1553790445.211446,67,3.2817433748277836e-07,1553790771.1636,67,1.4218720423286868e-07,1553791117.1313183,67,5.91917796555208e-06
1553789470.6070795,68,1.9390868999380473e-07,1553789869.3952608,68,1.6294519866733026e-07,1553790166.0664716,68,3.199830871380982e-07,1553790447.7441761,68,3.0964224606577773e-07,1553790774.35109,68,1.388783914535452e-07,1553791120.287558,68,5.333131866791518e-06
1553789474.1544569,69,1.8645809518602618e-07,1553789872.4108782,69,1.5815554377240915e-07,1553790168.5711749,69,3.072023844197247e-07,1553790450.2597938,69,2.922139685779257e-07,1553790777.5229576,69,1.3593721348570398e-07,1553791123.47505,69,4.790628281625686e-06
1553789477.6856964,70,1.7982996780574467e-07,1553789875.4171019,70,1.5355939808614494e-07,1553790171.1042454,70,2.9256258926579903e-07,1553790452.8015912,70,2.7716754402717925e-07,1553790780.6948218,70,1.337772914666857e-07,1553791126.646916,70,4.3072691369161475e-06
1553789481.5319357,71,1.7416945752302126e-07,1553789878.4192958,71,1.5002763120719464e-07,1553790173.619863,71,2.7850376227434026e-07,1553790455.3182185,71,2.640963430167176e-07,1553790783.851062,71,1.3138759413777734e-07,1553791129.8031564,71,3.89304113923572e-06
1553789484.5847282,72,1.6788000323231245e-07,1553789881.438272,72,1.4620557919897692e-07,1553790176.1354806,72,2.6432874733473e-07,1553790457.8338363,72,2.5230320943592233e-07,1553790787.0229268,72,1.2982509645098617e-07,1553791132.9593966,72,3.5284040222904878e-06
1553789487.64722,73,1.6260653978861228e-07,1553789884.4538887,73,1.4315760665795096e-07,1553790178.6510978,73,2.52709895676162e-07,1553790460.3338296,73,2.4138148546626326e-07,1553790790.1947925,73,1.280328234543049e-07,1553791136.115637,73,3.204993163308245e-06
1553789491.3190837,74,1.5849420265112713e-07,1553789887.4611857,74,1.4020641003753553e-07,1553790181.1824973,74,2.4358908490285103e-07,1553790462.8574817,74,2.3121498315958888e-07,1553790793.366659,74,1.263784099592158e-07,1553791139.2718768,74,2.9080576950946124e-06
1553789495.834697,75,1.5365615979590075e-07,1553789890.523677,75,1.3812604038321297e-07,1553790183.7509143,75,2.313311853185951e-07,1553790465.4748266,75,2.2157132661959622e-07,1553790796.6166503,75,1.251835612947616e-07,1553791142.5062428,75,2.6419158984936075e-06
1553789503.7953882,76,1.5002763120719464e-07,1553789893.5392928,76,1.354167409317597e-07,1553790186.2665315,76,2.2395322218926594e-07,1553790467.9962578,76,2.123343421089885e-07,1553790799.7728894,76,1.2394275472615846e-07,1553791145.6624825,76,2.402016207270208e-06
1553789509.842245,77,1.466409997874507e-07,1553789896.5664232,77,1.3367504436700983e-07,1553790188.7821484,77,2.1564574126387015e-07,1553790470.511877,77,2.0484019103150786e-07,1553790802.9916294,77,1.230695971798923e-07,1553791148.834348,77,2.192266492784256e-06
1553789515.7484777,78,1.4349626553666894e-07,1553789899.6040862,78,1.3149792721378617e-07,1553790191.297767,78,2.0908107956074673e-07,1553790473.0338464,78,1.9763650982440595e-07,1553790806.1478713,78,1.2196665011288133e-07,1553791151.9905894,78,1.9920748854929116e-06
1553789522.0140836,79,1.4078696608521568e-07,1553789902.6197026,79,1.3043356261732697e-07,1553790193.905371,79,2.0019265889459348e-07,1553790475.5670893,79,1.9037472043237358e-07,1553790809.3197358,79,1.2123136627906206e-07,1553791155.1780796,79,1.8147724176742486e-06
1553789528.1365411,80,1.3822280209296878e-07,1553789905.6353178,80,1.2883700151178346e-07,1553790196.4618077,80,1.9333754153194604e-07,1553790478.0827074,80,1.8166059589930228e-07,1553790812.507227,80,1.2077180144842714e-07,1553791158.33432,80,1.6627010381853324e-06
1553789531.7007964,81,1.3590054948053876e-07,1553789908.619684,81,1.2733721632685047e-07,1553790199.0243003,81,1.8665670609152585e-07,1553790480.6139503,81,1.7718733147376042e-07,1553790815.6634665,81,1.2040415242609015e-07,1553791161.4905612,81,1.5147652447922155e-06
1553789541.5601408,82,1.3377180607676564e-07,1553789911.6352997,82,1.2607932831087965e-07,1553790201.548764,82,1.8276439561759616e-07,1553790483.126454,82,1.7178457767386135e-07,1553790818.8197083,82,1.2008246130790212e-07,1553791164.6468022,82,1.3838802033205866e-06
1553789553.310107,83,1.3203010951201577e-07,1553789914.6313818,83,1.2525686088338261e-07,1553790204.064381,83,1.7631592186262424e-07,1553790485.6264477,83,1.6661418555941054e-07,1553790822.007198,83,1.19530994879824e-07,1553791167.787417,83,1.2679312249019858e-06
1553789559.659351,84,1.30094903738609e-07,1553789917.6504292,84,1.2433763174612977e-07,1553790206.56813,84,1.710874499849524e-07,1553790488.1801338,84,1.6190855944842042e-07,1553790825.2103133,84,1.1962291068812192e-07,1553791170.959282,84,1.16595344934467e-06
1553789563.578695,85,1.2898215118184453e-07,1553789920.6536407,85,1.2370868773814436e-07,1553790209.083747,85,1.670789373520165e-07,1553790490.7146227,85,1.5795814078956028e-07,1553790828.3665552,85,1.1943907907152607e-07,1553791174.1155236,85,1.069352833837911e-06
1553789567.116093,86,1.271920666567894e-07,1553789923.686973,86,1.2264430893083045e-07,1553790211.5993664,86,1.6237331124102639e-07,1553790493.2312565,86,1.533106086526459e-07,1553790831.5384207,86,1.193012195699339e-07,1553791177.2717636,86,9.814840495891985e-07
1553789570.652826,87,1.2583741693106276e-07,1553789926.7025886,87,1.221605145929061e-07,1553790214.1247807,87,1.5865528268932394e-07,1553790495.7678485,87,1.4994114394539793e-07,1553790834.7102854,87,1.1925526166578493e-07,1553791180.4280045,87,9.023929692375532e-07
1553789574.1215663,88,1.2535362259313843e-07,1553789929.709593,88,1.2157994433437125e-07,1553790216.657038,88,1.5447250234501553e-07,1553790498.303512,88,1.4657167923814995e-07,1553790837.8821504,88,1.1920930376163597e-07,1553791183.6936212,88,8.310227599395148e-07
1553789577.7621808,89,1.2424087003637396e-07,1553789932.7135303,89,1.210961357855922e-07,1553790219.2774975,89,1.5162588340444927e-07,1553790500.803502,89,1.4320221453090198e-07,1553790841.038391,89,1.1920930376163597e-07,1553791186.8654857,89,7.673272648389684e-07
1553789581.3020759,90,1.2341840260887693e-07,1553789935.7135203,90,1.2075747690687422e-07,1553790221.7931151,90,1.4854688856758003e-07,1553790503.3268437,90,1.4122701941232663e-07,1553790844.1946316,90,1.1920930376163597e-07,1553791190.021726,90,7.063433145049203e-07
1553789584.7809134,91,1.224991734716241e-07,1553789938.7351964,91,1.2051557973791205e-07,1553790224.3309658,91,1.4564217565293802e-07,1553790505.8424616,91,1.3808993060138164e-07,1553790847.3664978,91,1.1920930376163597e-07,1553791193.1779666,91,6.549183240167622e-07
1553789588.0777793,92,1.2191860321308923e-07,1553789941.7339072,92,1.2027366835809516e-07,1553790226.846583,92,1.4279555671237176e-07,1553790508.3580785,92,1.3483665384228516e-07,1553790850.5383635,92,1.1920930376163597e-07,1553791196.3185825,92,6.04872070653073e-07
1553789591.1341903,93,1.2138642091485963e-07,1553789944.7572153,93,1.1998339743968245e-07,1553790229.3698616,93,1.4012321969403274e-07,1553790510.8830874,93,1.335004782276883e-07,1553790853.7102287,93,1.1920930376163597e-07,1553791199.4904482,93,5.608460469375132e-07
1553789595.1498055,94,1.2099937407583639e-07,1553789947.8082836,94,1.1978987402017083e-07,1553790231.9042268,94,1.3785755470507866e-07,1553790513.399717,94,1.311186252905827e-07,1553790856.8977194,94,1.1920930376163597e-07,1553791202.677939,94,5.196233701099118e-07
1553789598.192598,95,1.205639534873626e-07,1553789950.8082752,95,1.195963506006592e-07,1553790234.4231548,95,1.3634709716825455e-07,1553790515.915334,95,1.2937579185745562e-07,1553790860.0539594,95,1.1920930376163597e-07,1553791205.83418,95,4.833181037611212e-07
1553789601.708214,96,1.2027366835809516e-07,1553789953.8551407,96,1.194995888909034e-07,1553790236.9387739,96,1.3442998181290022e-07,1553790518.4381988,96,1.2786534853148623e-07,1553790863.24145,96,1.1920930376163597e-07,1553791208.9904191,96,4.4999998749517545e-07
1553789604.7082043,97,1.20031771189133e-07,1553789956.855131,97,1.1940282718114759e-07,1553790239.4856405,97,1.3280335053877934e-07,1553790520.99004,97,1.2699392470949533e-07,1553790866.3976927,97,1.1920930376163597e-07,1553791212.1310368,97,4.1897965274984017e-07
1553789608.0163167,98,1.1993500947937719e-07,1553789959.8686414,98,1.1940282718114759e-07,1553790242.016883,98,1.3082815542020398e-07,1553790523.5222974,98,1.2513491753907147e-07,1553790869.5695565,98,1.1920930376163597e-07,1553791215.4591506,98,3.9232517679010925e-07
1553789611.5350235,99,1.1969311231041502e-07,1553789962.8842585,99,1.1935443922084232e-07,1553790244.5472083,99,1.2943388583153137e-07,1553790526.07408,99,1.239149298726261e-07,1553790872.7414207,99,1.1920930376163597e-07,1553791218.6153913,99,3.6778467915610236e-07
