Wall time,Step,Value,Wall time,Step,Value,Wall time,Step,Value,Wall time,Step,Value,Wall time,Step,Value,Wall time,Step,Value
1553781323.8364227,0,0.38261258602142334,1553782628.5079737,0,0.3628004491329193,1553783872.3948915,0,0.4037727415561676,1553784908.1105542,0,0.414557546377182,1553785944.65434,0,0.3430463671684265,1553787243.2032354,0,0.356160968542099
1553781340.3295279,1,0.26545950770378113,1553782644.6798007,1,0.24952195584774017,1553783885.7854762,1,0.2980058789253235,1553784921.579264,1,0.3060320317745209,1553785961.4980385,1,0.23470745980739594,1553787260.2031832,1,0.2424250841140747
1553781358.1051617,2,0.22907084226608276,1553782660.7266285,2,0.2195625603199005,1553783899.1448116,2,0.26985350251197815,1553784934.8604736,2,0.2762446701526642,1553785978.3417387,2,0.2026480883359909,1553787277.070779,2,0.20881988108158112
1553781378.4800699,3,0.2077028751373291,1553782676.85158,3,0.19842062890529633,1553783912.441647,3,0.24807028472423553,1553784948.1729348,3,0.25690314173698425,1553785995.1854384,3,0.18253417313098907,1553787293.9984746,3,0.18769881129264832
1553781398.3600347,4,0.18948006629943848,1553782692.8827825,4,0.18486008048057556,1553783925.816607,4,0.23172003030776978,1553784961.422897,4,0.24111801385879517,1553786011.9666386,4,0.1688883751630783,1553787310.8577967,4,0.17266887426376343
1553781415.355698,5,0.1750136762857437,1553782708.9452345,5,0.17003896832466125,1553783939.1290674,5,0.21690580248832703,1553784974.7509818,5,0.22578556835651398,1553786028.8103383,5,0.15426962077617645,1553787327.7895043,5,0.15800879895687103
1553781432.5161443,6,0.16424451768398285,1553782725.007686,6,0.16074885427951813,1553783952.4415278,6,0.20302748680114746,1553784988.0009418,6,0.21220478415489197,1553786045.5602877,6,0.14487603306770325,1553787344.72082,6,0.1465519517660141
1553781449.901313,7,0.15322238206863403,1553782741.0232635,7,0.14796103537082672,1553783965.8321126,7,0.19215653836727142,1553785001.2665257,7,0.19814860820770264,1553786062.4039898,7,0.1351749449968338,1553787361.5645213,7,0.13615646958351135
1553781505.821375,8,0.1423976719379425,1553782757.1013412,8,0.13681721687316895,1553783979.144573,8,0.1801973283290863,1553785014.578988,8,0.18796071410179138,1553786079.1539383,8,0.12527398765087128,1553787378.4550943,8,0.1273072510957718
1553781523.7726326,9,0.13038155436515808,1553782773.1481674,9,0.12676140666007996,1553783992.5351598,9,0.16922451555728912,1553785027.828949,9,0.17634069919586182,1553786096.0132625,9,0.11464598774909973,1553787395.3190637,9,0.11732372641563416
1553781544.7717376,10,0.12169536203145981,1553782789.2262456,10,0.11763597279787064,1553784005.8632424,10,0.15588612854480743,1553785041.1257825,10,0.16537649929523468,1553786112.8100882,10,0.10658882558345795,1553787412.2281032,10,0.10725460946559906
1553781562.2596664,11,0.11396193504333496,1553782805.2418225,11,0.11008021980524063,1553784019.2538278,11,0.14575840532779694,1553785054.422618,11,0.1558898687362671,1553786129.6694143,11,0.09861421585083008,1553787429.172558,11,0.10003241151571274
1553781578.3533683,12,0.10521696507930756,1553782821.3198988,12,0.09855432063341141,1553784032.6131654,12,0.13588471710681915,1553785067.750703,12,0.14362846314907074,1553786146.591237,12,0.08951915055513382,1553787446.1166093,12,0.09035646170377731
1553781594.5408206,13,0.09630376845598221,1553782837.3511012,13,0.093500055372715,1553784046.1443732,13,0.12401852011680603,1553785081.016289,13,0.13216325640678406,1553786163.325562,13,0.0831526443362236,1553787462.9759338,13,0.0867970883846283
1553781610.6814,14,0.08948184549808502,1553782853.4448032,14,0.08253438770771027,1553784059.4724598,14,0.11458507925271988,1553785094.3912492,14,0.12288656830787659,1553786180.1692626,14,0.07511037588119507,1553787479.897987,14,0.07649800181388855
1553781626.8985035,15,0.08315350860357285,1553782869.49163,15,0.07657241076231003,1553784072.8317933,15,0.10308681428432465,1553785107.6255841,15,0.11414802074432373,1553786196.919213,15,0.0705796554684639,1553787496.8265944,15,0.069382444024086
1553781643.0547059,16,0.0739007368683815,1553782885.6634574,16,0.06871896982192993,1553784086.2380035,16,0.09444897621870041,1553785120.8599198,16,0.1065785363316536,1553786213.7472868,16,0.0638737827539444,1553787513.670294,16,0.06346911936998367
1553781659.2421575,17,0.06672558188438416,1553782901.7102847,17,0.06165860593318939,1553784099.5192142,17,0.08661963790655136,1553785134.2192554,17,0.09883201867341995,1553786230.5441122,17,0.061168018728494644,1553787530.6222613,17,0.057774316519498825
1553781675.429609,18,0.06266336888074875,1553782917.8352356,18,0.05975561961531639,1553784112.8941762,18,0.07871895283460617,1553785147.48484,18,0.08682595938444138,1553786247.3878112,18,0.05250086635351181,1553787547.4972107,18,0.05451469495892525
1553781691.5545611,19,0.06035150587558746,1553782933.9289398,19,0.05168820917606354,1553784126.2378838,19,0.07103879749774933,1553785160.8285503,19,0.08365709334611893,1553786264.2315128,19,0.051336489617824554,1553787564.4154599,19,0.05119151994585991
1553781707.7666972,20,0.053105756640434265,1553782949.928891,20,0.04947904497385025,1553784139.5972192,20,0.06652048975229263,1553785174.078511,20,0.07508109509944916,1553786280.9970865,20,0.043904487043619156,1553787581.2591598,20,0.04659710079431534
1553781723.8760257,21,0.053005434572696686,1553782966.0069675,21,0.043941911309957504,1553784152.9253047,21,0.05528273433446884,1553785187.4065964,21,0.06886538863182068,1553786297.8720365,21,0.044151369482278824,1553787598.1497343,21,0.04309403896331787
1553781740.0273018,22,0.04827255755662918,1553782981.9912949,22,0.043801162391901016,1553784166.300265,22,0.05522603541612625,1553785200.6721833,22,0.060951005667448044,1553786314.6532376,22,0.04374437779188156,1553787615.0588245,22,0.04141224920749664
1553781756.1279829,23,0.04894115403294563,1553782998.0693724,23,0.03784382715821266,1553784179.6127267,23,0.048543449491262436,1553785214.0002706,23,0.06292454898357391,1553786331.4969356,23,0.03604019433259964,1553787631.9181485,23,0.03789157047867775
1553781772.315435,24,0.04118967428803444,1553783014.0537014,24,0.037550847977399826,1553784192.9720602,24,0.04200044274330139,1553785227.250228,24,0.051809586584568024,1553786348.293761,24,0.03474811464548111,1553787648.9180984,24,0.03474678099155426
1553781788.5414414,25,0.03801674023270607,1553783030.4599006,25,0.0362718366086483,1553784206.5032704,25,0.0450056716799736,1553785240.7033136,25,0.05153170973062515,1553786365.32496,25,0.035793885588645935,1553787665.933673,25,0.03285485506057739
1553781804.6806667,26,0.04069501906633377,1553783046.6629786,26,0.03494781628251076,1553784219.8001056,26,0.04443009942770004,1553785254.0782726,26,0.047793611884117126,1553786382.090535,26,0.031302839517593384,1553787682.830288,26,0.03265859931707382
1553781820.733292,27,0.034688811749219894,1553783062.9129288,27,0.03382699564099312,1553784233.1438162,27,0.03531409427523613,1553785267.3126082,27,0.04361828789114952,1553786398.9186099,27,0.032582882791757584,1553787699.6646926,27,0.030576851218938828
1553781836.8257363,28,0.034929629415273666,1553783079.084756,28,0.029285060241818428,1553784246.4875257,28,0.039433736354112625,1553785280.6406937,28,0.04151017218828201,1553786415.7779346,28,0.03182724863290787,1553787716.5584228,28,0.03384244441986084
1553781852.9243124,29,0.036862872540950775,1553783095.319082,29,0.030903231352567673,1553784259.8624854,29,0.03412865474820137,1553785293.9062796,29,0.04195273667573929,1553786432.5747597,29,0.027482861652970314,1553787733.3865001,29,0.027377938851714134
1553781869.004577,30,0.03038335032761097,1553783111.490909,30,0.0320616289973259,1553784273.1593218,30,0.040050387382507324,1553785307.2343645,30,0.043314382433891296,1553786450.0903323,30,0.026910843327641487,1553787750.261447,30,0.025245608761906624
1553781885.1139038,31,0.03011004999279976,1553783127.7096107,31,0.0289190411567688,1553784286.534282,31,0.032803699374198914,1553785320.515576,31,0.0374741330742836,1553786466.9184074,31,0.02533416822552681,1553787767.148432,31,0.026380212977528572
1553781901.113856,32,0.03336872532963753,1553783143.9908133,32,0.02554997056722641,1553784299.831118,32,0.029462387785315514,1553785333.8124106,32,0.032784901559352875,1553786483.7621067,32,0.030452506616711617,1553787784.0300229,32,0.02312394417822361
1553781917.223183,33,0.028202977031469345,1553783160.2095134,33,0.03273732215166092,1553784313.1279523,33,0.03422991931438446,1553785347.1092453,33,0.036834996193647385,1553786500.652682,33,0.0240029189735651,1553787800.9587438,33,0.030072679743170738
1553781933.2588181,34,0.02694222889840603,1553783176.459467,34,0.026394072920084,1553784326.5029142,34,0.030642477795481682,1553785360.359206,34,0.03429034724831581,1553786517.480758,34,0.02507050707936287,1553787817.7780814,34,0.023978613317012787
1553781949.3993952,35,0.026149630546569824,1553783192.6312923,35,0.02830519713461399,1553784339.830998,35,0.028036339208483696,1553785373.6716669,35,0.034219980239868164,1553786534.324458,35,0.02609982341527939,1553787834.6709223,35,0.02235499955713749
1553781965.5119512,36,0.02659650892019272,1553783208.8656187,36,0.022800492122769356,1553784353.2528324,36,0.026240598410367966,1553785386.937252,36,0.028472432866692543,1553786551.0744083,36,0.02453470416367054,1553787851.5390434,36,0.023409150540828705
1553781981.6681545,37,0.02939261868596077,1553783225.0061953,37,0.02383856661617756,1553784366.596543,37,0.028928758576512337,1553785400.2653384,37,0.03269960358738899,1553786567.886857,37,0.02256694994866848,1553787868.5077426,37,0.020756853744387627
1553781997.6993556,38,0.02302326261997223,1553783241.2248976,38,0.026592813432216644,1553784379.9558775,38,0.031115395948290825,1553785413.546547,38,0.029756393283605576,1553786584.6524312,38,0.02491556666791439,1553787885.3983169,38,0.02694147266447544
1553782013.8086817,39,0.024653665721416473,1553783257.381099,39,0.022699659690260887,1553784393.2527142,39,0.026938660070300102,1553785426.8433838,39,0.02893936261534691,1553786601.4961321,39,0.02266824059188366,1553787902.2611642,39,0.021239548921585083
1553782029.9023838,40,0.027285117655992508,1553783273.5998006,40,0.021244850009679794,1553784406.6276753,40,0.026968762278556824,1553785440.1089692,40,0.030819416046142578,1553786618.2617064,40,0.022876430302858353,1553787919.1673641,40,0.020520763471722603
1553782045.9960866,41,0.02271212451159954,1553783289.8028777,41,0.02440134808421135,1553784419.9245086,41,0.024667780846357346,1553785453.4683058,41,0.025608647614717484,1553786635.1366558,41,0.022051909938454628,1553787936.073563,41,0.022819282487034798
1553782062.061274,42,0.019593551754951477,1553783306.0215795,42,0.022963261231780052,1553784433.2994695,42,0.024097219109535217,1553785466.7651403,42,0.027567315846681595,1553786651.902231,42,0.023064391687512398,1553787953.1070895,42,0.022895317524671555
1553782078.1706018,43,0.026731178164482117,1553783322.1777823,43,0.025725077837705612,1553784446.6588042,43,0.024260135367512703,1553785479.9994738,43,0.024279439821839333,1553786668.699056,43,0.019760066643357277,1553787969.9664147,43,0.0205986388027668
1553782094.2673707,44,0.019631141796708107,1553783338.3964825,44,0.024526722729206085,1553784459.9712656,44,0.02833339013159275,1553785493.311935,44,0.02540755458176136,1553786685.558381,44,0.020765280351042747,1553787986.8726134,44,0.02437349408864975
1553782110.350181,45,0.025123730301856995,1553783354.6776845,45,0.018884168937802315,1553784473.361851,45,0.0188266821205616,1553785506.561895,45,0.03164510056376457,1553786702.3708317,45,0.021129688248038292,1553788003.8413148,45,0.019999099895358086
1553782126.4751337,46,0.023121889680624008,1553783370.8026369,46,0.019023749977350235,1553784486.6899364,46,0.028523048385977745,1553785519.9212315,46,0.026750285178422928,1553786719.1989052,46,0.019223500043153763,1553788020.7943873,46,0.017673060297966003
1553782142.5219607,47,0.022456036880612373,1553783387.0213394,47,0.02345750294625759,1553784500.0648947,47,0.0207479577511549,1553785533.2024407,47,0.02505314350128174,1553786735.9957302,47,0.024877874180674553,1553788037.7162137,47,0.02026701532304287
1553782158.6312876,48,0.022023385390639305,1553783403.20879,48,0.01805116795003414,1553784513.3617313,48,0.02827100269496441,1553785546.5461507,48,0.026248108595609665,1553786752.8706799,48,0.019255034625530243,1553788054.5507605,48,0.017514286562800407
1553782174.6552458,49,0.022979166358709335,1553783419.411866,49,0.022743165493011475,1553784526.721066,49,0.019146041944622993,1553785559.796113,49,0.025072310119867325,1553786769.6675053,49,0.01818520948290825,1553788071.55071,49,0.019526412710547447
1553782190.7801979,50,0.019360853359103203,1553783435.599319,50,0.021269988268613815,1553784540.080401,50,0.021853208541870117,1553785573.1241965,50,0.01882215030491352,1553786786.5893295,50,0.018706995993852615,1553788088.5857694,50,0.024028658866882324
1553782206.8282385,51,0.022018518298864365,1553783451.8961442,51,0.019589990377426147,1553784553.3928616,51,0.02367168292403221,1553785586.5147815,51,0.027434175834059715,1553786803.3705318,51,0.018304606899619102,1553788105.4294674,51,0.0164603590965271
1553782222.968815,52,0.0229833722114563,1553783468.0210962,52,0.01760900393128395,1553784566.7521958,52,0.023820430040359497,1553785599.827242,52,0.02472848817706108,1553786820.1829796,52,0.020439811050891876,1553788122.2419171,52,0.01711619831621647
1553782239.109392,53,0.02266707643866539,1553783484.2710474,53,0.01922033540904522,1553784580.0334067,53,0.017322516068816185,1553785613.1709526,53,0.019481461495161057,1553786837.0735536,53,0.021782442927360535,1553788139.0699923,53,0.02230963110923767
1553782255.294067,54,0.01884186640381813,1553783500.4428747,54,0.02398732118308544,1553784593.3458676,54,0.02177230641245842,1553785626.452163,54,0.02589392475783825,1553786853.8235042,54,0.01661844179034233,1553788155.9605665,54,0.014957048930227757
1553782271.356519,55,0.020575279369950294,1553783516.6772017,55,0.020426733419299126,1553784606.627077,55,0.018355615437030792,1553785639.827123,55,0.023742105811834335,1553786870.6515787,55,0.017761237919330597,1553788172.7573931,55,0.01624365895986557
1553782287.481471,56,0.020744284614920616,1553783532.8490276,56,0.019714340567588806,1553784619.9864132,56,0.02671760506927967,1553785653.1083326,56,0.019204827025532722,1553786887.4484048,56,0.01699366420507431,1553788189.694841,56,0.019862772896885872
1553782303.5751736,57,0.022564252838492393,1553783549.0677297,57,0.022001823410391808,1553784633.3144982,57,0.02015669271349907,1553785666.4832942,57,0.0230209082365036,1553786904.354603,57,0.01890537142753601,1553788206.491666,57,0.017445528879761696
1553782319.6376257,58,0.01815394125878811,1553783565.2708066,58,0.017405787482857704,1553784646.658209,58,0.01808503083884716,1553785679.748879,58,0.024341654032468796,1553786921.1358023,58,0.01568649522960186,1553788223.3509908,58,0.01902826689183712
1553782335.7303748,59,0.016867617145180702,1553783581.505134,59,0.018559524789452553,1553784659.9550443,59,0.020664457231760025,1553785693.0457141,59,0.020567646250128746,1553786937.9482534,59,0.017459211871027946,1553788240.163441,59,0.01292168628424406
1553782351.7928276,60,0.018069962039589882,1553783597.7550848,60,0.017584994435310364,1553784673.314379,60,0.02034558542072773,1553785706.3894246,60,0.019002387300133705,1553786954.7607033,60,0.017675332725048065,1553788257.0383909,60,0.02036018669605255
1553782367.9646537,61,0.020586570724844933,1553783613.8800383,61,0.014047888107597828,1553784686.7518384,61,0.01588081195950508,1553785719.717511,61,0.02342517301440239,1553786971.5262783,61,0.017860110849142075,1553788273.8977158,61,0.015647200867533684
1553782384.002737,62,0.01563851349055767,1553783630.129988,62,0.017421316355466843,1553784700.0642989,62,0.02115212194621563,1553785733.0768461,62,0.019542494788765907,1553786988.3856027,62,0.013922035694122314,1553788290.7101657,62,0.016036588698625565
1553782400.1301455,63,0.017458580434322357,1553783646.3018148,63,0.01957251876592636,1553784713.43926,63,0.017537660896778107,1553785746.3580554,63,0.01998637430369854,1553787005.1199296,63,0.022112686187028885,1553788307.6007402,63,0.024256223812699318
1553782416.1769745,64,0.021973412483930588,1553783662.5205178,64,0.013608277775347233,1553784726.72047,64,0.024780087172985077,1553785759.7017658,64,0.023442277684807777,1553787021.9636292,64,0.019161993637681007,1553788324.4913154,64,0.012988432310521603
1553782432.3054338,65,0.017817126587033272,1553783678.707968,65,0.020220715552568436,1553784740.079805,65,0.018242957070469856,1553785772.9517257,65,0.019350526854395866,1553787038.7760777,65,0.015982864424586296,1553788341.3818896,65,0.014914565719664097
1553782448.9616332,66,0.01820407062768936,1553783695.0985444,66,0.026344269514083862,1553784753.361015,66,0.015442948788404465,1553785786.3110607,66,0.019885970279574394,1553787055.6822774,66,0.01771480403840542,1553788358.1943393,66,0.016577664762735367
1553782465.2584605,67,0.017443442717194557,1553783711.2547474,67,0.012149582616984844,1553784766.6891005,67,0.0186825692653656,1553785799.654772,67,0.017844684422016144,1553787072.4947274,67,0.014580200426280499,1553788375.0536647,67,0.01708960346877575
1553782481.258414,68,0.019566068425774574,1553783727.4890728,68,0.018331225961446762,1553784779.9546862,68,0.021425368264317513,1553785812.935982,68,0.022270359098911285,1553787089.3071775,68,0.013639714568853378,1553788391.9129887,68,0.014028103090822697
1553782497.3833647,69,0.019904401153326035,1553783743.6921504,69,0.014775010757148266,1553784793.2671459,69,0.01459392812103033,1553785826.295317,69,0.01790209859609604,1553787106.1352522,69,0.019747311249375343,1553788408.8035626,69,0.020823707804083824
1553782513.4145677,70,0.014343976974487305,1553783759.879602,70,0.01406847033649683,1553784806.626483,70,0.018641578033566475,1553785839.7327766,70,0.021754570305347443,1553787122.9320767,70,0.01692900061607361,1553788425.6472633,70,0.01550822053104639
1553782529.523894,71,0.014744406566023827,1553783776.0826783,71,0.01618773117661476,1553784819.8764422,71,0.017632320523262024,1553785853.1546123,71,0.016814257949590683,1553787139.7601526,71,0.013768650591373444,1553788442.4597127,71,0.015200321562588215
1553782545.6332216,72,0.018028611317276955,1553783792.2232552,72,0.01963525451719761,1553784833.2514024,72,0.014148944988846779,1553785866.4358218,72,0.02217414602637291,1553787156.82905,72,0.020497022196650505,1553788459.3346624,72,0.017478395253419876
1553782561.6644244,73,0.018040789291262627,1553783808.4575815,73,0.014890938997268677,1553784846.5638623,73,0.015810247510671616,1553785879.779533,73,0.01662360318005085,1553787174.5921638,73,0.020293664187192917,1553788476.1314871,73,0.016064263880252838
1553782577.71125,74,0.014457940123975277,1553783824.6137843,74,0.01909022405743599,1553784859.9075727,74,0.02135227620601654,1553785893.045118,74,0.01929659955203533,1553787191.7857106,74,0.012964106164872646,1553788493.0220633,74,0.018235934898257256
