Wall time,Step,Value,Wall time,Step,Value,Wall time,Step,Value,Wall time,Step,Value,Wall time,Step,Value,Wall time,Step,Value
1554669451.711838,0,0.5438311696052551,1554670040.701128,0,0.5933441519737244,1554670626.17974,0,0.5673828125,1554671124.5005665,0,0.556640625,1554671625.690182,0,0.3888888955116272,1554672240.3184583,0,0.4243827164173126
1554669463.711547,1,0.8741883039474487,1554670052.6009939,1,0.8027597665786743,1554670636.0907059,1,0.798828125,1554671134.450282,1,0.6923828125,1554671638.2599254,1,0.770061731338501,1554672252.8594708,1,0.8125
1554669475.6074107,2,0.9277597665786743,1554670064.4370751,2,0.9066558480262756,1554670646.0407393,2,0.84375,1554671144.270467,2,0.7236328125,1554671650.775977,2,0.8634259104728699,1554672265.2954473,2,0.9290123581886292
1554669487.4895234,3,0.9707792401313782,1554670076.251178,3,0.9366883039474487,1554670655.866726,3,0.912109375,1554671154.0683086,3,0.7734375,1554671663.4202752,3,0.9282407164573669,1554672277.7254553,3,0.9320987462997437
1554669499.4417171,4,0.9715909361839294,1554670088.1582441,4,0.9691558480262756,1554670665.6905093,4,0.939453125,1554671163.8877876,4,0.8056640625,1554671675.8759577,4,0.9452160596847534,1554672290.1593454,4,0.9521604776382446
1554669511.291821,5,0.9488636255264282,1554670100.031031,5,0.9724025726318359,1554670675.5065973,5,0.9501953125,1554671173.7061691,5,0.8037109375,1554671688.3360412,5,0.9552469253540039,1554672302.5895443,5,0.9645061492919922
1554669523.1515212,6,0.9805194735527039,1554670111.847247,6,0.9634740352630615,1554670685.330952,6,0.966796875,1554671183.5204015,6,0.826171875,1554671700.7965665,6,0.9444444179534912,1554672315.039751,6,0.966821014881134
1554669535.017445,7,0.9829545617103577,1554670123.6512609,7,0.9943181872367859,1554670695.1910017,7,0.978515625,1554671193.3603764,7,0.8349609375,1554671713.255935,7,0.9567901492118835,1554672327.4756107,7,0.9699074029922485
1554669546.8777235,8,0.9667207598686218,1554670135.46842,8,0.9959415793418884,1554670704.9965086,8,0.955078125,1554671203.1804173,8,0.8310546875,1554671725.7001755,8,0.9660493731498718,1554672339.9294515,8,0.9691358208656311
1554669558.7274997,9,0.975649356842041,1554670147.2701392,9,0.9797077775001526,1554670714.816673,9,0.9853515625,1554671212.9965305,9,0.8466796875,1554671738.1600833,9,0.9614197611808777,1554672352.3658218,9,0.9444444179534912
1554669570.5676928,10,0.9902597665786743,1554670159.0872734,10,0.989448070526123,1554670724.6507795,10,0.9736328125,1554671222.7962437,10,0.8623046875,1554671750.6199076,10,0.979938268661499,1554672364.789529,10,0.9390432238578796
1554669582.391752,11,0.9870129823684692,1554670170.8869338,11,0.9967532753944397,1554670734.4708345,11,0.9794921875,1554671232.6202593,11,0.8564453125,1554671763.1052644,11,0.9753086566925049,1554672377.3394048,11,0.8942901492118835
1554669594.2494702,12,0.9991883039474487,1554670182.7471821,12,0.9813311696052551,1554670744.300732,12,0.986328125,1554671242.43051,12,0.8701171875,1554671775.5479057,12,0.9737654328346252,1554672389.7655883,12,0.9282407164573669
1554669606.1012864,13,0.9975649118423462,1554670194.56133,13,0.989448070526123,1554670754.1309984,13,0.9873046875,1554671252.236285,13,0.8701171875,1554671787.9884882,13,0.9930555820465088,1554672402.2495782,13,0.9467592835426331
1554669617.9412763,14,1.0,1554670206.3972101,14,0.9918830990791321,1554670763.976537,14,0.9755859375,1554671262.0760746,14,0.865234375,1554671800.4399302,14,0.9876543283462524,1554672414.6795933,14,0.9537037014961243
1554669629.7613413,15,1.0,1554670218.237264,15,0.9878246784210205,1554670773.800569,15,0.986328125,1554671271.8905125,15,0.8662109375,1554671812.9058712,15,0.9521604776382446,1554672427.1068773,15,0.9398148059844971
1554669641.5775557,16,0.9959415793418884,1554670230.0413024,16,0.9983766078948975,1554670783.6405354,16,0.994140625,1554671281.7063515,16,0.876953125,1554671825.3698368,16,0.9814814925193787,1554672439.5397048,16,0.9035493731498718
1554669653.411454,17,0.9967532753944397,1554670241.8568983,17,0.9975649118423462,1554670793.490867,17,0.9970703125,1554671291.5162961,17,0.8779296875,1554671837.8300595,17,0.9891975522041321,1554672451.954409,17,0.9089506268501282
1554669665.2714841,18,0.9707792401313782,1554670253.6708012,18,0.9829545617103577,1554670803.3108604,18,0.998046875,1554671301.3291328,18,0.8759765625,1554671850.2757738,18,0.977623462677002,1554672464.3882303,18,0.9143518805503845
1554669677.147223,19,0.9870129823684692,1554670265.5068865,19,0.9780844449996948,1554670813.1505215,19,0.99609375,1554671311.5762727,19,0.876953125,1554671862.739959,19,0.9868826866149902,1554672476.809189,19,0.9429012537002563
1554669688.9974144,20,0.9870129823684692,1554670277.3211365,20,0.9740259647369385,1554670822.9764218,20,0.998046875,1554671321.386143,20,0.8759765625,1554671875.1956153,20,0.9884259104728699,1554672489.2393463,20,0.9637345671653748
1554669700.8673728,21,0.986201286315918,1554670289.1268675,21,0.9634740352630615,1554670832.7968102,21,0.9921875,1554671331.2061105,21,0.8779296875,1554671887.7458434,21,0.9930555820465088,1554672501.7452316,21,0.9683641791343689
1554669712.728204,22,0.9959415793418884,1554670300.94108,22,0.9918830990791321,1554670842.6365612,22,0.9931640625,1554671341.010166,22,0.865234375,1554671900.1997633,22,0.9907407164573669,1554672514.1692598,22,0.9675925970077515
1554669724.6073196,23,0.9967532753944397,1554670313.1869457,23,0.9975649118423462,1554670852.4505067,23,0.984375,1554671350.8204458,23,0.8515625,1554671912.7090533,23,0.9891975522041321,1554672526.6082935,23,0.959876537322998
1554669736.4771838,24,0.9886363744735718,1554670325.02096,24,0.9545454382896423,1554670862.2707152,24,0.9951171875,1554671360.687712,24,0.859375,1554671925.180953,24,0.9930555820465088,1554672539.0396397,24,0.9691358208656311
1554669748.717264,25,0.9951298832893372,1554670337.2209218,25,0.9935064911842346,1554670872.4405124,25,0.9931640625,1554671370.9103816,25,0.8623046875,1554671937.9656534,25,0.9930555820465088,1554672551.8092144,25,0.966821014881134
1554669760.6114123,26,0.9975649118423462,1554670349.0310354,26,0.961850643157959,1554670882.2667499,26,0.9658203125,1554671380.7103727,26,0.873046875,1554671950.4294221,26,0.8904321193695068,1554672564.2454882,26,0.9452160596847534
1554669772.5076504,27,0.9991883039474487,1554670360.8409019,27,0.9951298832893372,1554670892.1190054,27,0.9912109375,1554671390.5960605,27,0.8671875,1554671962.8795707,27,0.9066358208656311,1554672576.6855438,27,0.9490740895271301
1554669784.3971872,28,1.0,1554670372.6611514,28,0.9772727489471436,1554670901.9467015,28,0.9365234375,1554671400.4100356,28,0.8466796875,1554671975.319723,28,0.9475308656692505,1554672589.1295774,28,0.9552469253540039
1554669796.2815053,29,0.9780844449996948,1554670384.5168288,29,0.9764610528945923,1554670911.7705007,29,0.984375,1554671410.2200599,29,0.8583984375,1554671987.7757456,29,0.9830247163772583,1554672601.5593653,29,0.9367284178733826
1554669808.1473007,30,0.9845778942108154,1554670396.549226,30,0.9878246784210205,1554670921.6466908,30,0.9951171875,1554671420.050116,30,0.8740234375,1554672000.2258453,30,0.9760802388191223,1554672614.0092869,30,0.9783950448036194
1554669820.010577,31,0.9918830990791321,1554670408.637387,31,0.9951298832893372,1554670931.4589589,31,0.9970703125,1554671429.9201322,31,0.8779296875,1554672012.7056952,31,0.9760802388191223,1554672626.4891002,31,0.959876537322998
1554669831.881512,32,0.9918830990791321,1554670420.6109016,32,0.9918830990791321,1554670941.2996626,32,0.994140625,1554671439.78011,32,0.8759765625,1554672025.1495051,32,0.9837962985038757,1554672638.9216158,32,0.9745370149612427
1554669843.7662742,33,0.9926947951316833,1554670432.4407654,33,0.9845778942108154,1554670951.119502,33,0.9833984375,1554671449.6100578,33,0.8759765625,1554672037.5999308,33,0.9915123581886292,1554672651.379429,33,0.9753086566925049
1554669855.7371254,34,0.9926947951316833,1554670444.2770452,34,0.9926947951316833,1554670960.9363837,34,0.9853515625,1554671459.440193,34,0.87890625,1554672050.0458176,34,0.9753086566925049,1554672663.8091164,34,0.9768518805503845
1554669867.6214023,35,0.9878246784210205,1554670456.1090791,35,0.9740259647369385,1554670970.7606525,35,0.9853515625,1554671469.266308,35,0.8740234375,1554672062.4996905,35,0.9907407164573669,1554672676.2554793,35,0.9591049551963806
1554669879.4963174,36,0.9959415793418884,1554670467.9268541,36,0.9943181872367859,1554670980.5802698,36,0.99609375,1554671479.0859098,36,0.8779296875,1554672074.9656327,36,0.9807098507881165,1554672688.6793234,36,0.9243826866149902
1554669891.3812823,37,0.9967532753944397,1554670479.7407885,37,0.9959415793418884,1554670990.4006028,37,0.9990234375,1554671488.9059057,37,0.8779296875,1554672087.3997445,37,0.9876543283462524,1554672701.1179473,37,0.9691358208656311
1554669903.2571762,38,0.989448070526123,1554670491.5683002,38,0.9975649118423462,1554671000.2304938,38,0.998046875,1554671498.7261648,38,0.8759765625,1554672099.838063,38,0.9845678806304932,1554672713.58546,38,0.9837962985038757
1554669915.1474407,39,0.9959415793418884,1554670503.380827,39,0.9967532753944397,1554671010.0463762,39,0.98828125,1554671508.540145,39,0.876953125,1554672112.2848425,39,0.9853395223617554,1554672726.0285013,39,0.9737654328346252
1554669927.0374198,40,0.9967532753944397,1554670515.1967196,40,0.9951298832893372,1554671019.8964882,40,0.98828125,1554671518.3901222,40,0.875,1554672124.7402759,40,0.9807098507881165,1554672738.475096,40,0.9714506268501282
1554669938.9169915,41,0.9991883039474487,1554670527.0158675,41,0.9959415793418884,1554671029.71636,41,0.9736328125,1554671528.2303507,41,0.876953125,1554672137.2196012,41,0.9768518805503845,1554672750.9365997,41,0.977623462677002
1554669950.7973294,42,0.9991883039474487,1554670538.85598,42,0.9951298832893372,1554671039.5466466,42,0.978515625,1554671538.0463114,42,0.8759765625,1554672149.6696074,42,0.9922839403152466,1554672763.3692927,42,0.9845678806304932
1554669962.657417,43,1.0,1554670550.6809115,43,0.9983766078948975,1554671049.420387,43,0.9931640625,1554671547.856242,43,0.87890625,1554672162.1112113,43,0.9807098507881165,1554672775.795236,43,0.9845678806304932
1554669974.5511215,44,1.0,1554670562.5070198,44,0.9959415793418884,1554671059.250582,44,0.998046875,1554671557.655931,44,0.87890625,1554672174.5857508,44,0.9475308656692505,1554672788.2194107,44,0.9868826866149902
