"row ID","Mean Training Loss","Mean Validation Loss","Mean Training Accuracy","Mean Validation Accuracy"
"0",5.202786564826965,2.0670674443244934,0.5124117285013199,0.666131724913915
"1",1.6190168559551241,1.337924857934316,0.791786789894104,0.8341795007387798
"2",1.2369978328545892,1.0004496847589812,0.8657061159610748,0.8869047661622367
"3",0.8316460077961286,0.7450617514550686,0.908892313639323,0.9160539209842682
"4",0.657467228670915,0.6329273482163749,0.9305400848388673,0.9304096698760985
"5",0.6810991888244947,0.7385868678490322,0.9324875871340433,0.9067557752132416
"6",0.5805210098624229,0.5330617340902488,0.9413712819417318,0.9397370119889579
"7",0.543064101288716,0.6282593111197154,0.9529078106085459,0.9282893637816111
"8",0.5838056566814582,0.6340399620433649,0.9473300576210023,0.9348058601220449
"9",0.5806237695117792,0.5870670943210523,0.9488754272460939,0.9446292420228323
"10",0.5213989211867254,0.5657572969794273,0.9557711382706962,0.944901575644811
"11",0.6265131328254938,0.9697288535535337,0.9482170939445497,0.8996946016947429
"12",0.5103022564047327,0.6891333113114041,0.9564951558907827,0.9285227954387666
"13",0.4865792367296915,0.6342425967256229,0.9640416204929352,0.9342514673868817
"14",0.4678114721803771,0.595206040268143,0.9623435735702515,0.9397078255812328
"15",0.5685206645866857,0.8503084871917963,0.9553898374239603,0.9208586215972902
"16",0.5740975576142471,0.603945137312015,0.9584071338176728,0.9273070295651753
"17",0.5333315346700449,0.6382223969946306,0.9612443943818411,0.9290869136651356
"18",0.6217134728406867,0.7052682340145111,0.9532887637615204,0.927521010239919
"19",0.5189226176589727,0.613603413105011,0.9613213737805686,0.9307014346122743
"20",0.47958463368316495,0.7928527022401493,0.9645371437072754,0.9219284852345786
"21",0.4792577885091305,0.5973269467552503,0.9635353783766429,0.9399315218130748
"22",0.4469041864698132,0.6320209987461567,0.9674260715643567,0.937723696231842
"23",0.5004013696064552,0.7309343591332437,0.9632216294606528,0.9289604723453523
"24",0.5195942415545385,0.6481248065829278,0.9599775671958922,0.9307695329189302
"25",0.435219021824499,0.6645604285101097,0.9673302869002025,0.9237958987553914
"26",0.8380936643419167,1.1416856187085314,0.9389884869257609,0.9063375393549602
"27",0.6220467058786502,0.8400385479132335,0.9514044225215913,0.9185729821523032
"28",0.7102341546172588,0.693806627765298,0.9438756108283998,0.9264414111773173
"29",0.6005348886052768,0.6268060902754466,0.9528453449408213,0.9250505765279136
"30",0.44861575185010827,0.5838963227967422,0.9660030802090964,0.9347086052099863
"31",0.4627003377924363,0.5947036941846212,0.9663282930850983,0.9279586772123973
"32",0.42866495251655584,0.6886352474490802,0.9687027831872305,0.927268127600352
"33",0.4527716940889756,0.5233789334694545,0.9672447840372721,0.9459228018919628
"34",0.4580962459246318,0.5751294611642759,0.9669679900010426,0.9412250916163127
"35",0.5020134958128135,0.8063456018765768,0.9618452191352844,0.9199249148368835
"36",0.537496583070606,0.5803031784792742,0.9615626235802968,0.9339499672253927
"37",0.42176596804832417,0.6004417960842452,0.9710730214913686,0.9465550084908804
"38",0.41651103684368235,0.5805470397075018,0.971566766500473,0.939240962266922
"39",0.4087755580743155,0.8370402169724307,0.9695056974887848,0.9256535967191061
"40",0.4447217400496205,0.6322787869721653,0.9678874810536704,0.9430827796459198
"41",0.45556567617071175,0.64577924584349,0.9666985273361206,0.9394743939240774
"42",0.3994574855120543,0.5758659252896906,0.970943699280421,0.9465160965919495
"43",0.4036243396015683,0.6798803191632032,0.9726207753022511,0.9411278267701466
"44",0.4698295410198626,0.7521751572688421,0.9678847094376882,0.9279975891113281
