Wall time,Step,Value
1555592128.7255578,0,4.780712604522705
1555592138.7462184,1,1.598854422569275
1555592148.6888475,2,0.5421074032783508
1555592158.6263344,3,0.28619661927223206
1555592168.5658007,4,0.18182486295700073
1555592178.518912,5,0.1491442620754242
1555592188.4251475,6,0.07444316893815994
1555592198.2376316,7,0.08784577995538712
1555592208.0466478,8,0.2503611445426941
1555592217.8591335,9,0.09094513952732086
