Wall time,Step,Value
1554672240.3184583,0,0.4243827164173126
1554672252.8594708,1,0.8125
1554672265.2954473,2,0.9290123581886292
1554672277.7254553,3,0.9320987462997437
1554672290.1593454,4,0.9521604776382446
1554672302.5895443,5,0.9645061492919922
1554672315.039751,6,0.966821014881134
1554672327.4756107,7,0.9699074029922485
1554672339.9294515,8,0.9691358208656311
1554672352.3658218,9,0.9444444179534912
1554672364.789529,10,0.9390432238578796
1554672377.3394048,11,0.8942901492118835
1554672389.7655883,12,0.9282407164573669
1554672402.2495782,13,0.9467592835426331
1554672414.6795933,14,0.9537037014961243
1554672427.1068773,15,0.9398148059844971
1554672439.5397048,16,0.9035493731498718
1554672451.954409,17,0.9089506268501282
1554672464.3882303,18,0.9143518805503845
1554672476.809189,19,0.9429012537002563
1554672489.2393463,20,0.9637345671653748
1554672501.7452316,21,0.9683641791343689
1554672514.1692598,22,0.9675925970077515
1554672526.6082935,23,0.959876537322998
1554672539.0396397,24,0.9691358208656311
1554672551.8092144,25,0.966821014881134
1554672564.2454882,26,0.9452160596847534
1554672576.6855438,27,0.9490740895271301
1554672589.1295774,28,0.9552469253540039
1554672601.5593653,29,0.9367284178733826
1554672614.0092869,30,0.9783950448036194
1554672626.4891002,31,0.959876537322998
1554672638.9216158,32,0.9745370149612427
1554672651.379429,33,0.9753086566925049
1554672663.8091164,34,0.9768518805503845
1554672676.2554793,35,0.9591049551963806
1554672688.6793234,36,0.9243826866149902
1554672701.1179473,37,0.9691358208656311
1554672713.58546,38,0.9837962985038757
1554672726.0285013,39,0.9737654328346252
1554672738.475096,40,0.9714506268501282
1554672750.9365997,41,0.977623462677002
1554672763.3692927,42,0.9845678806304932
1554672775.795236,43,0.9845678806304932
1554672788.2194107,44,0.9868826866149902
