Wall time,Step,Value,Wall time,Step,Value,Wall time,Step,Value,Wall time,Step,Value,Wall time,Step,Value,Wall time,Step,Value
1553795948.9235544,0,0.6615259647369385,1553797468.7362263,0,0.6404221057891846,1553798945.8292892,0,0.6013644933700562,1553800159.7997835,0,0.6062378287315369,1553801441.0859177,0,0.6160370111465454,1553803047.4699397,0,0.577486515045166
1553795965.607392,1,0.7589285969734192,1553797484.738052,1,0.823051929473877,1553798957.843307,1,0.7417153716087341,1553800171.5771544,1,0.8284600377082825,1553801456.7360353,1,0.8427139520645142,1553803063.5955355,1,0.8550500869750977
1553795980.2277446,2,0.8295454382896423,1553797499.9049783,2,0.8579545617103577,1553798969.7897246,2,0.819688081741333,1553800183.2763796,2,0.847953200340271,1553801472.2898386,2,0.8882035613059998,1553803078.8796918,2,0.8812644481658936
1553795994.993296,3,0.8774350881576538,1553797514.5740507,3,0.9066558480262756,1553798981.5890486,3,0.8830409646034241,1553800194.9776514,3,0.8810915946960449,1553801487.7658062,3,0.9028527140617371,1553803094.2698107,3,0.9121048450469971
1553796009.0833628,4,0.9253246784210205,1553797528.887382,4,0.9293830990791321,1553798993.365397,4,0.8849902749061584,1553800206.6612885,4,0.9025341272354126,1553801503.2700894,4,0.9367771744728088,1553803109.6796737,4,0.934464156627655
1553796023.7372992,5,0.951298713684082,1553797543.256257,5,0.9196428656578064,1553799005.117611,5,0.9113060235977173,1553800218.3381708,5,0.9317739009857178,1553801518.7100148,5,0.9406322240829468,1553803125.095679,5,0.9506553411483765
1553796038.147596,6,0.9780844449996948,1553797557.626736,6,0.9456169009208679,1553799016.8094933,6,0.9191033244132996,1553800230.3682027,6,0.9473684430122375,1553801534.200079,6,0.9136468768119812,1553803140.4099884,6,0.9745566844940186
1553796053.4232178,7,0.9870129823684692,1553797571.7859209,7,0.9610389471054077,1553799028.554621,7,0.9541910290718079,1553800243.5323434,7,0.9522417187690735,1553801549.5296202,7,0.9460293054580688,1553803155.8096235,7,0.9722436666488647
1553796068.6432722,8,0.9853895902633667,1553797586.0671208,8,0.9699675440788269,1553799040.3381221,8,0.9415204524993896,1553800257.9855385,8,0.955165684223175,1553801565.0092618,8,0.9668465852737427,1553803171.18559,8,0.9892058372497559
1553796083.4976873,9,0.9959415793418884,1553797600.5168762,9,0.961850643157959,1553799052.183348,9,0.9522417187690735,1553800272.8185043,9,0.9736841917037964,1553801580.399808,9,0.9660755395889282,1553803186.6597168,9,0.9946029186248779
1553796098.5072484,10,0.9870129823684692,1553797614.8846893,10,0.9732142686843872,1553799063.9601896,10,0.9824561476707458,1553800286.1179295,10,0.9746588468551636,1553801596.0057566,10,0.9660755395889282,1553803202.1257286,10,0.9953739643096924
1553796112.7032003,11,0.9991883039474487,1553797629.1178312,11,0.9902597665786743,1553799075.6572754,11,0.9678362607955933,1553800298.7446392,11,0.9727095365524292,1553801611.4099035,11,0.9722436666488647,1553803217.5759265,11,0.9853507876396179
1553796126.9172714,12,0.9951298832893372,1553797643.5248172,12,0.9943181872367859,1553799087.5262892,12,0.9824561476707458,1553800312.2494357,12,0.988304078578949,1553801626.8998582,12,0.9622204899787903,1553803233.0094676,12,0.9791827201843262
1553796141.2776651,13,1.0,1553797658.4456542,13,0.9959415793418884,1553799099.256608,13,0.9795321822166443,1553800325.1178305,13,0.9795321822166443,1553801642.3696222,13,0.98149573802948,1553803249.033132,13,0.986892819404602
1553796155.5833228,14,1.0,1553797673.7579224,14,0.9991883039474487,1553799110.986465,14,0.9756335020065308,1553800338.148191,14,0.9902533888816833,1553801657.7897975,14,0.9768697023391724,1553803265.625088,14,0.9969159364700317
1553796170.1735618,15,1.0,1553797688.1260326,15,0.9983766078948975,1553799122.7158182,15,0.9639376401901245,1553800350.9185443,15,0.9931774139404297,1553801673.2955468,15,0.986892819404602,1553803280.8331492,15,0.9807247519493103
1553796184.917595,16,1.0,1553797702.3069892,16,0.989448070526123,1553799134.4450185,16,0.9931774139404297,1553800364.094629,16,0.9990253448486328,1553801688.8399036,16,0.9799537658691406,1553803296.521016,16,1.0
1553796199.7869298,17,1.0,1553797716.6864314,17,0.9959415793418884,1553799146.1369748,17,0.9980506896972656,1553800376.7283614,17,0.9951267242431641,1553801704.3097465,17,0.9876638650894165,1553803315.7045453,17,0.9714726209640503
1553796214.3532033,18,1.0,1553797731.086819,18,1.0,1553799157.8980074,18,0.9990253448486328,1553800389.0245795,18,1.0,1553801719.8459015,18,0.9876638650894165,1553803331.7433648,18,0.9976869821548462
1553796229.283531,19,1.0,1553797745.3699095,19,1.0,1553799169.7349043,19,0.9902533888816833,1553800401.3378122,19,0.9990253448486328,1553801735.3799667,19,0.9915189146995544,1553803346.5816069,19,1.0
1553796243.8633704,20,1.0,1553797759.90697,20,1.0,1553799181.4427812,20,0.9990253448486328,1553800413.7143693,20,1.0,1553801750.8554735,20,0.9946029186248779,1553803361.466915,20,1.0
1553796258.6373103,21,1.0,1553797774.407064,21,1.0,1553799193.226005,21,1.0,1553800426.178487,21,1.0,1553801766.4158723,21,0.9938319325447083,1553803376.5433927,21,0.9838088154792786
1553796272.9934666,22,1.0,1553797788.9869194,22,0.9959415793418884,1553799204.9619331,22,1.0,1553800438.5179596,22,1.0,1553801782.0196507,22,0.9984579682350159,1553803391.4979157,22,1.0
1553796287.363517,23,1.0,1553797803.062162,23,0.9983766078948975,1553799216.830302,23,1.0,1553800450.8284433,23,1.0,1553801797.4954824,23,0.9969159364700317,1553803406.2361627,23,1.0
1553796302.6532066,24,1.0,1553797817.4832923,24,1.0,1553799228.823077,24,1.0,1553800463.058663,24,1.0,1553801813.0395634,24,0.9976869821548462,1553803420.99018,24,1.0
1553796318.5376277,25,1.0,1553797833.9471178,25,1.0,1553799240.7622395,25,1.0,1553800475.4684327,25,1.0,1553801828.7199724,25,0.9922899007797241,1553803436.1293757,25,1.0
1553796332.6562538,26,1.0,1553797848.9664376,26,1.0,1553799252.5369782,26,1.0,1553800487.7379076,26,1.0,1553801844.3192873,26,0.9984579682350159,1553803450.883017,26,1.0
1553796347.4474504,27,1.0,1553797863.946575,27,1.0,1553799264.250938,27,0.9990253448486328,1553800499.8885634,27,1.0,1553801859.779346,27,0.9969159364700317,1553803465.6745915,27,1.0
1553796363.8536005,28,0.9780844449996948,1553797878.5168216,28,1.0,1553799275.9124444,28,1.0,1553800512.1985068,28,1.0,1553801875.2197793,28,1.0,1553803480.5907552,28,1.0
1553796379.4373777,29,0.9521104097366333,1553797893.5827107,29,1.0,1553799287.707164,29,1.0,1553800524.5184803,29,1.0,1553801890.7798889,29,0.9984579682350159,1553803495.498207,29,1.0
1553796393.9035444,30,0.9740259647369385,1553797907.6469605,30,1.0,1553799299.5377474,30,1.0,1553800536.7881746,30,1.0,1553801906.9110112,30,0.9938319325447083,1553803510.3209307,30,1.0
1553796408.693089,31,0.9642857313156128,1553797922.0530105,31,1.0,1553799311.3361092,31,1.0,1553800549.0984964,31,1.0,1553801922.8709896,31,0.9984579682350159,1553803525.1900246,31,1.0
1553796422.9975247,32,0.9870129823684692,1553797937.5325909,32,1.0,1553799323.096779,32,1.0,1553800561.434292,32,1.0,1553801938.728346,32,1.0,1553803539.9439702,32,1.0
1553796437.7516022,33,0.9983766078948975,1553797952.5422478,33,1.0,1553799334.810571,33,1.0,1553800573.7985902,33,1.0,1553801954.9984198,33,1.0,1553803554.920299,33,1.0
1553796452.8775706,34,0.9991883039474487,1553797966.8426232,34,1.0,1553799346.6715305,34,1.0,1553800586.1241224,34,1.0,1553801971.0268283,34,1.0,1553803569.8275876,34,1.0
1553796468.2731364,35,1.0,1553797981.6269438,35,1.0,1553799358.4006562,35,1.0,1553800598.4579735,35,1.0,1553801987.098394,35,1.0,1553803584.7283885,35,1.0
1553796483.0471928,36,1.0,1553797995.796958,36,1.0,1553799370.1311772,36,1.0,1553800610.86417,36,0.9912280440330505,1553802003.068668,36,1.0,1553803599.9782047,36,1.0
1553796497.9670959,37,1.0,1553798010.555279,37,0.9821428656578064,1553799382.0145974,37,1.0,1553800623.0843794,37,0.9785575270652771,1553802019.2445316,37,1.0,1553803614.9510174,37,1.0
1553796513.5866587,38,1.0,1553798025.1429522,38,0.961850643157959,1553799393.7763574,38,1.0,1553800635.5283215,38,0.9775828719139099,1553802034.7643046,38,1.0,1553803629.8572702,38,1.0
1553796529.5764244,39,1.0,1553798040.9166627,39,0.9951298832893372,1553799405.5223272,39,1.0,1553800647.7685142,39,0.9912280440330505,1553802050.4686925,39,1.0,1553803644.7110243,39,1.0
1553796544.4571164,40,1.0,1553798055.6673481,40,0.9870129823684692,1553799417.2528546,40,1.0,1553800660.064117,40,0.9980506896972656,1553802066.004501,40,1.0,1553803663.5603468,40,1.0
1553796559.2534401,41,1.0,1553798070.8128011,41,0.9918830990791321,1553799428.9143953,41,1.0,1553800672.5284383,41,0.9873294234275818,1553802081.7278638,41,1.0,1553803683.7608805,41,1.0
1553796574.177057,42,1.0,1553798084.8170052,42,0.9943181872367859,1553799440.6666758,42,1.0,1553800685.01857,42,0.9990253448486328,1553802097.638666,42,1.0,1553803699.2511566,42,1.0
1553796589.2134054,43,1.0,1553798099.0507174,43,0.9991883039474487,1553799452.4974875,43,1.0,1553800697.418206,43,1.0,1553802113.394559,43,1.0,1553803714.6811652,43,1.0
1553796604.3532858,44,1.0,1553798113.5768952,44,1.0,1553799464.2278,44,1.0,1553800709.6177578,44,1.0,1553802129.1842933,44,1.0,1553803729.8871675,44,1.0
1553796619.2263036,45,1.0,1553798127.7900448,45,1.0,1553799476.1608222,45,1.0,1553800721.8484485,45,1.0,1553802145.1483898,45,1.0,1553803745.1198704,45,1.0
1553796633.3472877,46,1.0,1553798141.857272,46,1.0,1553799487.8223398,46,1.0,1553800734.2378187,46,1.0,1553802160.958531,46,1.0,1553803760.371304,46,1.0
1553796648.0533113,47,1.0,1553798156.232559,47,1.0,1553799499.5523863,47,1.0,1553800746.4382558,47,1.0,1553802176.7445307,47,1.0,1553803776.431087,47,1.0
1553796661.9733691,48,1.0,1553798170.5769,48,1.0,1553799511.2295272,48,1.0,1553800758.7282112,48,1.0,1553802192.3186057,48,1.0,1553803791.8768594,48,1.0
1553796676.1732423,49,1.0,1553798184.9524784,49,1.0,1553799522.928774,49,0.9941520690917969,1553800771.0081866,49,1.0,1553802208.0285318,49,1.0,1553803806.7409942,49,1.0
1553796690.533212,50,1.0,1553798199.538329,50,1.0,1553799534.7125573,50,0.9278752207756042,1553800783.4379687,50,1.0,1553802223.558733,50,1.0,1553803822.0488114,50,1.0
1553796704.9533947,51,1.0,1553798214.262792,51,1.0,1553799546.4430802,51,0.9532163739204407,1553800795.8082838,51,1.0,1553802239.4482696,51,1.0,1553803837.4167671,51,1.0
1553796719.2932415,52,1.0,1553798229.2090018,52,1.0,1553799558.2360952,52,0.988304078578949,1553800808.0579274,52,1.0,1553802255.1645093,52,1.0,1553803853.0709026,52,1.0
1553796734.1968145,53,1.0,1553798244.376732,53,1.0,1553799569.9353366,53,0.988304078578949,1553800820.5183616,53,1.0,1553802271.158685,53,1.0,1553803868.943419,53,1.0
1553796748.7833624,54,1.0,1553798259.5124671,54,1.0,1553799581.7192495,54,0.9814814925193787,1553800832.754037,54,1.0,1553802286.8344307,54,1.0,1553803884.7308488,54,1.0
1553796763.333383,55,1.0,1553798274.2524965,55,1.0,1553799593.4963143,55,1.0,1553800845.054032,55,1.0,1553802302.7643511,55,1.0,1553803900.1476805,55,1.0
1553796778.2432175,56,1.0,1553798289.5605853,56,1.0,1553799605.2424676,56,1.0,1553800857.2583547,56,1.0,1553802318.8744795,56,1.0,1553803916.6611571,56,1.0
1553796792.4331748,57,1.0,1553798304.2024817,57,1.0,1553799617.010483,57,0.9990253448486328,1553800869.5044775,57,1.0,1553802334.9786463,57,1.0,1553803931.4410446,57,1.0
1553796806.6565254,58,1.0,1553798318.3719323,58,1.0,1553799628.6720073,58,0.9990253448486328,1553800881.8084588,58,1.0,1553802351.3344154,58,1.0,1553803947.4548576,58,1.0
1553796821.277272,59,1.0,1553798332.873901,59,1.0,1553799640.3869069,59,0.9902533888816833,1553800894.09431,59,1.0,1553802367.2245696,59,0.9421742558479309,1553803962.8710194,59,1.0
1553796836.8633804,60,1.0,1553798347.0766652,60,1.0,1553799652.1322722,60,0.9980506896972656,1553800906.4384565,60,1.0,1553802382.9485128,60,0.9707016348838806,1553803978.9267056,60,1.0
1553796851.793325,61,1.0,1553798361.4517753,61,1.0,1553799663.862792,61,0.9980506896972656,1553800918.7943873,61,1.0,1553802398.564355,61,0.9745566844940186,1553803994.9909372,61,1.0
1553796866.4969838,62,1.0,1553798376.6685581,62,1.0,1553799675.6087046,62,1.0,1553800931.0081096,62,1.0,1553802413.9603448,62,0.9799537658691406,1553804010.696733,62,1.0
1553796880.7430754,63,1.0,1553798391.400954,63,1.0,1553799687.2858303,63,1.0,1553800943.3640022,63,1.0,1553802428.9838061,63,0.9876638650894165,1553804025.5700037,63,1.0
1553796894.8773828,64,1.0,1553798406.6566577,64,1.0,1553799698.9538243,64,1.0,1553800955.6440206,64,1.0,1553802444.2700508,64,0.99074786901474,1553804041.4203098,64,1.0
1553796908.6871293,65,1.0,1553798421.265378,65,1.0,1553799711.2073307,65,1.0,1553800968.1340063,65,1.0,1553802459.966087,65,0.9961449503898621,1553804057.5069091,65,1.0
1553796922.4671826,66,1.0,1553798435.7740312,66,1.0,1553799722.9535267,66,1.0,1553800980.54443,66,1.0,1553802475.799526,66,0.9992290139198303,1553804073.070859,66,1.0
1553796936.5929513,67,1.0,1553798450.501398,67,1.0,1553799734.7529101,67,1.0,1553800992.9281116,67,1.0,1553802491.7499542,67,0.9984579682350159,1553804088.6508908,67,1.0
1553796950.977367,68,1.0,1553798464.636686,68,1.0,1553799746.4990838,68,1.0,1553801005.2641761,68,1.0,1553802507.579703,68,1.0,1553804104.6763268,68,1.0
1553796965.5430193,69,1.0,1553798479.5995898,69,1.0,1553799758.1983762,69,1.0,1553801017.498321,69,1.0,1553802523.349317,69,1.0,1553804120.0978508,69,1.0
1553796980.1370902,70,1.0,1553798493.6667917,70,1.0,1553799769.9450579,70,1.0,1553801029.8082728,70,1.0,1553802539.0000272,70,1.0,1553804135.622028,70,1.0
1553796994.6772747,71,1.0,1553798507.7180567,71,1.0,1553799781.644362,71,1.0,1553801042.1440322,71,1.0,1553802554.6797433,71,1.0,1553804151.1068904,71,1.0
1553797009.2170627,72,1.0,1553798521.522734,72,1.0,1553799793.3749084,72,1.0,1553801054.7438867,72,1.0,1553802570.3699942,72,1.0,1553804166.456876,72,1.0
1553797024.2333784,73,1.0,1553798535.4115822,73,1.0,1553799805.0671067,73,1.0,1553801066.536815,73,1.0,1553802586.0398872,73,1.0,1553804181.9109118,73,1.0
1553797038.1728697,74,1.0,1553798549.378789,74,1.0,1553799816.866667,74,1.0,1553801078.2516737,74,1.0,1553802601.8700285,74,1.0,1553804197.2693408,74,1.0
1553797052.5666876,75,1.0,1553798563.2655182,75,1.0,1553799828.6440296,75,1.0,1553801090.035111,75,1.0,1553802617.6857033,75,1.0,1553804213.0566695,75,1.0
1553797067.3571212,76,1.0,1553798577.1784427,76,1.0,1553799840.296198,76,1.0,1553801101.6653564,76,1.0,1553802633.3999708,76,1.0,1553804228.4348857,76,1.0
1553797081.8883684,77,1.0,1553798591.0675113,77,1.0,1553799851.9733636,77,1.0,1553801113.4894214,77,1.0,1553802649.1356895,77,1.0,1553804244.1967733,77,1.0
1553797096.2330787,78,1.0,1553798605.0189514,78,1.0,1553799863.7192323,78,1.0,1553801125.225657,78,1.0,1553802664.8561077,78,1.0,1553804260.159455,78,1.0
1553797110.3818212,79,1.0,1553798618.923761,79,1.0,1553799875.3651366,79,1.0,1553801136.9341486,79,1.0,1553802680.4700284,79,1.0,1553804276.4301507,79,1.0
1553797124.7706552,80,1.0,1553798632.889785,80,1.0,1553799887.101946,80,1.0,1553801148.7179615,80,1.0,1553802696.0258715,80,1.0,1553804292.3109074,80,1.0
1553797139.4169526,81,1.0,1553798646.5560267,81,1.0,1553799898.8480687,81,1.0,1553801160.46392,81,1.0,1553802711.6759086,81,1.0,1553804308.3261645,81,1.0
1553797153.1672158,82,0.9967532753944397,1553798660.5453072,82,1.0,1553799910.540694,82,1.0,1553801172.2256262,82,1.0,1553802727.3793402,82,1.0,1553804324.5382223,82,1.0
1553797167.1532218,83,0.9107142686843872,1553798674.3804715,83,1.0,1553799922.3396974,83,1.0,1553801183.8929775,83,1.0,1553802743.0200772,83,1.0,1553804339.981323,83,1.0
1553797181.2070627,84,0.975649356842041,1553798688.3855844,84,1.0,1553799933.9699364,84,1.0,1553801195.7016892,84,1.0,1553802758.7092013,84,1.0,1553804355.6800365,84,1.0
1553797195.3870173,85,0.9821428656578064,1553798702.1831493,85,1.0,1553799945.7157934,85,1.0,1553801207.4692984,85,1.0,1553802774.5599034,85,1.0,1553804371.5261555,85,1.0
1553797210.4731889,86,0.9975649118423462,1553798715.9878535,86,1.0,1553799957.3833616,86,1.0,1553801219.1997542,86,1.0,1553802790.406157,86,1.0,1553804386.866046,86,1.0
1553797224.4272394,87,1.0,1553798729.8689127,87,1.0,1553799969.145159,87,1.0,1553801231.01474,87,1.0,1553802806.0699744,87,1.0,1553804402.463289,87,1.0
1553797238.34316,88,1.0,1553798743.7623873,88,1.0,1553799980.8441446,88,1.0,1553801242.7073247,88,1.0,1553802821.6460447,88,1.0,1553804418.0615962,88,1.0
1553797252.3070707,89,1.0,1553798757.6446028,89,1.0,1553799992.5213263,89,1.0,1553801254.4753146,89,1.0,1553802837.2057462,89,1.0,1553804433.749391,89,1.0
1553797266.2171712,90,1.0,1553798771.4133742,90,1.0,1553800004.227229,90,1.0,1553801266.2519867,90,1.0,1553802852.6000974,90,0.9791827201843262,1553804449.255189,90,1.0
1553797280.9169168,91,1.0,1553798785.3526514,91,1.0,1553800015.888752,91,1.0,1553801277.9507027,91,1.0,1553802868.1299555,91,0.9730146527290344,1553804464.7954948,91,1.0
1553797295.4569826,92,1.0,1553798799.266116,92,1.0,1553800027.6036572,92,1.0,1553801289.6810932,92,1.0,1553802883.5900252,92,0.9791827201843262,1553804480.9132857,92,1.0
1553797310.4072156,93,1.0,1553798813.1696134,93,1.0,1553800039.4186144,93,1.0,1553801301.4958682,93,1.0,1553802899.1000438,93,0.9884348511695862,1553804496.6395886,93,1.0
1553797324.8470974,94,1.0,1553798827.0207312,94,1.0,1553800051.1178937,94,1.0,1553801313.2419512,94,1.0,1553802914.7557874,94,0.9861218333244324,1553804512.9993756,94,1.0
1553797339.095621,95,1.0,1553798840.8253772,95,0.9837662577629089,1553800062.794988,95,1.0,1553801325.0414393,95,1.0,1553802930.299629,95,0.9969159364700317,1553804528.5621734,95,1.0
1553797353.536384,96,1.0,1553798854.6920314,96,0.9610389471054077,1553800074.4470572,96,1.0,1553801336.834497,96,1.0,1553802945.7897017,96,1.0,1553804544.6219625,96,1.0
1553797368.357022,97,1.0,1553798868.5958004,97,0.9959415793418884,1553800086.055204,97,1.0,1553801348.4799988,97,1.0,1553802961.3860295,97,1.0,1553804560.9177682,97,1.0
1553797382.983132,98,1.0,1553798882.5153677,98,0.9975649118423462,1553800097.8228006,98,1.0,1553801360.4264073,98,1.0,1553802976.8496382,98,0.9930608868598938,1553804576.855072,98,1.0
1553797397.3271124,99,1.0,1553798896.3342192,99,1.0,1553800109.5689046,99,1.0,1553801372.078583,99,1.0,1553802992.2400186,99,1.0,1553804592.8178978,99,1.0
