40,60,67,16,11
41,60,65,16,17
42,61,65,16,15
43,61,65,15,19
44,62,65,14,19
45,62,65,15,19
46,63,65,15,19
47,63,65,15,11
48,65,65,15,24
49,65,65,15,19
50,65,65,22,11
51,65,65,19,11
52,66,65,19,11
53,67,65,19,12
54,68,65,16,15
55,68,65,14,15
56,68,65,15,14
57,69,65,15,16
58,69,65,15,20
59,70,65,15,20
60,70,65,15,23
61,70,65,15,19
62,70,65,16,13
63,71,65,15,11
64,71,65,15,13
65,72,65,14,15
66,73,65,14,17
67,73,65,14,17
68,74,65,14,17
69,74,65,14,19
70,74,65,16,19
71,75,65,16,16
72,76,65,14,26
73,76,65,14,20
74,76,64,14,13
75,77,64,14,13
76,78,64,14,13
77,79,66,14,12
78,79,68,14,12
79,80,65,15,17
80,80,65,15,17
81,80,65,15,19
82,80,65,15,25
83,82,65,15,25
84,82,65,15,27
85,82,65,15,25
86,82,65,15,20
87,84,65,13,12
88,85,65,13,12
89,85,70,14,10
90,85,65,14,17
91,86,65,14,19
92,87,65,14,19
93,88,65,14,19
94,89,65,14,20
95,89,65,14,24
96,90,65,15,12
97,90,65,15,12
98,90,65,15,16
99,91,65,15,13
100,92,65,15,13
101,92,65,15,15
102,93,69,15,13
103,93,69,15,13
104,95,65,15,22
105,95,65,15,21
106,96,65,15,21
107,97,65,15,23
108,98,65,13,26
109,98,65,13,27
110,98,65,13,12
111,100,65,15,12
112,99,70,15,8
113,100,71,15,8
114,100,68,15,18
115,102,65,15,20
116,102,65,15,17
117,103,65,15,24
118,103,65,15,22
119,105,65,15,26
120,105,65,13,14
121,106,64,13,14
122,106,64,13,14
123,107,65,13,12
124,107,65,15,13
125,107,67,15,13
126,107,69,15,13
127,109,68,15,13
128,110,64,15,20
129,110,65,15,20
130,110,69,15,15
131,112,69,15,13
132,113,65,15,13
133,113,65,15,17
134,114,65,15,13
135,114,64,15,13
136,114,71,15,6
137,115,71,15,6
138,116,72,15,10
139,116,69,15,14
140,118,66,14,21
141,119,68,13,17
142,120,66,13,17
143,120,64,13,17
144,121,64,13,17
145,122,64,13,17
146,122,63,13,17
147,124,67,13,13
148,124,70,13,9
149,125,70,13,9
150,125,70,13,12
151,125,70,13,12
152,126,65,13,19
153,128,65,13,19
154,129,65,13,19
155,130,65,13,15
156,130,65,13,23
157,130,65,13,18
158,131,65,13,13
159,131,65,13,13
160,132,69,13,9
161,132,69,13,9
162,133,69,13,13
163,134,66,13,17
164,135,66,13,17
165,135,66,13,17
166,135,66,13,13
167,137,66,13,13
168,137,66,13,13
169,137,65,13,22
170,137,65,13,12
171,138,69,13,8
172,139,70,13,8
173,140,72,13,8
174,140,71,13,10
175,141,66,13,15
176,143,66,13,15
177,143,71,13,12
178,143,66,13,12
179,144,65,13,12
180,145,64,13,12
181,145,65,13,23
182,146,65,13,15
183,147,65,13,15
184,147,65,13,15
185,148,65,13,15
186,148,68,13,13
187,150,67,13,17
188,150,67,13,17
189,150,65,13,24
190,150,69,13,12
191,151,68,14,10
192,152,65,14,12
193,152,65,15,19
194,154,65,13,17
195,154,65,13,11
196,155,69,13,9
197,156,70,14,8
198,156,70,14,8
199,156,72,14,8
200,159,65,12,16
201,159,65,12,16
202,160,65,12,16
203,161,65,12,16
204,161,65,12,16
205,162,65,12,12
206,162,65,12,11
207,163,65,12,11
208,163,65,12,11
209,164,70,14,8
210,163,70,14,8
211,165,68,14,12
212,165,68,14,14
213,166,65,14,21
214,167,65,14,21
215,168,66,14,16
216,168,66,14,11
217,169,66,12,11
218,170,66,12,20
219,170,66,14,13
220,170,66,14,11
221,170,66,14,11
222,170,66,14,11
223,171,66,14,11
224,172,66,14,17
225,173,66,14,17
226,173,66,14,12
227,173,66,14,12
228,174,66,14,12
229,174,66,14,9
230,176,66,14,9
231,176,66,14,9
232,176,68,14,7
233,177,68,14,7
234,178,65,14,11
235,178,65,14,11
236,179,68,14,11
237,180,67,13,9
238,179,67,13,9
239,180,66,13,9
