{
    "participants": [
        {
            "id": 01,
            "description": "human, Dan"
        },
        {
            "id": 02,
            "description": "human, Ivan"
        },
        {
            "id": 03,
            "description": "human, Joe"
        },
        {
            "id": 04,
            "description": "bicycle, Dan"
        },
        {
            "id": 05,
            "description": "bicycle, Will"
        },
        {
            "id": 06,
            "description": "car, Vauxhall Corsa 2010, Ivan"
        },
        {
            "id": 07,
            "description": "car, Mazda MX-5 2018, Joe"
        },
		{
            "id": 08,
            "description": "human, Will"
        },
		{
            "id": 09,
            "description": "human, Max"
        },
		{
            "id": 10,
            "description": "bicycle, Ivan"
        },
    ]
}
