Wall time,Step,Value,Wall time,Step,Value,Wall time,Step,Value,Wall time,Step,Value,Wall time,Step,Value,Wall time,Step,Value
1555596450.4339979,0,0.31699347496032715,1555596622.3030922,0,0.6870915293693542,1555596793.1510813,0,0.603515625,1555596947.2037861,0,0.474609375,1555597104.2173645,0,0.6172839403152466,1555597281.9781227,0,0.40432098507881165
1555596462.2490983,1,0.3341503143310547,1555596634.1362934,1,0.8153594732284546,1555596803.0745125,1,0.6845703125,1555596957.1322644,1,0.515625,1555597116.7693899,1,0.8271604776382446,1555597294.4947426,1,0.42515432834625244
1555596473.9900532,2,0.4779411852359772,1555596646.180362,2,0.875,1555596812.891777,2,0.685546875,1555596966.980484,2,0.515625,1555597129.1911318,2,0.8850308656692505,1555597306.8895767,2,0.3966049253940582
1555596485.7424734,3,0.6879084706306458,1555596658.6341429,3,0.9142156839370728,1555596822.7221816,3,0.685546875,1555596976.7737947,3,0.5166015625,1555597141.6099658,3,0.9058641791343689,1555597319.29471,3,0.3780864179134369
1555596497.4903643,4,0.8178104758262634,1555596670.4431067,4,0.9248365759849548,1555596832.526527,4,0.6845703125,1555596986.6025836,4,0.5166015625,1555597154.0323315,4,0.9266975522041321,1555597331.7018907,4,0.37731480598449707
1555596509.262704,5,0.8651960492134094,1555596682.3632934,5,0.9428104758262634,1555596842.3593154,5,0.6884765625,1555596996.4626815,5,0.5166015625,1555597166.4661257,5,0.9459876418113708,1555597344.151608,5,0.3780864179134369
1555596521.015833,6,0.8888888955116272,1555596694.1248276,6,0.9509803652763367,1555596852.1592972,6,0.6337890625,1555597006.2609694,6,0.5166015625,1555597178.9011781,6,0.9513888955116272,1555597356.5464234,6,0.3780864179134369
1555596532.7480915,7,0.9101307392120361,1555596705.855113,7,0.9550653696060181,1555596861.9640331,7,0.634765625,1555597016.0582485,7,0.5166015625,1555597191.3439069,7,0.9660493731498718,1555597368.953038,7,0.3780864179134369
1555596544.5150654,8,0.936274528503418,1555596717.5978057,8,0.9616013169288635,1555596871.785227,8,0.6279296875,1555597025.866128,8,0.509765625,1555597203.7884538,8,0.9537037014961243,1555597381.3648527,8,0.3788580298423767
1555596556.2733243,9,0.9468954205513,1555596729.3699534,9,0.9722222089767456,1555596881.600415,9,0.4140625,1555597035.7805448,9,0.513671875,1555597216.194929,9,0.959876537322998,1555597393.7904656,9,0.3788580298423767
