model_recall: [0.7326385454378282, 0.7662707719891045, 0.4, 0.4, 0.8056547754827317, 0.4],
model_precision: [0.747648691514671, 0.8022415049913502, 0.20727526132404178, 0.24109589041095889, 0.7510113893624122, 0.22034200909420593],
model_f1_score: [0.6978035568389126, 0.713676463346613, 0.25604505354269547, 0.2681818181818182, 0.7611151568535997, 0.2501545384862646],
class_recall: {'NONE': [1.0, 1.0, 1.0, 1.0, 1.0, 1.0], 'PEDESTRIAN': [0.19487179487179487, 0.15897435897435896, 0.0, 1.0, 0.4527027027027027, 0.0], 'PEDEST_TWO': [0.7164948453608248, 0.7783505154639175, 1.0, 0.0, 0.6804123711340206, 0.0], 'BICYCLE': [0.904, 0.952, 0.0, 0.0, 0.9893617021276596, 1.0], 'CAR': [0.8478260869565217, 0.9420289855072463, 0.0, 0.0, 0.9057971014492754, 0.0]},
class_precision: {'NONE': [1.0, 0.9230769230769231, 0.7866666666666666, 1.0, 0.6444444444444445, 0.9365079365079365], 'PEDESTRIAN': [0.7307692307692307, 0.96875, 0.0, 0.2054794520547945, 0.6979166666666666, 0.0], 'PEDEST_TWO': [0.49642857142857144, 0.5189003436426117, 0.2497096399535424, 0.0, 0.6804123711340206, 0.0], 'BICYCLE': [0.5824742268041238, 0.6230366492146597, 0.0, 0.0, 0.7322834645669292, 0.16520210896309315], 'CAR': [0.9285714285714286, 0.9774436090225563, 0.0, 0.0, 1.0, 0.0]},
class_f1_score: {'NONE': [1.0, 0.9600000000000001, 0.8805970149253731, 1.0, 0.7837837837837839, 0.9672131147540983], 'PEDESTRIAN': [0.3076923076923077, 0.27312775330396477, 0.0, 0.3409090909090909, 0.5491803278688524, 0.0], 'PEDEST_TWO': [0.5864978902953586, 0.622680412371134, 0.3996282527881041, 0.0, 0.6804123711340206, 0.0], 'BICYCLE': [0.7084639498432602, 0.7531645569620254, 0.0, 0.0, 0.8416289592760181, 0.2835595776772248], 'CAR': [0.8863636363636365, 0.9594095940959411, 0.0, 0.0, 0.9505703422053232, 0.0]},
model_recall_avg: 0.5840940154849441,
model_precision_avg: 0.4949357911162733,
model_f1_score_avg: 0.4911627645416506,
model_recall_stddev: 0.1852992345604847,
model_precision_stddev: 0.27278206946839845,
model_f1_score_stddev: 0.23387064188112225,
class_recall_avg: {'NONE': 1.0, 'PEDESTRIAN': 0.3010914760914761, 'PEDEST_TWO': 0.5292096219931272, 'BICYCLE': 0.6408936170212766, 'CAR': 0.4492753623188406},
class_precision_avg: {'NONE': 0.8817826617826618, 'PEDESTRIAN': 0.4338192249151153, 'PEDEST_TWO': 0.32424182102645766, 'BICYCLE': 0.3504994082581343, 'CAR': 0.48433583959899745},
class_f1_score_avg: {'NONE': 0.9319323189105425, 'PEDESTRIAN': 0.24515157996236928, 'PEDEST_TWO': 0.38153648776476956, 'BICYCLE': 0.43113617395975473, 'CAR': 0.4660572621108168},
class_recall_stddev: {'NONE': 0.0, 'PEDESTRIAN': 0.3474313213745827, 'PEDEST_TWO': 0.38768080493346313, 'BICYCLE': 0.4542188913591572, 'CAR': 0.4501122017773967},
class_precision_stddev: {'NONE': 0.12781968533587298, 'PEDESTRIAN': 0.38136050104225405, 'PEDEST_TWO': 0.26147601586176766, 'BICYCLE': 0.3038318310359306, 'CAR': 0.48479440206783},
class_f1_score_stddev: {'NONE': 0.07733288389633106, 'PEDESTRIAN': 0.1942916980865869, 'PEDEST_TWO': 0.28312360596125624, 'BICYCLE': 0.35181741341589423, 'CAR': 0.46662529778436235},
fpr: {'average': array([0.        , 0.09786184, 0.09851974, ..., 0.65838816, 0.65899123,
       1.        ]), 'none': array([0.        , 0.00428164, 0.00451951, 0.00475737, 0.00499524,
       0.00499524, 0.00499524, 0.00499524, 0.00499524, 0.00499524,
       0.00499524, 0.00499524, 0.00499524, 0.00547098, 0.00547098,
       0.00547098, 0.00547098, 0.00547098, 0.00547098, 0.00570885,
       0.00570885, 0.00594672, 0.00594672, 0.00618459, 0.00618459,
       0.00642245, 0.00642245, 0.00666032, 0.00666032, 0.00689819,
       0.00689819, 0.00713606, 0.00713606, 0.00737393, 0.00737393,
       0.0076118 , 0.0076118 , 0.00784967, 0.00784967, 0.00808754,
       0.00808754, 0.00808754, 0.00808754, 0.0083254 , 0.0083254 ,
       0.01046622, 0.01046622, 0.01094196, 0.01094196, 0.01117983,
       0.01117983, 0.0114177 , 0.0114177 , 0.01165557, 0.01165557,
       0.01189343, 0.01189343, 0.0121313 , 0.0121313 , 0.54995243,
       1.        ]), 'pedestrian': array([0.        , 0.19749216, 0.19806213, 0.19806213, 0.19834711,
       0.19834711, 0.19863209, 0.19863209, 0.19891707, 0.19891707,
       0.19920205, 0.19920205, 0.19948703, 0.19948703, 0.19977201,
       0.19977201, 0.200057  , 0.200057  , 0.20091194, 0.20091194,
       0.20119692, 0.20119692, 0.20205187, 0.20205187, 0.20262183,
       0.20262183, 0.20290681, 0.20290681, 0.20319179, 0.20319179,
       0.20347677, 0.20347677, 0.20376176, 0.20376176, 0.20404674,
       0.20404674, 0.20433172, 0.20433172, 0.2046167 , 0.2046167 ,
       0.20490168, 0.20490168, 0.20518666, 0.20518666, 0.20575663,
       0.20575663, 0.20632659, 0.20632659, 0.20661157, 0.20661157,
       0.20689655, 0.20689655, 0.20718153, 0.20718153, 0.2077515 ,
       0.2077515 , 0.20832146, 0.20832146, 0.20860644, 0.20860644,
       0.2091764 , 0.2091764 , 0.20946139, 0.20946139, 0.20974637,
       0.20974637, 0.21003135, 0.21003135, 0.21060131, 0.21060131,
       0.21088629, 0.21088629, 0.21117127, 0.21117127, 0.21145626,
       0.21145626, 0.21174124, 0.21174124, 0.21202622, 0.21202622,
       0.2123112 , 0.2123112 , 0.21288116, 0.21288116, 0.21345113,
       0.21345113, 0.21430607, 0.21430607, 0.21601596, 0.21601596,
       0.21630094, 0.21630094, 0.2168709 , 0.2168709 , 0.21744087,
       0.21744087, 0.21772585, 0.21772585, 0.21801083, 0.21801083,
       0.21858079, 0.21858079, 0.21886577, 0.21886577, 0.21915076,
       0.21915076, 0.21943574, 0.21943574, 0.21972072, 0.21972072,
       0.22029068, 0.22029068, 0.22057566, 0.22057566, 0.22086064,
       0.22086064, 0.22143061, 0.22143061, 0.22171559, 0.22171559,
       0.22200057, 0.22200057, 0.22257053, 0.22257053, 0.22342548,
       0.22342548, 0.22371046, 0.22371046, 0.22428042, 0.22428042,
       0.22542035, 0.22542035, 0.22599031, 0.22599031, 0.22656027,
       0.22656027, 0.22827016, 0.22827016, 0.22884013, 0.22884013,
       0.22941009, 0.22941009, 0.23026503, 0.23026503, 0.23055001,
       0.23055001, 0.23197492, 0.23197492, 0.2322599 , 0.2322599 ,
       0.23282987, 0.23282987, 0.23339983, 0.23339983, 0.23425477,
       0.23425477, 0.23681961, 0.23681961, 0.23738957, 0.23738957,
       0.23795953, 0.23795953, 0.2399544 , 0.2399544 , 0.24023938,
       0.24023938, 0.24052437, 0.24052437, 0.24137931, 0.24137931,
       0.24166429, 0.24166429, 0.2430892 , 0.2430892 , 0.24394414,
       0.24394414, 0.24451411, 0.24451411, 0.24508407, 0.24508407,
       0.24536905, 0.24536905, 0.24650898, 0.24650898, 0.24679396,
       0.24679396, 0.24935879, 0.24935879, 0.25021374, 0.25021374,
       0.2507837 , 0.2507837 , 0.25135366, 0.25135366, 0.25192362,
       0.25192362, 0.25249359, 0.25249359, 0.25277857, 0.25277857,
       0.25306355, 0.25306355, 0.25448846, 0.25448846, 0.25477344,
       0.25477344, 0.2553434 , 0.2553434 , 0.25562838, 0.25562838,
       0.25591337, 0.25591337, 0.25648333, 0.25648333, 0.25676831,
       0.25676831, 0.25705329, 0.25705329, 0.25790824, 0.25790824,
       0.25819322, 0.25819322, 0.25876318, 0.25876318, 0.25933314,
       0.25933314, 0.25961812, 0.25961812, 0.25990311, 0.25990311,
       0.26018809, 0.26018809, 0.26104303, 0.26104303, 0.26218296,
       0.26218296, 0.2630379 , 0.2630379 , 0.26332288, 0.26332288,
       0.26360787, 0.26360787, 0.26446281, 0.26446281, 0.26474779,
       0.26474779, 0.26503277, 0.26503277, 0.26531775, 0.26531775,
       0.26674266, 0.26674266, 0.26702764, 0.26702764, 0.26788259,
       0.26788259, 0.26816757, 0.26816757, 0.26902251, 0.26902251,
       0.2693075 , 0.2693075 , 0.27016244, 0.27016244, 0.27101738,
       0.27101738, 0.27130237, 0.27130237, 0.27158735, 0.27158735,
       0.27215731, 0.27215731, 0.27272727, 0.27272727, 0.27329724,
       0.27329724, 0.27358222, 0.27358222, 0.27443716, 0.27443716,
       0.27529211, 0.27529211, 0.27586207, 0.27586207, 0.27614705,
       0.27614705, 0.27643203, 0.27643203, 0.27757196, 0.27757196,
       0.27814192, 0.27814192, 0.27871188, 0.27871188, 0.27899687,
       0.27899687, 0.27985181, 0.27985181, 0.28127672, 0.28127672,
       0.28213166, 0.28213166, 0.28298661, 0.28298661, 0.28327159,
       0.28327159, 0.28412653, 0.28412653, 0.28441151, 0.28441151,
       0.28555144, 0.28555144, 0.28640638, 0.28640638, 0.28697635,
       0.28697635, 0.28726133, 0.28726133, 0.28868624, 0.28868624,
       0.28897122, 0.28897122, 0.2892562 , 0.2892562 , 0.28954118,
       0.28954118, 0.29096609, 0.29096609, 0.29125107, 0.29125107,
       0.29182103, 0.29182103, 0.29296096, 0.29296096, 0.29609575,
       0.29609575, 0.29638074, 0.29638074, 0.29666572, 0.29666572,
       0.2969507 , 0.2969507 , 0.30008549, 0.30008549, 0.30037048,
       0.30037048, 0.30179538, 0.30179538, 0.30208036, 0.30208036,
       0.30236535, 0.30236535, 0.30265033, 0.30265033, 0.30350527,
       0.30350527, 0.30379025, 0.30379025, 0.30407524, 0.30407524,
       0.30493018, 0.30493018, 0.30550014, 0.30550014, 0.30578512,
       0.30578512, 0.30664007, 0.30664007, 0.30806498, 0.30806498,
       0.30834996, 0.30834996, 0.3092049 , 0.3092049 , 0.30948988,
       0.30948988, 0.31176973, 0.31176973, 0.31262468, 0.31262468,
       0.31376461, 0.31376461, 0.31575948, 0.31575948, 0.31632944,
       0.31632944, 0.31661442, 0.31661442, 0.32031918, 0.32031918,
       0.32088914, 0.32088914, 0.32145911, 0.32145911, 0.32402394,
       0.32402394, 0.32430892, 0.32430892, 0.32516386, 0.32516386,
       0.32544885, 0.32544885, 0.32573383, 0.32573383, 0.32744372,
       0.32744372, 0.3277287 , 0.3277287 , 0.32829866, 0.32829866,
       0.32943859, 0.32943859, 0.33000855, 0.33000855, 0.33143346,
       0.34653748, 0.34710744, 0.34710744, 0.34739242, 0.34739242,
       0.34881733, 0.34881733, 0.34938729, 0.34938729, 0.34967227,
       0.34967227, 0.35252209, 0.35252209, 0.35280707, 0.35280707,
       0.35423197, 0.35423197, 0.35451696, 0.35451696, 0.35594186,
       0.35594186, 0.35736677, 0.35736677, 0.35765175, 0.35765175,
       0.35964662, 0.35964662, 0.36107153, 0.36107153, 0.36449131,
       0.36449131, 0.36477629, 0.36477629, 0.36905101, 0.36905101,
       0.37133086, 0.37133086, 0.37361072, 0.37361072, 0.37703049,
       0.37703049, 0.37760046, 0.37760046, 0.3784554 , 0.3784554 ,
       0.3830151 , 0.3830151 , 0.38387005, 0.38387005, 0.38557994,
       0.38557994, 0.39327444, 0.39327444, 0.3938444 , 0.3938444 ,
       0.39441436, 0.39441436, 0.3969792 , 0.3969792 , 0.39925905,
       0.39925905, 0.4046737 , 0.4046737 , 0.40666857, 0.40666857,
       0.41122827, 0.41122827, 0.4123682 , 0.4123682 , 0.41322314,
       0.41322314, 0.41607296, 0.41607296, 0.42490738, 0.42490738,
       0.42547734, 0.42547734, 0.43716158, 0.43716158, 0.44343118,
       0.44343118, 0.44656597, 0.44656597, 0.44742092, 0.44742092,
       0.46337988, 0.46337988, 0.46594471, 0.46594471, 0.46907951,
       0.46907951, 0.47221431, 0.47221431, 0.47819892, 0.47819892,
       0.4830436 , 0.4830436 , 0.48446851, 0.48446851, 0.48874323,
       0.48874323, 0.49330294, 0.49330294, 0.49558279, 0.49558279,
       0.50071245, 0.50071245, 0.50356227, 0.50356227, 0.51068681,
       0.51068681, 0.51097179, 0.51097179, 0.51353662, 0.51353662,
       0.51923625, 0.51923625, 0.5246509 , 0.5246509 , 0.52522086,
       0.52522086, 0.52978056, 0.52978056, 0.53405529, 0.53405529,
       0.53747506, 0.53747506, 0.5400399 , 0.5400399 , 0.54516956,
       0.54516956, 0.5491593 , 0.5491593 , 0.55257908, 0.55257908,
       0.55799373, 0.55799373, 0.56198347, 0.56198347, 0.56283842,
       0.56283842, 0.57395269, 0.57395269, 0.57480764, 0.57480764,
       0.5785124 , 0.5785124 , 0.58193217, 0.58193217, 0.59219151,
       0.59219151, 0.59447136, 0.59447136, 0.59732117, 0.59732117,
       0.59760616, 0.59760616, 0.60245084, 0.60245084, 0.60701054,
       0.60701054, 0.61499003, 0.61499003, 0.6184098 , 0.6184098 ,
       0.62239954, 0.62239954, 0.62781419, 0.62781419, 0.6292391 ,
       0.6292391 , 0.63636364, 0.63636364, 0.6400684 , 0.6400684 ,
       0.65745227, 0.65745227, 0.65802223, 0.65802223, 0.66030208,
       0.66030208, 0.66115702, 0.66115702, 0.66600171, 0.66600171,
       0.66942149, 0.66942149, 0.67141636, 0.67141636, 0.67882588,
       0.67882588, 0.68509547, 0.68509547, 0.6907951 , 0.6907951 ,
       0.69620975, 0.69620975, 0.69791964, 0.69791964, 0.70817897,
       0.70817897, 0.70960388, 0.70960388, 0.7107438 , 0.7107438 ,
       0.71359362, 0.71359362, 0.7138786 , 0.7138786 , 0.71473354,
       0.71473354, 0.71644343, 0.71644343, 0.71672841, 0.71672841,
       0.71815332, 0.71815332, 0.71872328, 0.71872328, 0.71900826,
       0.71900826, 0.72185808, 0.72185808, 0.72584782, 0.72584782,
       0.72641778, 0.72641778, 0.72698775, 0.72698775, 0.72898262,
       0.72898262, 0.7306925 , 0.7306925 , 0.73097749, 0.73097749,
       0.73154745, 0.73154745, 0.73268738, 0.73268738, 1.        ]), 'pedest_two': array([0.        , 0.17534981, 0.17862459, 0.17922001, 0.18011313,
       0.18130396, 0.18189937, 0.18309021, 0.18309021, 0.18309021,
       0.18309021, 0.18368562, 0.18368562, 0.18398333, 0.18398333,
       0.18398333, 0.18398333, 0.18428104, 0.18428104, 0.18457874,
       0.18457874, 0.18487645, 0.18487645, 0.18487645, 0.18487645,
       0.18487645, 0.18487645, 0.18487645, 0.18517416, 0.18517416,
       0.18517416, 0.18517416, 0.18606728, 0.18606728, 0.18606728,
       0.18725811, 0.18725811, 0.18755582, 0.18755582, 0.18785353,
       0.18785353, 0.18815124, 0.18815124, 0.18844894, 0.18844894,
       0.18874665, 0.18874665, 0.18993748, 0.18993748, 0.19023519,
       0.19023519, 0.1905329 , 0.1905329 , 0.19202143, 0.19202143,
       0.19321227, 0.19321227, 0.19350997, 0.19350997, 0.19380768,
       0.19380768, 0.19410539, 0.19410539, 0.19499851, 0.19499851,
       0.19529622, 0.19529622, 0.19589163, 0.19589163, 0.19618934,
       0.19618934, 0.19648705, 0.19648705, 0.19678476, 0.19678476,
       0.19708247, 0.19708247, 0.19738017, 0.19738017, 0.19797559,
       0.19797559, 0.19976183, 0.19976183, 0.20005954, 0.20005954,
       0.20035725, 0.20035725, 0.20065496, 0.20065496, 0.2024412 ,
       0.2024412 , 0.20303662, 0.20303662, 0.20333433, 0.20333433,
       0.20452516, 0.20452516, 0.20541828, 0.20541828, 0.20571599,
       0.20571599, 0.2063114 , 0.2063114 , 0.20750223, 0.20750223,
       0.20779994, 0.20779994, 0.20809765, 0.20809765, 0.20899077,
       0.20899077, 0.21047931, 0.21047931, 0.21137243, 0.21137243,
       0.21167014, 0.21167014, 0.21196785, 0.21196785, 0.21226556,
       0.21226556, 0.21286097, 0.21286097, 0.21315868, 0.21315868,
       0.21345639, 0.21345639, 0.21375409, 0.21375409, 0.21434951,
       0.21434951, 0.21524263, 0.21524263, 0.21554034, 0.21554034,
       0.21613575, 0.21613575, 0.21643346, 0.21643346, 0.21673117,
       0.21673117, 0.21702888, 0.21702888, 0.21762429, 0.21762429,
       0.21911283, 0.21911283, 0.21941054, 0.21941054, 0.21970825,
       0.21970825, 0.22119678, 0.22119678, 0.22208991, 0.22208991,
       0.22298303, 0.22298303, 0.22357845, 0.22357845, 0.22387615,
       0.22387615, 0.22417386, 0.22417386, 0.22447157, 0.22447157,
       0.22476928, 0.22476928, 0.22536469, 0.22536469, 0.22655552,
       0.22655552, 0.22685323, 0.22685323, 0.22744865, 0.22744865,
       0.22774635, 0.22774635, 0.22804406, 0.22804406, 0.22834177,
       0.22834177, 0.22863948, 0.22863948, 0.22893718, 0.22893718,
       0.22923489, 0.22923489, 0.2295326 , 0.2295326 , 0.23012801,
       0.23012801, 0.23131884, 0.23131884, 0.23161655, 0.23161655,
       0.23191426, 0.23191426, 0.23221197, 0.23221197, 0.23310509,
       0.23310509, 0.23370051, 0.23370051, 0.23399821, 0.23399821,
       0.23459363, 0.23459363, 0.23489134, 0.23489134, 0.23518904,
       0.23518904, 0.23548675, 0.23548675, 0.23697529, 0.23697529,
       0.237273  , 0.237273  , 0.23757071, 0.23757071, 0.23816612,
       0.23816612, 0.23876154, 0.23876154, 0.23905924, 0.23905924,
       0.24025007, 0.24025007, 0.24054778, 0.24054778, 0.24084549,
       0.24084549, 0.24173861, 0.24173861, 0.24203632, 0.24203632,
       0.24233403, 0.24233403, 0.24292944, 0.24292944, 0.24441798,
       0.24441798, 0.24650194, 0.24650194, 0.24709735, 0.24709735,
       0.24739506, 0.24739506, 0.24769277, 0.24769277, 0.24799047,
       0.24799047, 0.24858589, 0.24858589, 0.2488836 , 0.2488836 ,
       0.2491813 , 0.2491813 , 0.25037213, 0.25037213, 0.25096755,
       0.25096755, 0.25156297, 0.25156297, 0.25245609, 0.25245609,
       0.2527538 , 0.2527538 , 0.25334921, 0.25334921, 0.25364692,
       0.25364692, 0.25483775, 0.25483775, 0.25513546, 0.25513546,
       0.25602858, 0.25602858, 0.25781483, 0.25781483, 0.25841024,
       0.25841024, 0.25870795, 0.25870795, 0.25930336, 0.25930336,
       0.25989878, 0.25989878, 0.2607919 , 0.2607919 , 0.26108961,
       0.26108961, 0.26138732, 0.26138732, 0.26287586, 0.26287586,
       0.26347127, 0.26347127, 0.26406669, 0.26406669, 0.2646621 ,
       0.2646621 , 0.26525752, 0.26525752, 0.26615064, 0.26615064,
       0.26674606, 0.26674606, 0.26704376, 0.26704376, 0.2685323 ,
       0.2685323 , 0.26912772, 0.26912772, 0.27061625, 0.27061625,
       0.27121167, 0.27121167, 0.27150938, 0.27150938, 0.27180709,
       0.27180709, 0.27270021, 0.27270021, 0.27299792, 0.27299792,
       0.27329562, 0.27329562, 0.27389104, 0.27389104, 0.27537958,
       0.27537958, 0.27597499, 0.27597499, 0.2762727 , 0.2762727 ,
       0.27686812, 0.27686812, 0.27746353, 0.27746353, 0.27805895,
       0.27805895, 0.27865436, 0.27865436, 0.27954748, 0.27954748,
       0.28103602, 0.28103602, 0.28133373, 0.28133373, 0.28222685,
       0.28222685, 0.28341768, 0.28341768, 0.28371539, 0.28371539,
       0.2840131 , 0.2840131 , 0.28431081, 0.28431081, 0.28520393,
       0.28520393, 0.28639476, 0.28639476, 0.2878833 , 0.2878833 ,
       0.28847871, 0.28847871, 0.28966954, 0.28966954, 0.29056267,
       0.29056267, 0.29086038, 0.29086038, 0.29115808, 0.29115808,
       0.29145579, 0.29145579, 0.29205121, 0.29205121, 0.29234891,
       0.29234891, 0.29353974, 0.29353974, 0.29383745, 0.29383745,
       0.29473057, 0.29473057, 0.29651682, 0.29651682, 0.29681453,
       0.29681453, 0.29740994, 0.29740994, 0.29770765, 0.29770765,
       0.29800536, 0.29800536, 0.29830307, 0.29830307, 0.29889848,
       0.29889848, 0.30008931, 0.30008931, 0.30038702, 0.30038702,
       0.30068473, 0.30068473, 0.30187556, 0.30187556, 0.30276868,
       0.30276868, 0.3036618 , 0.3036618 , 0.30425722, 0.30425722,
       0.30455493, 0.30455493, 0.30485263, 0.30485263, 0.30544805,
       0.30544805, 0.30604347, 0.30604347, 0.3072343 , 0.3072343 ,
       0.307532  , 0.307532  , 0.30931825, 0.30931825, 0.31021137,
       0.31021137, 0.3114022 , 0.3114022 , 0.31169991, 0.31169991,
       0.31199762, 0.31199762, 0.31229533, 0.31229533, 0.31318845,
       0.31318845, 0.31408157, 0.31408157, 0.31437928, 0.31437928,
       0.31467699, 0.31467699, 0.31705865, 0.31705865, 0.31735636,
       0.31735636, 0.31795177, 0.31795177, 0.31854719, 0.31854719,
       0.32241739, 0.32241739, 0.32271509, 0.32271509, 0.3230128 ,
       0.3230128 , 0.32331051, 0.32331051, 0.32479905, 0.32479905,
       0.32658529, 0.32658529, 0.32718071, 0.32718071, 0.32866925,
       0.32866925, 0.33045549, 0.33045549, 0.3307532 , 0.3307532 ,
       0.33164632, 0.33164632, 0.33492111, 0.33492111, 0.33670735,
       0.33670735, 0.33819589, 0.33819589, 0.34117297, 0.34117297,
       0.34325692, 0.34325692, 0.34474546, 0.34474546, 0.34593629,
       0.34593629, 0.34712712, 0.34712712, 0.34772254, 0.34772254,
       0.35069961, 0.35069961, 0.35278357, 0.35278357, 0.35308127,
       0.35308127, 0.35546294, 0.35546294, 0.3578446 , 0.3578446 ,
       0.3581423 , 0.3581423 , 0.36320333, 0.36320333, 0.36439416,
       0.36439416, 0.36737124, 0.36737124, 0.3697529 , 0.3697529 ,
       0.37005061, 0.37005061, 0.37064603, 0.37064603, 0.37094373,
       0.37094373, 0.37272998, 0.37272998, 0.37511164, 0.37511164,
       0.3813635 , 0.3813635 , 0.38195892, 0.38195892, 0.38225662,
       0.38225662, 0.38404287, 0.38404287, 0.38582912, 0.38582912,
       0.3891039 , 0.3891039 , 0.38999702, 0.38999702, 0.39059244,
       0.39059244, 0.39595118, 0.39595118, 0.3968443 , 0.3968443 ,
       0.39714201, 0.39714201, 0.39982138, 0.39982138, 0.4007145 ,
       0.4007145 , 0.41768383, 0.41768383, 0.4200655 , 0.4200655 ,
       0.42363799, 0.42363799, 0.42453111, 0.42453111, 0.42959214,
       0.42959214, 0.43048526, 0.43048526, 0.43346234, 0.43346234,
       0.43495088, 0.43495088, 0.43733254, 0.43733254, 0.44001191,
       0.44001191, 0.44030962, 0.45608812, 0.45757666, 0.45757666,
       0.46621018, 0.46621018, 0.46650789, 0.46650789, 0.46948497,
       0.46948497, 0.47335517, 0.47335517, 0.47901161, 0.47901161,
       0.48675201, 0.48675201, 0.48764513, 0.48764513, 0.48943138,
       0.48943138, 0.49330158, 0.49330158, 0.49479012, 0.49479012,
       0.50163739, 0.50163739, 0.50372135, 0.50372135, 0.5058053 ,
       0.5058053 , 0.50610301, 0.50610301, 0.51086633, 0.51086633,
       0.51146174, 0.51146174, 0.51414111, 0.51414111, 0.51622507,
       0.51622507, 0.51860673, 0.51860673, 0.51949985, 0.51949985,
       0.525454  , 0.525454  , 0.52634713, 0.52634713, 0.52664483,
       0.52664483, 0.53676689, 0.53676689, 0.53974397, 0.53974397,
       0.56207205, 0.56207205, 0.5680262 , 0.5680262 , 0.57040786,
       0.57040786, 0.57159869, 0.57159869, 0.57755284, 0.57755284,
       0.59690384, 0.59690384, 0.62518607, 0.62518607, 0.62846085,
       0.62846085, 0.63262876, 0.63262876, 0.63649896, 0.63649896,
       0.63709437, 0.63709437, 0.64126228, 0.64126228, 0.6421554 ,
       0.6421554 , 0.64632331, 0.64632331, 0.64840726, 0.64840726,
       0.65257517, 0.65257517, 0.65436142, 0.65436142, 0.66418577,
       0.66418577, 0.66805597, 0.66805597, 0.66865138, 0.66865138,
       0.66894909, 0.66894909, 0.67728491, 0.67728491, 0.67907115,
       0.67907115, 0.67936886, 0.67936886, 0.68175052, 0.68175052,
       0.68353677, 0.68353677, 0.68651384, 0.68651384, 0.68710926,
       0.68710926, 0.6885978 , 0.6885978 , 0.6888955 , 0.6888955 ,
       0.68949092, 0.68949092, 0.69097946, 0.69097946, 0.69187258,
       0.69187258, 0.69336112, 0.69336112, 0.69484966, 0.69484966,
       0.69574278, 0.69574278, 0.69723132, 0.69723132, 0.70288776,
       0.70288776, 0.70407859, 0.70407859, 0.70526943, 0.70526943,
       0.70556713, 0.70556713, 0.70616255, 0.70616255, 0.70646026,
       0.70646026, 0.70675796, 0.70675796, 0.70854421, 1.        ]), 'bicycle': array([0.        , 0.12957521, 0.12957521, 0.13064387, 0.13064387,
       0.13091103, 0.13144536, 0.13144536, 0.13171253, 0.13171253,
       0.13171253, 0.13171253, 0.1319797 , 0.13224686, 0.13224686,
       0.13224686, 0.13224686, 0.13251403, 0.13278119, 0.13278119,
       0.13304836, 0.13304836, 0.13304836, 0.13331552, 0.13331552,
       0.13358269, 0.13358269, 0.13384985, 0.13384985, 0.13411702,
       0.13411702, 0.13438418, 0.13438418, 0.13545285, 0.13545285,
       0.13598718, 0.13598718, 0.13625434, 0.13625434, 0.13678867,
       0.13678867, 0.137323  , 0.137323  , 0.13785733, 0.13785733,
       0.13839166, 0.13839166, 0.138926  , 0.138926  , 0.13919316,
       0.13919316, 0.13972749, 0.13972749, 0.13999466, 0.13999466,
       0.14052899, 0.14052899, 0.14079615, 0.14079615, 0.14133048,
       0.14133048, 0.14159765, 0.14159765, 0.14239915, 0.14239915,
       0.14293348, 0.14293348, 0.14320064, 0.14320064, 0.14373497,
       0.14373497, 0.1442693 , 0.1442693 , 0.14453647, 0.14453647,
       0.14480363, 0.14480363, 0.1450708 , 0.1450708 , 0.14533796,
       0.14533796, 0.14560513, 0.14560513, 0.14587229, 0.14587229,
       0.14667379, 0.14667379, 0.14720812, 0.14720812, 0.14747529,
       0.14747529, 0.14800962, 0.14800962, 0.14827678, 0.14827678,
       0.14854395, 0.14854395, 0.14881111, 0.14881111, 0.14907828,
       0.14907828, 0.14934544, 0.14934544, 0.15014694, 0.15014694,
       0.15068127, 0.15068127, 0.15094844, 0.15094844, 0.1512156 ,
       0.1512156 , 0.15148277, 0.15148277, 0.15174993, 0.15174993,
       0.15362009, 0.15362009, 0.15388726, 0.15388726, 0.15415442,
       0.15415442, 0.15495592, 0.15495592, 0.15522308, 0.15522308,
       0.15629174, 0.15629174, 0.15682608, 0.15682608, 0.15709324,
       0.15709324, 0.15789474, 0.15789474, 0.15842907, 0.15842907,
       0.15923056, 0.15923056, 0.16003206, 0.16003206, 0.16029923,
       0.16029923, 0.16270371, 0.16270371, 0.16564253, 0.16564253,
       0.16724552, 0.16724552, 0.16831419, 0.16831419, 0.17045151,
       0.17045151, 0.17258883, 0.17258883, 0.17365749, 0.17365749,
       0.17392466, 0.17392466, 0.17873364, 0.17873364, 0.18514561,
       0.18514561, 0.18541277, 0.18541277, 0.18567994, 0.18567994,
       0.18755009, 0.18755009, 0.1928934 , 0.1928934 , 0.19422923,
       0.19422923, 0.19503072, 0.19503072, 0.1998397 , 0.1998397 ,
       0.2006412 , 0.2006412 , 0.20464868, 0.20464868, 0.22468608,
       0.22468608, 0.22655624, 0.22655624, 0.23831151, 0.23831151,
       0.24712797, 0.24712797, 0.32139995, 0.32139995, 0.34197168,
       0.34197168, 0.34891798, 0.34891798, 0.39380176, 0.40796153,
       0.40929736, 0.40929736, 0.43173925, 0.43173925, 0.43227358,
       0.43227358, 0.43628106, 0.43628106, 0.45631846, 0.45631846,
       0.48063051, 0.48063051, 0.48089768, 0.48089768, 0.48169917,
       0.48169917, 0.49185146, 0.49185146, 0.49479028, 0.49479028,
       0.49879776, 0.49879776, 0.5038739 , 0.5038739 , 0.51055303,
       0.51055303, 0.52551429, 0.52551429, 0.52631579, 0.52631579,
       0.52765162, 0.52765162, 0.54020839, 0.54020839, 0.550895  ,
       0.550895  , 0.55303233, 0.55303233, 0.55516965, 0.55516965,
       0.55570398, 0.55570398, 0.55650548, 0.55650548, 0.56238312,
       0.56238312, 0.56745926, 0.56745926, 0.56772642, 0.56772642,
       0.56932941, 0.56932941, 0.5717339 , 0.5717339 , 0.58108469,
       0.58108469, 0.58749666, 0.58749666, 0.58963398, 0.58963398,
       0.58990115, 0.58990115, 0.59070264, 0.59070264, 0.5925728 ,
       0.5925728 , 0.59390863, 0.59390863, 0.60005343, 0.60005343,
       0.60406091, 0.60406091, 0.61501469, 0.61501469, 0.61715202,
       0.61715202, 0.61741918, 0.61741918, 0.61982367, 0.61982367,
       0.62436548, 0.62436548, 0.62463265, 0.62463265, 0.62997596,
       0.62997596, 0.63291477, 0.63291477, 0.63905958, 0.63905958,
       0.6419984 , 0.6419984 , 0.64333422, 0.64333422, 0.64573871,
       0.64573871, 0.64627304, 0.64627304, 0.64707454, 0.64707454,
       0.6473417 , 0.6473417 , 0.64841037, 0.64841037, 0.65054769,
       0.65054769, 0.65321934, 0.65321934, 0.65348651, 0.65348651,
       0.65909698, 0.65909698, 0.6628373 , 0.6628373 , 0.66310446,
       0.66310446, 0.66390596, 0.66390596, 0.66444029, 0.66444029,
       0.66711194, 0.66711194, 0.66791344, 0.66791344, 0.67138659,
       0.67138659, 0.67218808, 0.67218808, 0.67272242, 0.67272242,
       0.67405824, 0.67405824, 0.67619557, 0.67619557, 0.67753139,
       0.67753139, 0.67913438, 0.67913438, 0.68100454, 0.68100454,
       0.6828747 , 0.6828747 , 0.68447769, 0.68447769, 0.68608068,
       0.68608068, 0.68688218, 0.68688218, 0.68714935, 0.68714935,
       0.68795084, 0.68795084, 0.6890195 , 0.6890195 , 0.689821  ,
       0.689821  , 0.69115683, 0.69115683, 0.69409565, 0.69409565,
       0.69569864, 1.        ]), 'car': array([0.00000000e+00, 0.00000000e+00, 0.00000000e+00, 0.00000000e+00,
       0.00000000e+00, 0.00000000e+00, 0.00000000e+00, 0.00000000e+00,
       0.00000000e+00, 0.00000000e+00, 2.91970803e-04, 2.91970803e-04,
       5.83941606e-04, 5.83941606e-04, 8.75912409e-04, 8.75912409e-04,
       1.16788321e-03, 1.16788321e-03, 1.45985401e-03, 1.45985401e-03,
       2.04379562e-03, 2.04379562e-03, 2.33576642e-03, 2.33576642e-03,
       3.50364964e-03, 3.50364964e-03, 4.37956204e-03, 4.37956204e-03,
       5.25547445e-03, 5.25547445e-03, 5.54744526e-03, 5.54744526e-03,
       6.42335766e-03, 6.42335766e-03, 6.71532847e-03, 6.71532847e-03,
       7.29927007e-03, 7.29927007e-03, 1.16788321e-02, 1.16788321e-02,
       1.86861314e-02, 1.86861314e-02, 3.91240876e-02, 3.91240876e-02,
       8.20437956e-02, 8.20437956e-02, 8.61313869e-02, 8.61313869e-02,
       1.14160584e-01, 1.14160584e-01, 1.20291971e-01, 1.20291971e-01,
       1.24379562e-01, 1.24379562e-01, 1.42481752e-01, 1.42481752e-01,
       1.61167883e-01, 1.61167883e-01, 1.71678832e-01, 1.71678832e-01,
       1.74306569e-01, 1.74306569e-01, 1.79562044e-01, 1.79562044e-01,
       1.83941606e-01, 1.83941606e-01, 1.86861314e-01, 1.86861314e-01,
       1.92116788e-01, 1.92116788e-01, 2.27445255e-01, 2.27445255e-01,
       2.37372263e-01, 2.37372263e-01, 2.44087591e-01, 2.44087591e-01,
       2.49635036e-01, 2.65109489e-01, 2.69489051e-01, 2.69489051e-01,
       2.74160584e-01, 2.74160584e-01, 2.75036496e-01, 2.75036496e-01,
       3.16496350e-01, 3.16496350e-01, 3.23503650e-01, 3.23503650e-01,
       3.26715328e-01, 3.26715328e-01, 3.32846715e-01, 3.32846715e-01,
       3.35182482e-01, 3.35182482e-01, 3.36350365e-01, 3.36350365e-01,
       3.39270073e-01, 3.39270073e-01, 3.44233577e-01, 3.44233577e-01,
       3.46569343e-01, 3.46569343e-01, 3.53576642e-01, 3.53576642e-01,
       3.54452555e-01, 3.54452555e-01, 3.56204380e-01, 3.56204380e-01,
       3.56788321e-01, 3.56788321e-01, 3.60291971e-01, 3.60291971e-01,
       3.64671533e-01, 3.64671533e-01, 3.66131387e-01, 3.66131387e-01,
       3.73430657e-01, 3.73430657e-01, 3.74598540e-01, 3.74598540e-01,
       3.74890511e-01, 3.74890511e-01, 3.76350365e-01, 3.76350365e-01,
       3.83065693e-01, 3.83065693e-01, 3.83357664e-01, 3.83357664e-01,
       3.84817518e-01, 3.84817518e-01, 3.91240876e-01, 3.91240876e-01,
       3.94160584e-01, 3.94160584e-01, 3.96496350e-01, 3.96496350e-01,
       3.96788321e-01, 3.96788321e-01, 3.97372263e-01, 3.97372263e-01,
       3.97956204e-01, 3.97956204e-01, 3.98540146e-01, 3.98540146e-01,
       4.02627737e-01, 4.02627737e-01, 4.06131387e-01, 4.06131387e-01,
       4.08467153e-01, 4.08467153e-01, 4.09051095e-01, 4.09051095e-01,
       4.11094891e-01, 4.11094891e-01, 4.14014599e-01, 4.14014599e-01,
       4.16058394e-01, 4.16058394e-01, 4.16642336e-01, 4.16642336e-01,
       4.23649635e-01, 4.23649635e-01, 4.25401460e-01, 4.25401460e-01,
       4.28029197e-01, 4.28029197e-01, 4.31532847e-01, 4.31532847e-01,
       4.31824818e-01, 4.31824818e-01, 4.32700730e-01, 4.32700730e-01,
       4.37664234e-01, 4.37664234e-01, 4.37956204e-01, 4.37956204e-01,
       4.42043796e-01, 4.42043796e-01, 4.43211679e-01, 4.43211679e-01,
       4.48467153e-01, 4.48467153e-01, 4.49635036e-01, 4.49635036e-01,
       4.56642336e-01, 4.56642336e-01, 4.58686131e-01, 4.58686131e-01,
       4.59854015e-01, 4.59854015e-01, 4.61605839e-01, 4.61605839e-01,
       4.68905109e-01, 4.68905109e-01, 4.74744526e-01, 4.74744526e-01,
       4.77372263e-01, 4.77372263e-01, 4.80291971e-01, 4.80291971e-01,
       4.84963504e-01, 4.84963504e-01, 4.89343066e-01, 4.89343066e-01,
       4.97226277e-01, 4.97226277e-01, 4.98686131e-01, 4.98686131e-01,
       5.00145985e-01, 5.00145985e-01, 5.00437956e-01, 5.00437956e-01,
       5.02189781e-01, 5.02189781e-01, 5.04233577e-01, 5.04233577e-01,
       5.06861314e-01, 5.06861314e-01, 5.07153285e-01, 5.07153285e-01,
       5.10072993e-01, 5.10072993e-01, 5.10656934e-01, 5.10656934e-01,
       5.10948905e-01, 5.10948905e-01, 5.12408759e-01, 5.12408759e-01,
       5.13868613e-01, 5.13868613e-01, 5.14744526e-01, 5.14744526e-01,
       5.17664234e-01, 5.17664234e-01, 5.20875912e-01, 5.20875912e-01,
       5.21751825e-01, 5.21751825e-01, 5.23211679e-01, 5.23211679e-01,
       5.23503650e-01, 5.23503650e-01, 5.23795620e-01, 5.23795620e-01,
       5.25255474e-01, 5.25255474e-01, 5.26131387e-01, 5.26131387e-01,
       5.27591241e-01, 5.27591241e-01, 5.31094891e-01, 5.31094891e-01,
       5.31970803e-01, 5.31970803e-01, 5.32262774e-01, 5.32262774e-01,
       5.33430657e-01, 5.33430657e-01, 5.36642336e-01, 5.36642336e-01,
       5.37226277e-01, 5.37226277e-01, 5.37810219e-01, 5.37810219e-01,
       5.38686131e-01, 5.38686131e-01, 5.39270073e-01, 5.39270073e-01,
       5.39854015e-01, 5.39854015e-01, 5.40437956e-01, 5.40437956e-01,
       5.40729927e-01, 5.40729927e-01, 5.43065693e-01, 5.43065693e-01,
       5.43357664e-01, 5.43357664e-01, 5.44233577e-01, 5.44233577e-01,
       5.45109489e-01, 5.45109489e-01, 5.45693431e-01, 5.45693431e-01,
       5.46861314e-01, 5.46861314e-01, 5.47153285e-01, 5.47153285e-01,
       5.47445255e-01, 5.47445255e-01, 5.48321168e-01, 5.48321168e-01,
       5.48613139e-01, 5.48613139e-01, 5.49197080e-01, 5.49197080e-01,
       5.50948905e-01, 5.50948905e-01, 5.51240876e-01, 5.51240876e-01,
       5.52408759e-01, 5.52408759e-01, 5.52700730e-01, 5.52700730e-01,
       5.52992701e-01, 5.52992701e-01, 5.53284672e-01, 5.53284672e-01,
       5.53576642e-01, 5.53576642e-01, 5.54452555e-01, 5.54452555e-01,
       5.55328467e-01, 5.55328467e-01, 5.56788321e-01, 5.56788321e-01,
       5.57372263e-01, 5.57372263e-01, 5.57956204e-01, 5.57956204e-01,
       5.58248175e-01, 5.58248175e-01, 5.58832117e-01, 5.58832117e-01,
       5.60000000e-01, 5.60000000e-01, 5.60875912e-01, 5.60875912e-01,
       5.63211679e-01, 5.63211679e-01, 5.64087591e-01, 5.64087591e-01,
       5.66131387e-01, 5.66131387e-01, 5.66423358e-01, 5.66423358e-01,
       5.66715328e-01, 5.66715328e-01, 5.67007299e-01, 5.67007299e-01,
       5.67591241e-01, 5.67591241e-01, 5.69051095e-01, 5.69051095e-01,
       5.69635036e-01, 5.69635036e-01, 5.69927007e-01, 5.69927007e-01,
       5.70510949e-01, 5.70510949e-01, 5.71386861e-01, 5.71386861e-01,
       5.71970803e-01, 5.71970803e-01, 5.72554745e-01, 5.72554745e-01,
       5.73722628e-01, 5.73722628e-01, 5.75766423e-01, 5.75766423e-01,
       5.76350365e-01, 5.76350365e-01, 5.77810219e-01, 5.77810219e-01,
       5.78686131e-01, 5.78686131e-01, 5.78978102e-01, 5.78978102e-01,
       5.80145985e-01, 5.80145985e-01, 5.81021898e-01, 5.81021898e-01,
       5.81897810e-01, 5.81897810e-01, 5.83357664e-01, 5.83357664e-01,
       5.84233577e-01, 5.84233577e-01, 5.85109489e-01, 5.85109489e-01,
       5.85693431e-01, 5.85693431e-01, 5.85985401e-01, 5.85985401e-01,
       5.86277372e-01, 5.86277372e-01, 5.86569343e-01, 5.86569343e-01,
       5.88905109e-01, 5.88905109e-01, 5.90948905e-01, 5.90948905e-01,
       5.92116788e-01, 5.92116788e-01, 5.94452555e-01, 5.94452555e-01,
       5.95036496e-01, 5.95036496e-01, 5.97080292e-01, 5.97080292e-01,
       5.98832117e-01, 5.98832117e-01, 5.99124088e-01, 5.99124088e-01,
       5.99708029e-01, 5.99708029e-01, 6.00583942e-01, 6.00583942e-01,
       6.02335766e-01, 6.02335766e-01, 6.06423358e-01, 6.06423358e-01,
       6.07007299e-01, 6.07007299e-01, 6.07591241e-01, 6.07591241e-01,
       6.09343066e-01, 6.09343066e-01, 6.12262774e-01, 6.12262774e-01,
       6.14598540e-01, 6.14598540e-01, 6.16058394e-01, 6.16058394e-01,
       6.20145985e-01, 6.20145985e-01, 6.21313869e-01, 6.21313869e-01,
       6.21605839e-01, 6.21605839e-01, 6.22773723e-01, 6.22773723e-01,
       6.23357664e-01, 6.23357664e-01, 6.23649635e-01, 6.23649635e-01,
       6.27445255e-01, 6.27445255e-01, 6.28029197e-01, 6.28029197e-01,
       6.28613139e-01, 1.00000000e+00])},
tpr: {'average': array([0.        , 0.19517544, 0.20197368, ..., 0.68881579, 0.68881579,
       1.        ]), 'none': array([0.        , 0.3005618 , 0.31741573, 0.33707865, 0.3511236 ,
       0.36235955, 0.37921348, 0.39325843, 0.39606742, 0.40449438,
       0.41853933, 0.4241573 , 0.43820225, 0.44101124, 0.4494382 ,
       0.45786517, 0.46629213, 0.47191011, 0.49157303, 0.49157303,
       0.49719101, 0.49719101, 0.50280899, 0.50280899, 0.54775281,
       0.54775281, 0.5505618 , 0.5505618 , 0.56179775, 0.56179775,
       0.58426966, 0.58426966, 0.61797753, 0.61797753, 0.64044944,
       0.64044944, 0.64606742, 0.64606742, 0.66011236, 0.66011236,
       0.66573034, 0.81460674, 0.82865169, 0.82865169, 0.83426966,
       0.83426966, 0.83707865, 0.83707865, 0.87640449, 0.87640449,
       0.96629213, 0.96629213, 0.96910112, 0.96910112, 0.97191011,
       0.97191011, 0.99719101, 0.99719101, 1.        , 1.        ,
       1.        ]), 'pedestrian': array([0.        , 0.17031399, 0.17031399, 0.18268316, 0.18268316,
       0.18458611, 0.18458611, 0.19124643, 0.19124643, 0.19505233,
       0.19505233, 0.20076118, 0.20076118, 0.20266413, 0.20266413,
       0.20837298, 0.20837298, 0.20932445, 0.20932445, 0.23215985,
       0.23215985, 0.24072312, 0.24072312, 0.24262607, 0.24262607,
       0.24548049, 0.24548049, 0.25023787, 0.25023787, 0.25594672,
       0.25594672, 0.25689819, 0.25689819, 0.26165557, 0.26165557,
       0.26260704, 0.26260704, 0.26355852, 0.26355852, 0.27117031,
       0.27117031, 0.27212179, 0.27212179, 0.27592769, 0.27592769,
       0.27783064, 0.27783064, 0.27878211, 0.27878211, 0.28258801,
       0.28258801, 0.28544244, 0.28544244, 0.28924833, 0.28924833,
       0.29115128, 0.29115128, 0.29590866, 0.29590866, 0.29686013,
       0.29686013, 0.30066603, 0.30066603, 0.30161751, 0.30161751,
       0.30256898, 0.30256898, 0.30637488, 0.30637488, 0.30827783,
       0.30827783, 0.30922931, 0.30922931, 0.31018078, 0.31018078,
       0.3130352 , 0.3130352 , 0.31969553, 0.31969553, 0.32159848,
       0.32159848, 0.32350143, 0.32350143, 0.32540438, 0.32540438,
       0.32730733, 0.32730733, 0.33111323, 0.33111323, 0.3320647 ,
       0.3320647 , 0.33491912, 0.33491912, 0.34062797, 0.34062797,
       0.34157945, 0.34157945, 0.34253092, 0.34253092, 0.35204567,
       0.35204567, 0.3549001 , 0.3549001 , 0.35965747, 0.35965747,
       0.36060894, 0.36060894, 0.36251189, 0.36251189, 0.36346337,
       0.36346337, 0.36631779, 0.36631779, 0.36726927, 0.36726927,
       0.37107517, 0.37107517, 0.37202664, 0.37202664, 0.37868696,
       0.37868696, 0.38154139, 0.38154139, 0.38344434, 0.38344434,
       0.39295909, 0.39295909, 0.39391056, 0.39391056, 0.39581351,
       0.39581351, 0.40152236, 0.40152236, 0.40437678, 0.40437678,
       0.40627973, 0.40627973, 0.40723121, 0.40723121, 0.40818268,
       0.40818268, 0.40913416, 0.40913416, 0.41008563, 0.41008563,
       0.41198858, 0.41198858, 0.41484301, 0.41484301, 0.41579448,
       0.41579448, 0.41769743, 0.41769743, 0.41864891, 0.41864891,
       0.41960038, 0.41960038, 0.42055186, 0.42055186, 0.42150333,
       0.42150333, 0.42340628, 0.42340628, 0.42435775, 0.42435775,
       0.42530923, 0.42530923, 0.4262607 , 0.4262607 , 0.42721218,
       0.42721218, 0.42911513, 0.42911513, 0.4300666 , 0.4300666 ,
       0.43101808, 0.43101808, 0.43196955, 0.43196955, 0.43292103,
       0.43292103, 0.43577545, 0.43577545, 0.44243578, 0.44243578,
       0.4452902 , 0.4452902 , 0.44624167, 0.44624167, 0.44719315,
       0.44719315, 0.44814462, 0.44814462, 0.4490961 , 0.4490961 ,
       0.45195052, 0.45195052, 0.452902  , 0.452902  , 0.45385347,
       0.45385347, 0.45861085, 0.45861085, 0.46146527, 0.46146527,
       0.46241675, 0.46241675, 0.4643197 , 0.4643197 , 0.46527117,
       0.46527117, 0.46622265, 0.46622265, 0.46907707, 0.46907707,
       0.47098002, 0.47098002, 0.47193149, 0.47193149, 0.47288297,
       0.47288297, 0.47764034, 0.47764034, 0.47859182, 0.47859182,
       0.47954329, 0.47954329, 0.48144624, 0.48144624, 0.48239772,
       0.48239772, 0.48334919, 0.48334919, 0.48430067, 0.48430067,
       0.48620362, 0.48620362, 0.48715509, 0.48715509, 0.48810657,
       0.48810657, 0.48905804, 0.48905804, 0.49191246, 0.49191246,
       0.49476689, 0.49476689, 0.49762131, 0.49762131, 0.49857279,
       0.49857279, 0.49952426, 0.49952426, 0.50047574, 0.50047574,
       0.50142721, 0.50142721, 0.50237869, 0.50237869, 0.50523311,
       0.50523311, 0.50713606, 0.50713606, 0.50808754, 0.50808754,
       0.50903901, 0.50903901, 0.51379638, 0.51379638, 0.51665081,
       0.51665081, 0.51760228, 0.51760228, 0.51950523, 0.51950523,
       0.52045671, 0.52045671, 0.52140818, 0.52140818, 0.52235966,
       0.52235966, 0.52331113, 0.52331113, 0.52521408, 0.52521408,
       0.52616556, 0.52616556, 0.52711703, 0.52711703, 0.52901998,
       0.52901998, 0.52997146, 0.52997146, 0.53092293, 0.53092293,
       0.53377735, 0.53377735, 0.53663178, 0.53663178, 0.53853473,
       0.53853473, 0.54043768, 0.54043768, 0.54234063, 0.54234063,
       0.5432921 , 0.5432921 , 0.54519505, 0.54519505, 0.547098  ,
       0.547098  , 0.54804948, 0.54804948, 0.54900095, 0.54900095,
       0.55185538, 0.55185538, 0.5547098 , 0.5547098 , 0.55566127,
       0.55566127, 0.55661275, 0.55661275, 0.5585157 , 0.5585157 ,
       0.55946717, 0.55946717, 0.56041865, 0.56041865, 0.56137012,
       0.56137012, 0.56327307, 0.56327307, 0.56422455, 0.56422455,
       0.56707897, 0.56707897, 0.56803045, 0.56803045, 0.56898192,
       0.56898192, 0.57088487, 0.57088487, 0.57183635, 0.57183635,
       0.57278782, 0.57278782, 0.57469077, 0.57469077, 0.57564225,
       0.57564225, 0.57659372, 0.57659372, 0.57944814, 0.57944814,
       0.58135109, 0.58135109, 0.58325404, 0.58325404, 0.58420552,
       0.58420552, 0.58515699, 0.58515699, 0.58610847, 0.58610847,
       0.58705994, 0.58705994, 0.58801142, 0.58801142, 0.58991437,
       0.58991437, 0.59086584, 0.59086584, 0.59181732, 0.59181732,
       0.59276879, 0.59276879, 0.59372027, 0.59372027, 0.59467174,
       0.59467174, 0.59657469, 0.59657469, 0.59752617, 0.59752617,
       0.59847764, 0.59847764, 0.59942912, 0.59942912, 0.60038059,
       0.60038059, 0.60228354, 0.60228354, 0.60323501, 0.60323501,
       0.60418649, 0.60418649, 0.60513796, 0.60513796, 0.60799239,
       0.60799239, 0.60894386, 0.60894386, 0.60989534, 0.60989534,
       0.61084681, 0.61084681, 0.61179829, 0.61179829, 0.61274976,
       0.61274976, 0.61370124, 0.61370124, 0.61465271, 0.61465271,
       0.61465271, 0.61465271, 0.61560419, 0.61560419, 0.61750714,
       0.61750714, 0.61845861, 0.61845861, 0.61941009, 0.61941009,
       0.62036156, 0.62036156, 0.62226451, 0.62226451, 0.62321598,
       0.62321598, 0.62511893, 0.62511893, 0.62607041, 0.62607041,
       0.62702188, 0.62702188, 0.62797336, 0.62797336, 0.62892483,
       0.62892483, 0.62987631, 0.62987631, 0.63082778, 0.63082778,
       0.63177926, 0.63177926, 0.63273073, 0.63273073, 0.63368221,
       0.63368221, 0.63463368, 0.63463368, 0.63558516, 0.63558516,
       0.63748811, 0.63748811, 0.63843958, 0.63843958, 0.63939106,
       0.63939106, 0.64034253, 0.64034253, 0.64224548, 0.64224548,
       0.64414843, 0.64414843, 0.64605138, 0.64605138, 0.64700285,
       0.64700285, 0.64795433, 0.64795433, 0.6489058 , 0.6489058 ,
       0.64985728, 0.64985728, 0.65080875, 0.65080875, 0.65176023,
       0.65176023, 0.6527117 , 0.6527117 , 0.65461465, 0.65461465,
       0.65556613, 0.65556613, 0.6565176 , 0.6565176 , 0.65746908,
       0.65746908, 0.65842055, 0.65842055, 0.65937203, 0.65937203,
       0.6603235 , 0.6603235 , 0.66127498, 0.66127498, 0.66222645,
       0.66222645, 0.66317793, 0.66317793, 0.66508088, 0.66508088,
       0.66603235, 0.66603235, 0.66698382, 0.66698382, 0.6679353 ,
       0.6679353 , 0.66888677, 0.66888677, 0.66983825, 0.66983825,
       0.67078972, 0.67078972, 0.6717412 , 0.6717412 , 0.67269267,
       0.67269267, 0.67364415, 0.67364415, 0.6755471 , 0.6755471 ,
       0.67649857, 0.67649857, 0.67745005, 0.67745005, 0.67840152,
       0.67840152, 0.679353  , 0.679353  , 0.68125595, 0.68125595,
       0.68220742, 0.68220742, 0.6831589 , 0.6831589 , 0.68411037,
       0.68411037, 0.68506185, 0.68506185, 0.68601332, 0.68601332,
       0.6869648 , 0.6869648 , 0.68886775, 0.68886775, 0.68981922,
       0.68981922, 0.69077069, 0.69077069, 0.69172217, 0.69172217,
       0.69267364, 0.69267364, 0.69362512, 0.69362512, 0.69457659,
       0.69457659, 0.69552807, 0.69552807, 0.69647954, 0.69647954,
       0.69743102, 0.69743102, 0.69838249, 0.69838249, 0.69933397,
       0.69933397, 0.70028544, 0.70028544, 0.70123692, 0.70123692,
       0.70218839, 0.70218839, 0.70313987, 0.70313987, 0.70409134,
       0.70409134, 0.70504282, 0.70504282, 0.70599429, 0.70599429,
       0.70694577, 0.70694577, 0.70789724, 0.70789724, 0.70884872,
       0.70884872, 0.70980019, 0.70980019, 0.71075167, 0.71075167,
       0.71170314, 0.71170314, 0.71265461, 0.71265461, 0.71360609,
       0.71360609, 0.71455756, 0.71455756, 0.71550904, 0.71550904,
       0.71741199, 0.71741199, 0.71836346, 0.71836346, 0.71931494,
       0.71931494, 0.72026641, 0.72026641, 0.72216936, 0.72216936,
       0.72312084, 0.72312084, 0.72407231, 0.72407231, 0.72502379,
       0.72502379, 0.72597526, 0.72597526, 0.72692674, 0.72692674,
       0.72787821, 0.72787821, 0.72978116, 0.72978116, 0.73168411,
       0.73168411, 0.73358706, 0.73358706, 0.73453853, 0.73453853,
       0.73549001, 0.73549001, 0.73739296, 0.73739296, 0.73834443,
       0.73834443, 0.73929591, 0.73929591, 0.74024738, 0.74024738,
       0.74119886, 0.74119886, 0.74215033, 0.74215033, 0.74310181,
       0.74310181, 0.74405328, 0.74405328, 0.74500476, 1.        ]), 'pedest_two': array([0.        , 0.1898418 , 0.19483764, 0.19900083, 0.20149875,
       0.20399667, 0.20482931, 0.20649459, 0.20899251, 0.21232306,
       0.2131557 , 0.2131557 , 0.21482098, 0.21565362, 0.21648626,
       0.21815154, 0.21981682, 0.21981682, 0.22231474, 0.22314738,
       0.22481266, 0.22481266, 0.22731057, 0.22897585, 0.23313905,
       0.23480433, 0.23563697, 0.23730225, 0.23813489, 0.24063281,
       0.24229808, 0.24313072, 0.24313072, 0.24396336, 0.24562864,
       0.24562864, 0.24812656, 0.24812656, 0.2489592 , 0.2489592 ,
       0.25395504, 0.25395504, 0.2572856 , 0.25811823, 0.25978351,
       0.25978351, 0.26394671, 0.26394671, 0.26477935, 0.26477935,
       0.26561199, 0.26561199, 0.26810991, 0.26810991, 0.27060783,
       0.27060783, 0.27144047, 0.27144047, 0.27726894, 0.27726894,
       0.27893422, 0.27893422, 0.27976686, 0.27976686, 0.2805995 ,
       0.2805995 , 0.28226478, 0.28226478, 0.28393006, 0.28393006,
       0.2847627 , 0.2847627 , 0.28642798, 0.28642798, 0.28809326,
       0.28809326, 0.2889259 , 0.2889259 , 0.29308909, 0.29308909,
       0.29558701, 0.29558701, 0.29808493, 0.29808493, 0.29891757,
       0.29891757, 0.30474604, 0.30474604, 0.30641132, 0.30641132,
       0.3122398 , 0.3122398 , 0.31307244, 0.31307244, 0.31390508,
       0.31390508, 0.31806828, 0.31806828, 0.32139883, 0.32139883,
       0.32223147, 0.32223147, 0.32389675, 0.32389675, 0.32556203,
       0.32556203, 0.32889259, 0.32889259, 0.32972523, 0.32972523,
       0.33055787, 0.33055787, 0.33139051, 0.33139051, 0.33222315,
       0.33222315, 0.33472107, 0.33472107, 0.33555371, 0.33555371,
       0.33721898, 0.33721898, 0.33888426, 0.33888426, 0.34138218,
       0.34138218, 0.34221482, 0.34221482, 0.34554538, 0.34554538,
       0.34637802, 0.34637802, 0.34721066, 0.34721066, 0.34970858,
       0.34970858, 0.35137386, 0.35137386, 0.35220649, 0.35220649,
       0.35303913, 0.35303913, 0.35387177, 0.35387177, 0.35470441,
       0.35470441, 0.35553705, 0.35553705, 0.35803497, 0.35803497,
       0.36053289, 0.36053289, 0.36136553, 0.36136553, 0.36303081,
       0.36303081, 0.36386345, 0.36386345, 0.36636137, 0.36636137,
       0.36802664, 0.36802664, 0.36969192, 0.36969192, 0.37052456,
       0.37052456, 0.37468776, 0.37468776, 0.37635304, 0.37635304,
       0.37718568, 0.37718568, 0.38301415, 0.38301415, 0.38384679,
       0.38384679, 0.38467943, 0.38467943, 0.38551207, 0.38551207,
       0.38634471, 0.38634471, 0.38717735, 0.38717735, 0.38800999,
       0.38800999, 0.38967527, 0.38967527, 0.39134055, 0.39134055,
       0.39217319, 0.39217319, 0.39383847, 0.39383847, 0.39467111,
       0.39467111, 0.39550375, 0.39550375, 0.39633639, 0.39633639,
       0.39800167, 0.39800167, 0.3988343 , 0.3988343 , 0.39966694,
       0.39966694, 0.40216486, 0.40216486, 0.40383014, 0.40383014,
       0.40466278, 0.40466278, 0.40632806, 0.40632806, 0.40965862,
       0.40965862, 0.41215654, 0.41215654, 0.41382182, 0.41382182,
       0.41631973, 0.41631973, 0.41715237, 0.41715237, 0.41881765,
       0.41881765, 0.41965029, 0.41965029, 0.42048293, 0.42048293,
       0.42131557, 0.42131557, 0.42298085, 0.42298085, 0.42464613,
       0.42464613, 0.42547877, 0.42547877, 0.42797669, 0.42797669,
       0.42880933, 0.42880933, 0.43130724, 0.43130724, 0.43213988,
       0.43213988, 0.4346378 , 0.4346378 , 0.43547044, 0.43547044,
       0.43630308, 0.43630308, 0.43796836, 0.43796836, 0.44129892,
       0.44129892, 0.44213156, 0.44213156, 0.44379684, 0.44379684,
       0.44546211, 0.44546211, 0.44796003, 0.44796003, 0.44962531,
       0.44962531, 0.45045795, 0.45045795, 0.45295587, 0.45295587,
       0.45462115, 0.45462115, 0.45878435, 0.45878435, 0.46044963,
       0.46044963, 0.46128226, 0.46128226, 0.4662781 , 0.4662781 ,
       0.46711074, 0.46711074, 0.46960866, 0.46960866, 0.47127394,
       0.47127394, 0.47210658, 0.47210658, 0.47293922, 0.47293922,
       0.47377186, 0.47377186, 0.4746045 , 0.4746045 , 0.47543714,
       0.47543714, 0.47626978, 0.47626978, 0.47793505, 0.47793505,
       0.47876769, 0.47876769, 0.48126561, 0.48126561, 0.48209825,
       0.48209825, 0.48293089, 0.48293089, 0.48459617, 0.48459617,
       0.48626145, 0.48626145, 0.48792673, 0.48792673, 0.48875937,
       0.48875937, 0.48959201, 0.48959201, 0.49042465, 0.49042465,
       0.49125729, 0.49125729, 0.49208993, 0.49208993, 0.4937552 ,
       0.4937552 , 0.49625312, 0.49625312, 0.49708576, 0.49708576,
       0.49875104, 0.49875104, 0.49958368, 0.49958368, 0.50041632,
       0.50041632, 0.50124896, 0.50124896, 0.50291424, 0.50291424,
       0.50374688, 0.50374688, 0.50541216, 0.50541216, 0.5062448 ,
       0.5062448 , 0.50707744, 0.50707744, 0.50791007, 0.50791007,
       0.50874271, 0.50874271, 0.50957535, 0.50957535, 0.51040799,
       0.51040799, 0.51290591, 0.51290591, 0.51373855, 0.51373855,
       0.51457119, 0.51457119, 0.51540383, 0.51540383, 0.51623647,
       0.51623647, 0.51706911, 0.51706911, 0.51790175, 0.51790175,
       0.51956703, 0.51956703, 0.52039967, 0.52039967, 0.52373022,
       0.52373022, 0.5253955 , 0.5253955 , 0.52872606, 0.52872606,
       0.53039134, 0.53039134, 0.53122398, 0.53122398, 0.53205662,
       0.53205662, 0.5337219 , 0.5337219 , 0.53455454, 0.53455454,
       0.53538718, 0.53538718, 0.53705246, 0.53705246, 0.53871774,
       0.53871774, 0.53955037, 0.53955037, 0.54121565, 0.54121565,
       0.54204829, 0.54204829, 0.54288093, 0.54288093, 0.54371357,
       0.54371357, 0.54454621, 0.54454621, 0.54537885, 0.54537885,
       0.54787677, 0.54787677, 0.54870941, 0.54870941, 0.54954205,
       0.54954205, 0.55037469, 0.55037469, 0.55287261, 0.55287261,
       0.55537052, 0.55537052, 0.55620316, 0.55620316, 0.5570358 ,
       0.5570358 , 0.55786844, 0.55786844, 0.55870108, 0.55870108,
       0.55953372, 0.55953372, 0.56036636, 0.56036636, 0.56369692,
       0.56369692, 0.56452956, 0.56452956, 0.5653622 , 0.5653622 ,
       0.56702748, 0.56702748, 0.56786012, 0.56786012, 0.5695254 ,
       0.5695254 , 0.57202331, 0.57202331, 0.57285595, 0.57285595,
       0.57452123, 0.57452123, 0.57535387, 0.57535387, 0.57618651,
       0.57618651, 0.57701915, 0.57701915, 0.57951707, 0.57951707,
       0.58034971, 0.58034971, 0.58201499, 0.58201499, 0.58534555,
       0.58534555, 0.58617818, 0.58617818, 0.58701082, 0.58701082,
       0.5886761 , 0.5886761 , 0.58950874, 0.58950874, 0.59034138,
       0.59034138, 0.59117402, 0.59117402, 0.59200666, 0.59200666,
       0.5928393 , 0.5928393 , 0.59367194, 0.59367194, 0.59450458,
       0.59450458, 0.59533722, 0.59533722, 0.59616986, 0.59616986,
       0.5970025 , 0.5970025 , 0.59866778, 0.59866778, 0.59950042,
       0.59950042, 0.60033306, 0.60033306, 0.6011657 , 0.6011657 ,
       0.60199833, 0.60199833, 0.60283097, 0.60283097, 0.60366361,
       0.60366361, 0.60532889, 0.60532889, 0.60616153, 0.60616153,
       0.60782681, 0.60782681, 0.60865945, 0.60865945, 0.60949209,
       0.60949209, 0.61032473, 0.61032473, 0.61115737, 0.61115737,
       0.61199001, 0.61199001, 0.61282265, 0.61282265, 0.61365529,
       0.61365529, 0.61448793, 0.61448793, 0.61615321, 0.61615321,
       0.61698585, 0.61698585, 0.61781848, 0.61781848, 0.61865112,
       0.61865112, 0.61948376, 0.61948376, 0.62114904, 0.62114904,
       0.62281432, 0.62281432, 0.62364696, 0.62364696, 0.6244796 ,
       0.6244796 , 0.62531224, 0.62531224, 0.62614488, 0.62614488,
       0.62697752, 0.62697752, 0.62781016, 0.62781016, 0.6286428 ,
       0.6286428 , 0.63030808, 0.63030808, 0.63114072, 0.63114072,
       0.63197336, 0.63197336, 0.632806  , 0.632806  , 0.63363863,
       0.63363863, 0.63447127, 0.63447127, 0.63613655, 0.63613655,
       0.63696919, 0.63696919, 0.63696919, 0.63696919, 0.63780183,
       0.63780183, 0.63863447, 0.63863447, 0.63946711, 0.63946711,
       0.64113239, 0.64113239, 0.64196503, 0.64196503, 0.64279767,
       0.64279767, 0.64363031, 0.64363031, 0.64446295, 0.64446295,
       0.64612823, 0.64612823, 0.64696087, 0.64696087, 0.64779351,
       0.64779351, 0.64862614, 0.64862614, 0.64945878, 0.64945878,
       0.65029142, 0.65029142, 0.65112406, 0.65112406, 0.6519567 ,
       0.6519567 , 0.65278934, 0.65278934, 0.65362198, 0.65362198,
       0.65445462, 0.65445462, 0.65528726, 0.65528726, 0.6561199 ,
       0.6561199 , 0.65695254, 0.65695254, 0.65778518, 0.65778518,
       0.65861782, 0.65861782, 0.65945046, 0.65945046, 0.6602831 ,
       0.6602831 , 0.66111574, 0.66111574, 0.66194838, 0.66194838,
       0.66278102, 0.66278102, 0.66361366, 0.66361366, 0.66444629,
       0.66444629, 0.66527893, 0.66527893, 0.66611157, 0.66611157,
       0.66694421, 0.66694421, 0.66777685, 0.66777685, 0.66860949,
       0.66860949, 0.66944213, 0.66944213, 0.67027477, 0.67027477,
       0.67110741, 0.67110741, 0.67194005, 0.67194005, 0.67277269,
       0.67277269, 0.67360533, 0.67360533, 0.67443797, 0.67443797,
       0.67527061, 0.67527061, 0.67610325, 0.67610325, 0.67693589,
       0.67693589, 0.67776853, 0.67776853, 0.67860117, 0.67860117,
       0.67943381, 0.67943381, 0.68026644, 0.68026644, 0.68109908,
       0.68109908, 0.68193172, 0.68193172, 0.68276436, 0.68276436,
       0.683597  , 0.683597  , 0.68442964, 0.68442964, 0.68526228,
       0.68526228, 0.68609492, 0.68609492, 0.68692756, 0.68692756,
       0.6877602 , 0.6877602 , 0.68859284, 0.68859284, 0.68942548,
       0.68942548, 0.69025812, 0.69025812, 0.69109076, 0.69109076,
       0.6919234 , 0.6919234 , 0.69275604, 0.69275604, 0.69358868,
       0.69358868, 0.69442132, 0.69442132, 0.69525396, 0.69525396,
       0.69608659, 0.69608659, 0.69691923, 0.69691923, 1.        ]), 'bicycle': array([0.        , 0.25703794, 0.27294982, 0.28274174, 0.28518972,
       0.29008568, 0.29498164, 0.29620563, 0.29742962, 0.29865361,
       0.30110159, 0.30354957, 0.30477356, 0.30477356, 0.30722154,
       0.3121175 , 0.31578947, 0.31578947, 0.31701346, 0.32068543,
       0.32068543, 0.32313341, 0.3255814 , 0.3255814 , 0.32802938,
       0.32802938, 0.32925337, 0.33047736, 0.33414933, 0.33414933,
       0.33659731, 0.33659731, 0.34394125, 0.34394125, 0.34516524,
       0.34516524, 0.34638923, 0.34638923, 0.34883721, 0.34883721,
       0.35373317, 0.35373317, 0.3623011 , 0.3623011 , 0.36842105,
       0.36964504, 0.37086903, 0.37086903, 0.374541  , 0.374541  ,
       0.37943696, 0.37943696, 0.38066095, 0.38066095, 0.38310894,
       0.38310894, 0.38555692, 0.38555692, 0.3880049 , 0.3880049 ,
       0.39045288, 0.39045288, 0.39412485, 0.39412485, 0.39534884,
       0.39534884, 0.39657283, 0.39657283, 0.39902081, 0.39902081,
       0.40146879, 0.40146879, 0.40269278, 0.40269278, 0.41003672,
       0.41003672, 0.41738066, 0.41738066, 0.42105263, 0.42105263,
       0.42227662, 0.42227662, 0.42350061, 0.42350061, 0.4247246 ,
       0.4247246 , 0.42717258, 0.42717258, 0.42839657, 0.42839657,
       0.42962056, 0.42962056, 0.43329253, 0.43329253, 0.43818849,
       0.43818849, 0.43941248, 0.43941248, 0.44308446, 0.44308446,
       0.44675643, 0.44675643, 0.44798042, 0.44798042, 0.44920441,
       0.44920441, 0.4504284 , 0.4504284 , 0.45287638, 0.45287638,
       0.4626683 , 0.4626683 , 0.46511628, 0.46511628, 0.46756426,
       0.46756426, 0.47123623, 0.47123623, 0.47246022, 0.47246022,
       0.47368421, 0.47368421, 0.47735618, 0.47735618, 0.47858017,
       0.47858017, 0.47980416, 0.47980416, 0.48102815, 0.48102815,
       0.48959608, 0.48959608, 0.49082007, 0.49082007, 0.49204406,
       0.49204406, 0.49326805, 0.49326805, 0.49571603, 0.49571603,
       0.49694002, 0.49694002, 0.500612  , 0.500612  , 0.50183599,
       0.50183599, 0.50428397, 0.50428397, 0.50550796, 0.50550796,
       0.50795594, 0.50795594, 0.50917993, 0.50917993, 0.51162791,
       0.51162791, 0.5128519 , 0.5128519 , 0.51407589, 0.51407589,
       0.51529988, 0.51529988, 0.51652387, 0.51652387, 0.51774786,
       0.51774786, 0.51897185, 0.51897185, 0.52141983, 0.52141983,
       0.52386781, 0.52386781, 0.5250918 , 0.5250918 , 0.52631579,
       0.52631579, 0.52753978, 0.52753978, 0.52876377, 0.52876377,
       0.52998776, 0.52998776, 0.53121175, 0.53121175, 0.53243574,
       0.53243574, 0.53365973, 0.53365973, 0.53488372, 0.53488372,
       0.53610771, 0.53610771, 0.5373317 , 0.5373317 , 0.5373317 ,
       0.5373317 , 0.53855569, 0.53855569, 0.53977968, 0.53977968,
       0.54100367, 0.54100367, 0.54222766, 0.54222766, 0.54345165,
       0.54345165, 0.54467564, 0.54467564, 0.54589963, 0.54589963,
       0.54712362, 0.54712362, 0.54834761, 0.54834761, 0.5495716 ,
       0.5495716 , 0.55079559, 0.55079559, 0.55201958, 0.55201958,
       0.55324357, 0.55324357, 0.55446756, 0.55446756, 0.55569155,
       0.55569155, 0.55691554, 0.55691554, 0.55813953, 0.55813953,
       0.55936353, 0.55936353, 0.56058752, 0.56058752, 0.56181151,
       0.56181151, 0.5630355 , 0.5630355 , 0.56425949, 0.56425949,
       0.56548348, 0.56548348, 0.56670747, 0.56670747, 0.56793146,
       0.56793146, 0.56915545, 0.56915545, 0.57037944, 0.57037944,
       0.57160343, 0.57160343, 0.57282742, 0.57282742, 0.57405141,
       0.57405141, 0.5752754 , 0.5752754 , 0.57649939, 0.57649939,
       0.57894737, 0.57894737, 0.58017136, 0.58017136, 0.58261934,
       0.58261934, 0.58384333, 0.58384333, 0.58506732, 0.58506732,
       0.58629131, 0.58629131, 0.5875153 , 0.5875153 , 0.58873929,
       0.58873929, 0.58996328, 0.58996328, 0.59118727, 0.59118727,
       0.59241126, 0.59241126, 0.59363525, 0.59363525, 0.59485924,
       0.59485924, 0.59608323, 0.59608323, 0.59730722, 0.59730722,
       0.59853121, 0.59853121, 0.5997552 , 0.5997552 , 0.60097919,
       0.60097919, 0.60220318, 0.60220318, 0.60465116, 0.60465116,
       0.60587515, 0.60587515, 0.60709914, 0.60709914, 0.60954712,
       0.60954712, 0.6119951 , 0.6119951 , 0.61321909, 0.61321909,
       0.61566707, 0.61566707, 0.61689106, 0.61689106, 0.61933905,
       0.61933905, 0.62056304, 0.62056304, 0.62178703, 0.62178703,
       0.62301102, 0.62301102, 0.62423501, 0.62423501, 0.625459  ,
       0.625459  , 0.62668299, 0.62668299, 0.62913097, 0.62913097,
       0.63035496, 0.63035496, 0.63157895, 0.63157895, 0.63280294,
       0.63280294, 0.63402693, 0.63402693, 0.63525092, 0.63525092,
       0.6376989 , 0.6376989 , 0.63892289, 0.63892289, 0.64014688,
       0.64014688, 0.64137087, 0.64137087, 0.64259486, 0.64259486,
       0.64381885, 0.64381885, 0.64504284, 0.64504284, 0.64749082,
       0.64749082, 1.        ]), 'car': array([0.        , 0.14625551, 0.15154185, 0.15506608, 0.15770925,
       0.15947137, 0.16123348, 0.16651982, 0.169163  , 0.2185022 ,
       0.2185022 , 0.23876652, 0.23876652, 0.24669604, 0.24669604,
       0.25814978, 0.25814978, 0.31894273, 0.31894273, 0.32246696,
       0.32246696, 0.32599119, 0.32599119, 0.32687225, 0.32687225,
       0.32863436, 0.32863436, 0.32951542, 0.32951542, 0.33127753,
       0.33127753, 0.33215859, 0.33215859, 0.33303965, 0.33303965,
       0.3339207 , 0.3339207 , 0.33480176, 0.33480176, 0.33568282,
       0.33568282, 0.33656388, 0.33656388, 0.33832599, 0.33832599,
       0.33920705, 0.33920705, 0.34008811, 0.34008811, 0.34096916,
       0.34096916, 0.34185022, 0.34185022, 0.34273128, 0.34273128,
       0.34361233, 0.34361233, 0.34449339, 0.34449339, 0.34537445,
       0.34537445, 0.34625551, 0.34625551, 0.34713656, 0.34713656,
       0.34801762, 0.34801762, 0.34889868, 0.34889868, 0.34977974,
       0.34977974, 0.35066079, 0.35066079, 0.35154185, 0.35154185,
       0.35242291, 0.35242291, 0.35242291, 0.35242291, 0.35330396,
       0.35330396, 0.35506608, 0.35506608, 0.35594714, 0.35594714,
       0.35682819, 0.35682819, 0.35770925, 0.35770925, 0.35859031,
       0.35859031, 0.35947137, 0.35947137, 0.36035242, 0.36035242,
       0.36123348, 0.36123348, 0.36211454, 0.36211454, 0.36387665,
       0.36387665, 0.36475771, 0.36475771, 0.36563877, 0.36563877,
       0.36651982, 0.36651982, 0.36740088, 0.36740088, 0.36828194,
       0.36828194, 0.369163  , 0.369163  , 0.37004405, 0.37004405,
       0.37180617, 0.37180617, 0.37268722, 0.37268722, 0.37356828,
       0.37356828, 0.37444934, 0.37444934, 0.3753304 , 0.3753304 ,
       0.37621145, 0.37621145, 0.37709251, 0.37709251, 0.37797357,
       0.37797357, 0.37885463, 0.37885463, 0.37973568, 0.37973568,
       0.38061674, 0.38061674, 0.3814978 , 0.3814978 , 0.38325991,
       0.38325991, 0.38414097, 0.38414097, 0.38502203, 0.38502203,
       0.38678414, 0.38678414, 0.3876652 , 0.3876652 , 0.38854626,
       0.38854626, 0.38942731, 0.38942731, 0.39030837, 0.39030837,
       0.39118943, 0.39118943, 0.39207048, 0.39207048, 0.39295154,
       0.39295154, 0.3938326 , 0.3938326 , 0.39471366, 0.39471366,
       0.39559471, 0.39559471, 0.39647577, 0.39647577, 0.39823789,
       0.39823789, 0.39911894, 0.39911894, 0.4       , 0.4       ,
       0.40088106, 0.40088106, 0.40176211, 0.40176211, 0.40264317,
       0.40264317, 0.40352423, 0.40352423, 0.40440529, 0.40440529,
       0.40528634, 0.40528634, 0.4061674 , 0.4061674 , 0.40704846,
       0.40704846, 0.40792952, 0.40792952, 0.40969163, 0.40969163,
       0.41057269, 0.41057269, 0.41145374, 0.41145374, 0.4123348 ,
       0.4123348 , 0.41321586, 0.41321586, 0.41409692, 0.41409692,
       0.41497797, 0.41497797, 0.41585903, 0.41585903, 0.41762115,
       0.41762115, 0.4185022 , 0.4185022 , 0.41938326, 0.41938326,
       0.42026432, 0.42026432, 0.42114537, 0.42114537, 0.42202643,
       0.42202643, 0.42290749, 0.42290749, 0.42378855, 0.42378855,
       0.4246696 , 0.4246696 , 0.42555066, 0.42555066, 0.42643172,
       0.42643172, 0.42819383, 0.42819383, 0.42907489, 0.42907489,
       0.42995595, 0.42995595, 0.430837  , 0.430837  , 0.43171806,
       0.43171806, 0.43436123, 0.43436123, 0.43524229, 0.43524229,
       0.43612335, 0.43612335, 0.43700441, 0.43700441, 0.43876652,
       0.43876652, 0.44140969, 0.44140969, 0.44229075, 0.44229075,
       0.44317181, 0.44317181, 0.44493392, 0.44493392, 0.44581498,
       0.44581498, 0.44757709, 0.44757709, 0.44845815, 0.44845815,
       0.44933921, 0.44933921, 0.45198238, 0.45198238, 0.45286344,
       0.45286344, 0.45374449, 0.45374449, 0.45462555, 0.45462555,
       0.45638767, 0.45638767, 0.45814978, 0.45814978, 0.45903084,
       0.45903084, 0.46167401, 0.46167401, 0.46255507, 0.46255507,
       0.46343612, 0.46343612, 0.46431718, 0.46431718, 0.46519824,
       0.46519824, 0.4660793 , 0.4660793 , 0.46696035, 0.46696035,
       0.46784141, 0.46784141, 0.46960352, 0.46960352, 0.4722467 ,
       0.4722467 , 0.47312775, 0.47312775, 0.47400881, 0.47400881,
       0.47577093, 0.47577093, 0.4784141 , 0.4784141 , 0.47929515,
       0.47929515, 0.48017621, 0.48017621, 0.48105727, 0.48105727,
       0.48281938, 0.48281938, 0.48370044, 0.48370044, 0.48810573,
       0.48810573, 0.4907489 , 0.4907489 , 0.49427313, 0.49427313,
       0.49603524, 0.49603524, 0.4969163 , 0.4969163 , 0.49779736,
       0.49779736, 0.49955947, 0.49955947, 0.50044053, 0.50044053,
       0.50396476, 0.50396476, 0.50484581, 0.50484581, 0.50572687,
       0.50572687, 0.50748899, 0.50748899, 0.50837004, 0.50837004,
       0.5092511 , 0.5092511 , 0.51013216, 0.51013216, 0.51189427,
       0.51189427, 0.51277533, 0.51277533, 0.51629956, 0.51629956,
       0.51806167, 0.51806167, 0.51894273, 0.51894273, 0.51982379,
       0.51982379, 0.52070485, 0.52070485, 0.5215859 , 0.5215859 ,
       0.52334802, 0.52334802, 0.52422907, 0.52422907, 0.52511013,
       0.52511013, 0.52687225, 0.52687225, 0.5277533 , 0.5277533 ,
       0.52863436, 0.52863436, 0.52951542, 0.52951542, 0.53039648,
       0.53039648, 0.53127753, 0.53127753, 0.53215859, 0.53215859,
       0.53303965, 0.53303965, 0.53480176, 0.53480176, 0.53568282,
       0.53568282, 0.53656388, 0.53656388, 0.53744493, 0.53744493,
       0.53832599, 0.53832599, 0.53920705, 0.53920705, 0.54008811,
       0.54008811, 0.54185022, 0.54185022, 0.54273128, 0.54273128,
       0.54361233, 0.54361233, 0.54449339, 0.54449339, 0.54537445,
       0.54537445, 0.54625551, 0.54625551, 0.54713656, 0.54713656,
       0.54801762, 0.54801762, 0.54889868, 0.54889868, 0.54977974,
       0.54977974, 0.55066079, 0.55066079, 0.55154185, 0.55154185,
       0.55330396, 0.55330396, 0.55418502, 0.55418502, 0.55594714,
       0.55594714, 0.55682819, 0.55682819, 0.55770925, 0.55770925,
       0.55859031, 0.55859031, 0.55947137, 0.55947137, 0.56035242,
       0.56035242, 1.        ])},
auc: {'average': 0.6218689825234687, 'none': 0.9939717657875325, 'pedestrian': 0.586685887776952, 'pedest_two': 0.5758306749932266, 'bicycle': 0.5755245777429987, 'car': 0.533184989871057},