Wall time,Step,Value
1556047233.4977527,0,0.4886363744735718
1556047245.4117131,1,0.8620129823684692
1556047257.2384205,2,0.9253246784210205
1556047269.035619,3,0.9610389471054077
1556047280.8587363,4,0.9561688303947449
1556047292.6645942,5,0.9683441519737244
1556047304.5328484,6,0.986201286315918
1556047316.338936,7,0.9748376607894897
1556047328.2721782,8,0.9870129823684692
1556047340.0783231,9,0.9740259647369385
1556047351.8703215,10,0.9886363744735718
1556047363.685326,11,0.9813311696052551
1556047375.5162787,12,0.9918830990791321
1556047387.3529654,13,0.9902597665786743
1556047399.145533,14,0.9967532753944397
1556047410.9517708,15,0.9805194735527039
1556047423.238933,16,0.9951298832893372
1556047437.9682395,17,0.9926947951316833
1556047450.6565628,18,0.9983766078948975
1556047463.0754576,19,0.9975649118423462
1556047475.5499802,20,1.0
1556047488.0306122,21,0.9991883039474487
1556047500.585007,22,1.0
1556047513.3190346,23,1.0
1556047525.6721878,24,0.9983766078948975
1556047537.797038,25,0.9829545617103577
1556047549.9615116,26,0.9991883039474487
1556047562.1371975,27,0.9967532753944397
1556047574.31603,28,0.9918830990791321
1556047586.4265022,29,0.9845778942108154
