Wall time,Step,Value
1556046821.996389,0,8.150457382202148
1556046833.983888,1,2.5979273319244385
1556046845.8882546,2,0.5079938173294067
1556046857.7749438,3,0.2145397812128067
1556046869.6558928,4,0.17912410199642181
1556046881.5636072,5,0.2200576215982437
1556046893.4514897,6,0.1085565909743309
1556046905.3358557,7,0.08628183603286743
1556046917.2145963,8,0.05348505824804306
1556046929.0958889,9,0.07906492799520493
1556046941.0198913,10,0.04477737843990326
1556046952.901622,11,0.02781486324965954
1556046964.8194652,12,0.0596621111035347
1556046976.7100704,13,0.04713307321071625
1556046988.6005518,14,0.32075655460357666
1556047000.4878001,15,0.13995352387428284
1556047012.3695226,16,0.04534381255507469
1556047024.2604213,17,0.015310853719711304
1556047036.1351776,18,0.03210827708244324
1556047048.0007694,19,0.032838594168424606
1556047059.8659914,20,0.030097762122750282
1556047071.7142754,21,0.007173377089202404
1556047083.565192,22,0.00460133096203208
1556047095.4665291,23,0.015524790622293949
1556047107.347162,24,0.11732520908117294
1556047119.2135787,25,0.038228511810302734
1556047131.0821574,26,0.04190002754330635
1556047142.9613118,27,0.011565336026251316
1556047154.8286743,28,0.012731683440506458
1556047166.705157,29,0.0025004760827869177
