Wall time,Step,Value
1556048016.694497,0,0.5058479309082031
1556048026.900918,1,0.7719298005104065
1556048037.0051172,2,0.8099415302276611
1556048047.103161,3,0.9220272898674011
1556048057.196576,4,0.9502924084663391
1556048067.3261685,5,0.9775828719139099
1556048077.472296,6,0.9688109159469604
1556048087.5812552,7,0.9766082167625427
1556048097.6493125,8,0.9795321822166443
1556048107.740529,9,0.9639376401901245
1556048117.8461843,10,0.960038959980011
1556048127.9509642,11,0.9678362607955933
1556048138.0684044,12,0.9951267242431641
1556048148.2058477,13,0.9970760345458984
1556048158.2981167,14,0.9853801131248474
1556048168.4543629,15,0.9814814925193787
1556048178.5756009,16,0.9951267242431641
1556048188.7220206,17,0.9931774139404297
1556048198.852761,18,0.9922027587890625
1556048208.9590583,19,0.9863547682762146
1556048219.118194,20,0.9892787337303162
1556048229.2750757,21,0.9931774139404297
1556048239.3959303,22,0.9970760345458984
1556048249.542308,23,0.988304078578949
1556048259.762021,24,0.9970760345458984
1556048269.9835765,25,0.9922027587890625
1556048280.1133778,26,0.9980506896972656
1556048290.2871447,27,0.9961013793945312
1556048300.4489274,28,0.9990253448486328
1556048310.6807113,29,0.9941520690917969
