Wall time,Step,Value
1556048820.100767,0,6.166026592254639
1556048832.5851252,1,6.019058704376221
1556048844.9444802,2,5.385178565979004
1556048857.3194635,3,0.8319533467292786
1556048869.6788206,4,0.39476680755615234
1556048882.0381777,5,0.2119140774011612
1556048894.413161,6,0.12546443939208984
1556048906.7725163,7,0.09085917472839355
1556048919.1631236,8,0.053477879613637924
1556048931.5224814,9,0.09452537447214127
1556048943.8974628,10,0.08154038339853287
1556048956.303695,11,0.018951162695884705
1556048968.7099273,12,0.016556330025196075
1556048981.0849092,13,0.05587777867913246
1556048993.4598918,14,0.018760425969958305
1556049005.8348737,15,0.02884017862379551
1556049018.2254817,16,0.007553946226835251
1556049030.602794,17,0.09074800461530685
1556049043.0090258,18,0.24263809621334076
1556049055.368385,19,0.04712209850549698
1556049067.7433646,20,0.016512079164385796
1556049080.1495974,21,0.01491458062082529
1556049092.5089552,22,0.00401485338807106
1556049104.8683114,23,0.0067091332748532295
1556049117.2901676,24,0.03909272700548172
1556049129.6651511,25,0.0007353536202572286
1556049142.0401328,26,0.0026308693923056126
1556049154.3994899,27,0.04166429489850998
1556049166.7900975,28,0.006595646496862173
1556049179.16508,29,0.04726049304008484
