Wall time,Step,Value
1553787243.2032354,0,0.8619121313095093
1553787260.2031832,1,0.9076484441757202
1553787277.070779,2,0.921233594417572
1553787293.9984746,3,0.9292829632759094
1553787310.8577967,4,0.9359444975852966
1553787327.7895043,5,0.9405705332756042
1553787344.72082,6,0.9454587697982788
1553787361.5645213,7,0.9496839046478271
1553787378.4550943,8,0.9527370929718018
1553787395.3190637,9,0.9565767049789429
1553787412.2281032,10,0.9609869122505188
1553787429.172558,11,0.9636391401290894
1553787446.1166093,12,0.9664765000343323
1553787462.9759338,13,0.9685581922531128
1553787479.897987,14,0.9719506502151489
1553787496.8265944,15,0.9756360650062561
1553787513.670294,16,0.9771010279655457
1553787530.6222613,17,0.9783037900924683
1553787547.4972107,18,0.9802312850952148
1553787564.4154599,19,0.9813107252120972
1553787581.2591598,20,0.9837933778762817
1553787598.1497343,21,0.9846106171607971
1553787615.0588245,22,0.9851040840148926
1553787631.9181485,23,0.9869236946105957
1553787648.9180984,24,0.9871549606323242
1553787665.933673,25,0.987895131111145
1553787682.830288,26,0.9885582327842712
1553787699.6646926,27,0.9893446564674377
1553787716.5584228,28,0.9885736107826233
1553787733.3865001,29,0.9903469681739807
1553787750.261447,30,0.9919352531433105
1553787767.148432,31,0.9906091094017029
1553787784.0300229,32,0.991750180721283
1553787800.9587438,33,0.9901927709579468
1553787817.7780814,34,0.9914880394935608
1553787834.6709223,35,0.9928449988365173
1553787851.5390434,36,0.9920894503593445
1553787868.5077426,37,0.9929221272468567
1553787885.3983169,38,0.9913338422775269
1553787902.2611642,39,0.9931225776672363
1553787919.1673641,40,0.9931071996688843
1553787936.073563,41,0.992598295211792
1553787953.1070895,42,0.9930455088615417
1553787969.9664147,43,0.9938627481460571
1553787986.8726134,44,0.9922282099723816
1553788003.8413148,45,0.9934155941009521
1553788020.7943873,46,0.9945258498191833
1553788037.7162137,47,0.9938010573387146
1553788054.5507605,48,0.9946646094322205
1553788071.55071,49,0.9937548041343689
1553788088.5857694,50,0.9930763244628906
1553788105.4294674,51,0.9950963854789734
1553788122.2419171,52,0.9944179058074951
1553788139.0699923,53,0.9938164949417114
1553788155.9605665,54,0.9950809478759766
1553788172.7573931,55,0.9950963854789734
1553788189.694841,56,0.9938164949417114
1553788206.491666,57,0.9948188066482544
1553788223.3509908,58,0.9945104122161865
1553788240.163441,59,0.9959753155708313
1553788257.0383909,60,0.9940631985664368
1553788273.8977158,61,0.9950501322746277
1553788290.7101657,62,0.994849681854248
1553788307.6007402,63,0.9942020177841187
1553788324.4913154,64,0.9958365559577942
1553788341.3818896,65,0.9956514835357666
1553788358.1943393,66,0.9949730038642883
1553788375.0536647,67,0.9948033690452576
1553788391.9129887,68,0.9958211183547974
1553788408.8035626,69,0.9942020177841187
1553788425.6472633,70,0.9958365559577942
1553788442.4597127,71,0.9956669211387634
1553788459.3346624,72,0.995173454284668
1553788476.1314871,73,0.9956206679344177
1553788493.0220633,74,0.9952660202980042
