Wall time,Step,Value
1553781323.8364227,0,0.38261258602142334
1553781340.3295279,1,0.26545950770378113
1553781358.1051617,2,0.22907084226608276
1553781378.4800699,3,0.2077028751373291
1553781398.3600347,4,0.18948006629943848
1553781415.355698,5,0.1750136762857437
1553781432.5161443,6,0.16424451768398285
1553781449.901313,7,0.15322238206863403
1553781505.821375,8,0.1423976719379425
1553781523.7726326,9,0.13038155436515808
1553781544.7717376,10,0.12169536203145981
1553781562.2596664,11,0.11396193504333496
1553781578.3533683,12,0.10521696507930756
1553781594.5408206,13,0.09630376845598221
1553781610.6814,14,0.08948184549808502
1553781626.8985035,15,0.08315350860357285
1553781643.0547059,16,0.0739007368683815
1553781659.2421575,17,0.06672558188438416
1553781675.429609,18,0.06266336888074875
1553781691.5545611,19,0.06035150587558746
1553781707.7666972,20,0.053105756640434265
1553781723.8760257,21,0.053005434572696686
1553781740.0273018,22,0.04827255755662918
1553781756.1279829,23,0.04894115403294563
1553781772.315435,24,0.04118967428803444
1553781788.5414414,25,0.03801674023270607
1553781804.6806667,26,0.04069501906633377
1553781820.733292,27,0.034688811749219894
1553781836.8257363,28,0.034929629415273666
1553781852.9243124,29,0.036862872540950775
1553781869.004577,30,0.03038335032761097
1553781885.1139038,31,0.03011004999279976
1553781901.113856,32,0.03336872532963753
1553781917.223183,33,0.028202977031469345
1553781933.2588181,34,0.02694222889840603
1553781949.3993952,35,0.026149630546569824
1553781965.5119512,36,0.02659650892019272
1553781981.6681545,37,0.02939261868596077
1553781997.6993556,38,0.02302326261997223
1553782013.8086817,39,0.024653665721416473
1553782029.9023838,40,0.027285117655992508
1553782045.9960866,41,0.02271212451159954
1553782062.061274,42,0.019593551754951477
1553782078.1706018,43,0.026731178164482117
1553782094.2673707,44,0.019631141796708107
1553782110.350181,45,0.025123730301856995
1553782126.4751337,46,0.023121889680624008
1553782142.5219607,47,0.022456036880612373
1553782158.6312876,48,0.022023385390639305
1553782174.6552458,49,0.022979166358709335
1553782190.7801979,50,0.019360853359103203
1553782206.8282385,51,0.022018518298864365
1553782222.968815,52,0.0229833722114563
1553782239.109392,53,0.02266707643866539
1553782255.294067,54,0.01884186640381813
1553782271.356519,55,0.020575279369950294
1553782287.481471,56,0.020744284614920616
1553782303.5751736,57,0.022564252838492393
1553782319.6376257,58,0.01815394125878811
1553782335.7303748,59,0.016867617145180702
1553782351.7928276,60,0.018069962039589882
1553782367.9646537,61,0.020586570724844933
1553782384.002737,62,0.01563851349055767
1553782400.1301455,63,0.017458580434322357
1553782416.1769745,64,0.021973412483930588
1553782432.3054338,65,0.017817126587033272
1553782448.9616332,66,0.01820407062768936
1553782465.2584605,67,0.017443442717194557
1553782481.258414,68,0.019566068425774574
1553782497.3833647,69,0.019904401153326035
1553782513.4145677,70,0.014343976974487305
1553782529.523894,71,0.014744406566023827
1553782545.6332216,72,0.018028611317276955
1553782561.6644244,73,0.018040789291262627
1553782577.71125,74,0.014457940123975277
