Wall time,Step,Value
1553785944.65434,0,0.3430463671684265
1553785961.4980385,1,0.23470745980739594
1553785978.3417387,2,0.2026480883359909
1553785995.1854384,3,0.18253417313098907
1553786011.9666386,4,0.1688883751630783
1553786028.8103383,5,0.15426962077617645
1553786045.5602877,6,0.14487603306770325
1553786062.4039898,7,0.1351749449968338
1553786079.1539383,8,0.12527398765087128
1553786096.0132625,9,0.11464598774909973
1553786112.8100882,10,0.10658882558345795
1553786129.6694143,11,0.09861421585083008
1553786146.591237,12,0.08951915055513382
1553786163.325562,13,0.0831526443362236
1553786180.1692626,14,0.07511037588119507
1553786196.919213,15,0.0705796554684639
1553786213.7472868,16,0.0638737827539444
1553786230.5441122,17,0.061168018728494644
1553786247.3878112,18,0.05250086635351181
1553786264.2315128,19,0.051336489617824554
1553786280.9970865,20,0.043904487043619156
1553786297.8720365,21,0.044151369482278824
1553786314.6532376,22,0.04374437779188156
1553786331.4969356,23,0.03604019433259964
1553786348.293761,24,0.03474811464548111
1553786365.32496,25,0.035793885588645935
1553786382.090535,26,0.031302839517593384
1553786398.9186099,27,0.032582882791757584
1553786415.7779346,28,0.03182724863290787
1553786432.5747597,29,0.027482861652970314
1553786450.0903323,30,0.026910843327641487
1553786466.9184074,31,0.02533416822552681
1553786483.7621067,32,0.030452506616711617
1553786500.652682,33,0.0240029189735651
1553786517.480758,34,0.02507050707936287
1553786534.324458,35,0.02609982341527939
1553786551.0744083,36,0.02453470416367054
1553786567.886857,37,0.02256694994866848
1553786584.6524312,38,0.02491556666791439
1553786601.4961321,39,0.02266824059188366
1553786618.2617064,40,0.022876430302858353
1553786635.1366558,41,0.022051909938454628
1553786651.902231,42,0.023064391687512398
1553786668.699056,43,0.019760066643357277
1553786685.558381,44,0.020765280351042747
1553786702.3708317,45,0.021129688248038292
1553786719.1989052,46,0.019223500043153763
1553786735.9957302,47,0.024877874180674553
1553786752.8706799,48,0.019255034625530243
1553786769.6675053,49,0.01818520948290825
1553786786.5893295,50,0.018706995993852615
1553786803.3705318,51,0.018304606899619102
1553786820.1829796,52,0.020439811050891876
1553786837.0735536,53,0.021782442927360535
1553786853.8235042,54,0.01661844179034233
1553786870.6515787,55,0.017761237919330597
1553786887.4484048,56,0.01699366420507431
1553786904.354603,57,0.01890537142753601
1553786921.1358023,58,0.01568649522960186
1553786937.9482534,59,0.017459211871027946
1553786954.7607033,60,0.017675332725048065
1553786971.5262783,61,0.017860110849142075
1553786988.3856027,62,0.013922035694122314
1553787005.1199296,63,0.022112686187028885
1553787021.9636292,64,0.019161993637681007
1553787038.7760777,65,0.015982864424586296
1553787055.6822774,66,0.01771480403840542
1553787072.4947274,67,0.014580200426280499
1553787089.3071775,68,0.013639714568853378
1553787106.1352522,69,0.019747311249375343
1553787122.9320767,70,0.01692900061607361
1553787139.7601526,71,0.013768650591373444
1553787156.82905,72,0.020497022196650505
1553787174.5921638,73,0.020293664187192917
1553787191.7857106,74,0.012964106164872646
