Wall time,Step,Value,Wall time,Step,Value,Wall time,Step,Value,Wall time,Step,Value,Wall time,Step,Value,Wall time,Step,Value
1555600235.9488158,0,0.5774193406105042,1555600410.202189,0,0.5201612710952759,1555600581.4719691,0,0.6474609375,1555600736.0141087,0,0.57421875,1555600893.5080545,0,0.4141104221343994,1555601072.9748275,0,0.6257668733596802
1555600247.9331732,1,0.8379032015800476,1555600422.1865463,1,0.8395161032676697,1555600591.3802269,1,0.685546875,1555600745.9220593,1,0.7822265625,1555600906.1337204,1,0.7714723944664001,1555601085.4748092,1,0.8397239446640015
1555600259.8371892,2,0.8887096643447876,1555600434.0927796,2,0.897580623626709,1555600601.1865041,2,0.7978515625,1555600755.734545,2,0.857421875,1555600918.6649523,2,0.8696318864822388,1555601097.8966668,2,0.8803681135177612
1555600271.746284,3,0.9072580933570862,1555600446.0111299,3,0.9419354796409607,1555600610.9989896,3,0.8759765625,1555600765.5526671,3,0.9228515625,1555600931.1817932,3,0.9217791557312012,1555601110.349774,3,0.9317484498023987
1555600283.657258,4,0.9330645203590393,1555600457.8861125,4,0.948387086391449,1555600620.8212428,4,0.9267578125,1555600775.3964026,4,0.93359375,1555600943.6971643,4,0.9294478297233582,1555601122.7716303,4,0.9317484498023987
1555600295.5417988,5,0.9516128897666931,1555600469.7767196,5,0.9596773982048035,1555600630.6493535,5,0.951171875,1555600785.2088895,5,0.958984375,1555600956.2127693,5,0.9585889577865601,1555601135.1934876,5,0.967024564743042
1555600307.4565127,6,0.9645161032676697,1555600481.6517038,6,0.9822580814361572,1555600640.4689772,6,0.9541015625,1555600795.021375,6,0.9560546875,1555600968.7283764,6,0.9723926186561584,1555601147.615345,6,0.9769938588142395
1555600319.3504071,7,0.9564515948295593,1555600493.5327835,7,0.9467741847038269,1555600650.2970874,7,0.9501953125,1555600804.836432,7,0.98046875,1555600981.2757423,7,0.9700919985771179,1555601160.0372024,7,0.9754601120948792
1555600331.255828,8,0.978225827217102,1555600505.405683,8,0.9701613187789917,1555600660.1061122,8,0.958984375,1555600814.6489177,8,0.9677734375,1555600993.7913494,8,0.9846625924110413,1555601172.4746833,8,0.9708588719367981
1555600343.1620605,9,0.9838709831237793,1555600517.2806673,9,0.97661292552948,1555600669.9342227,9,0.96875,1555600824.5551531,9,0.974609375,1555601006.3069563,9,0.9601227045059204,1555601184.8965423,9,0.9723926186561584
