Wall time,Step,Value,Wall time,Step,Value,Wall time,Step,Value,Wall time,Step,Value,Wall time,Step,Value,Wall time,Step,Value
1555600235.9488158,0,3.7463128566741943,1555600410.202189,0,4.455667018890381,1555600581.4719691,0,4.628689765930176,1555600736.0141087,0,4.472873687744141,1555600893.5080545,0,8.242599487304688,1555601072.9748275,0,2.9289026260375977
1555600247.9331732,1,0.6437384486198425,1555600422.1865463,1,0.7815401554107666,1555600591.3802269,1,2.867778778076172,1555600745.9220593,1,1.4135459661483765,1555600906.1337204,1,1.4636814594268799,1555601085.4748092,1,0.5896446704864502
1555600259.8371892,2,0.33806905150413513,1555600434.0927796,2,0.38239702582359314,1555600601.1865041,2,0.7528529763221741,1555600755.734545,2,0.5071373581886292,1555600918.6649523,2,0.4777365028858185,1555601097.8966668,2,0.29477235674858093
1555600271.746284,3,0.22486652433872223,1555600446.0111299,3,0.189646914601326,1555600610.9989896,3,0.27615049481391907,1555600765.5526671,3,0.31436845660209656,1555600931.1817932,3,0.22598721086978912,1555601110.349774,3,0.17167524993419647
1555600283.657258,4,0.16460642218589783,1555600457.8861125,4,0.18005922436714172,1555600620.8212428,4,0.18863444030284882,1555600775.3964026,4,0.21397335827350616,1555600943.6971643,4,0.19988836348056793,1555601122.7716303,4,0.2154678851366043
1555600295.5417988,5,0.15808595716953278,1555600469.7767196,5,0.12126628309488297,1555600630.6493535,5,0.1295476108789444,1555600785.2088895,5,0.11472424119710922,1555600956.2127693,5,0.10347328335046768,1555601135.1934876,5,0.08823149651288986
1555600307.4565127,6,0.11883323639631271,1555600481.6517038,6,0.06343694031238556,1555600640.4689772,6,0.15823470056056976,1555600795.021375,6,0.12133059650659561,1555600968.7283764,6,0.07080169767141342,1555601147.615345,6,0.09050833433866501
1555600319.3504071,7,0.15294592082500458,1555600493.5327835,7,0.40891170501708984,1555600650.2970874,7,0.1142289787530899,1555600804.836432,7,0.059973761439323425,1555600981.2757423,7,0.07963979989290237,1555601160.0372024,7,0.06814537942409515
1555600331.255828,8,0.10912948101758957,1555600505.405683,8,0.09664402157068253,1555600660.1061122,8,0.1266365349292755,1555600814.6489177,8,0.13351036608219147,1555600993.7913494,8,0.05121545121073723,1555601172.4746833,8,0.08638778328895569
1555600343.1620605,9,0.06061743199825287,1555600517.2806673,9,0.06726883351802826,1555600669.9342227,9,0.08252052962779999,1555600824.5551531,9,0.09980405122041702,1555601006.3069563,9,0.21803635358810425,1555601184.8965423,9,0.06776770204305649
