Wall time,Step,Value
1555597281.9781227,0,9.166427612304688
1555597294.4947426,1,9.237385749816895
1555597306.8895767,2,9.70226764678955
1555597319.29471,3,10.008172035217285
1555597331.7018907,4,10.008699417114258
1555597344.151608,5,9.998885154724121
1555597356.5464234,6,9.990646362304688
1555597368.953038,7,9.991881370544434
1555597381.3648527,8,9.99093246459961
1555597393.7904656,9,9.988667488098145
