Wall time,Step,Value
1555596947.2037861,0,7.915011405944824
1555596957.1322644,1,7.796489238739014
1555596966.980484,2,7.7929253578186035
1555596976.7737947,3,7.791493892669678
1555596986.6025836,4,7.791475296020508
1555596996.4626815,5,7.791478633880615
1555597006.2609694,6,7.791470527648926
1555597016.0582485,7,7.791468143463135
1555597025.866128,8,7.887637138366699
1555597035.7805448,9,7.8096442222595215
