Wall time,Step,Value
1555601072.9748275,0,0.6257668733596802
1555601085.4748092,1,0.8397239446640015
1555601097.8966668,2,0.8803681135177612
1555601110.349774,3,0.9317484498023987
1555601122.7716303,4,0.9317484498023987
1555601135.1934876,5,0.967024564743042
1555601147.615345,6,0.9769938588142395
1555601160.0372024,7,0.9754601120948792
1555601172.4746833,8,0.9708588719367981
1555601184.8965423,9,0.9723926186561584
