Wall time,Step,Value
1555600893.5080545,0,0.4141104221343994
1555600906.1337204,1,0.7714723944664001
1555600918.6649523,2,0.8696318864822388
1555600931.1817932,3,0.9217791557312012
1555600943.6971643,4,0.9294478297233582
1555600956.2127693,5,0.9585889577865601
1555600968.7283764,6,0.9723926186561584
1555600981.2757423,7,0.9700919985771179
1555600993.7913494,8,0.9846625924110413
1555601006.3069563,9,0.9601227045059204
