Wall time,Step,Value
1553797468.7362263,0,0.6404221057891846
1553797484.738052,1,0.823051929473877
1553797499.9049783,2,0.8579545617103577
1553797514.5740507,3,0.9066558480262756
1553797528.887382,4,0.9293830990791321
1553797543.256257,5,0.9196428656578064
1553797557.626736,6,0.9456169009208679
1553797571.7859209,7,0.9610389471054077
1553797586.0671208,8,0.9699675440788269
1553797600.5168762,9,0.961850643157959
1553797614.8846893,10,0.9732142686843872
1553797629.1178312,11,0.9902597665786743
1553797643.5248172,12,0.9943181872367859
1553797658.4456542,13,0.9959415793418884
1553797673.7579224,14,0.9991883039474487
1553797688.1260326,15,0.9983766078948975
1553797702.3069892,16,0.989448070526123
1553797716.6864314,17,0.9959415793418884
1553797731.086819,18,1.0
1553797745.3699095,19,1.0
1553797759.90697,20,1.0
1553797774.407064,21,1.0
1553797788.9869194,22,0.9959415793418884
1553797803.062162,23,0.9983766078948975
1553797817.4832923,24,1.0
1553797833.9471178,25,1.0
1553797848.9664376,26,1.0
1553797863.946575,27,1.0
1553797878.5168216,28,1.0
1553797893.5827107,29,1.0
1553797907.6469605,30,1.0
1553797922.0530105,31,1.0
1553797937.5325909,32,1.0
1553797952.5422478,33,1.0
1553797966.8426232,34,1.0
1553797981.6269438,35,1.0
1553797995.796958,36,1.0
1553798010.555279,37,0.9821428656578064
1553798025.1429522,38,0.961850643157959
1553798040.9166627,39,0.9951298832893372
1553798055.6673481,40,0.9870129823684692
1553798070.8128011,41,0.9918830990791321
1553798084.8170052,42,0.9943181872367859
1553798099.0507174,43,0.9991883039474487
1553798113.5768952,44,1.0
1553798127.7900448,45,1.0
1553798141.857272,46,1.0
1553798156.232559,47,1.0
1553798170.5769,48,1.0
1553798184.9524784,49,1.0
1553798199.538329,50,1.0
1553798214.262792,51,1.0
1553798229.2090018,52,1.0
1553798244.376732,53,1.0
1553798259.5124671,54,1.0
1553798274.2524965,55,1.0
1553798289.5605853,56,1.0
1553798304.2024817,57,1.0
1553798318.3719323,58,1.0
1553798332.873901,59,1.0
1553798347.0766652,60,1.0
1553798361.4517753,61,1.0
1553798376.6685581,62,1.0
1553798391.400954,63,1.0
1553798406.6566577,64,1.0
1553798421.265378,65,1.0
1553798435.7740312,66,1.0
1553798450.501398,67,1.0
1553798464.636686,68,1.0
1553798479.5995898,69,1.0
1553798493.6667917,70,1.0
1553798507.7180567,71,1.0
1553798521.522734,72,1.0
1553798535.4115822,73,1.0
1553798549.378789,74,1.0
1553798563.2655182,75,1.0
1553798577.1784427,76,1.0
1553798591.0675113,77,1.0
1553798605.0189514,78,1.0
1553798618.923761,79,1.0
1553798632.889785,80,1.0
1553798646.5560267,81,1.0
1553798660.5453072,82,1.0
1553798674.3804715,83,1.0
1553798688.3855844,84,1.0
1553798702.1831493,85,1.0
1553798715.9878535,86,1.0
1553798729.8689127,87,1.0
1553798743.7623873,88,1.0
1553798757.6446028,89,1.0
1553798771.4133742,90,1.0
1553798785.3526514,91,1.0
1553798799.266116,92,1.0
1553798813.1696134,93,1.0
1553798827.0207312,94,1.0
1553798840.8253772,95,0.9837662577629089
1553798854.6920314,96,0.9610389471054077
1553798868.5958004,97,0.9959415793418884
1553798882.5153677,98,0.9975649118423462
1553798896.3342192,99,1.0
