Wall time,Step,Value
1553798945.8292892,0,0.6013644933700562
1553798957.843307,1,0.7417153716087341
1553798969.7897246,2,0.819688081741333
1553798981.5890486,3,0.8830409646034241
1553798993.365397,4,0.8849902749061584
1553799005.117611,5,0.9113060235977173
1553799016.8094933,6,0.9191033244132996
1553799028.554621,7,0.9541910290718079
1553799040.3381221,8,0.9415204524993896
1553799052.183348,9,0.9522417187690735
1553799063.9601896,10,0.9824561476707458
1553799075.6572754,11,0.9678362607955933
1553799087.5262892,12,0.9824561476707458
1553799099.256608,13,0.9795321822166443
1553799110.986465,14,0.9756335020065308
1553799122.7158182,15,0.9639376401901245
1553799134.4450185,16,0.9931774139404297
1553799146.1369748,17,0.9980506896972656
1553799157.8980074,18,0.9990253448486328
1553799169.7349043,19,0.9902533888816833
1553799181.4427812,20,0.9990253448486328
1553799193.226005,21,1.0
1553799204.9619331,22,1.0
1553799216.830302,23,1.0
1553799228.823077,24,1.0
1553799240.7622395,25,1.0
1553799252.5369782,26,1.0
1553799264.250938,27,0.9990253448486328
1553799275.9124444,28,1.0
1553799287.707164,29,1.0
1553799299.5377474,30,1.0
1553799311.3361092,31,1.0
1553799323.096779,32,1.0
1553799334.810571,33,1.0
1553799346.6715305,34,1.0
1553799358.4006562,35,1.0
1553799370.1311772,36,1.0
1553799382.0145974,37,1.0
1553799393.7763574,38,1.0
1553799405.5223272,39,1.0
1553799417.2528546,40,1.0
1553799428.9143953,41,1.0
1553799440.6666758,42,1.0
1553799452.4974875,43,1.0
1553799464.2278,44,1.0
1553799476.1608222,45,1.0
1553799487.8223398,46,1.0
1553799499.5523863,47,1.0
1553799511.2295272,48,1.0
1553799522.928774,49,0.9941520690917969
1553799534.7125573,50,0.9278752207756042
1553799546.4430802,51,0.9532163739204407
1553799558.2360952,52,0.988304078578949
1553799569.9353366,53,0.988304078578949
1553799581.7192495,54,0.9814814925193787
1553799593.4963143,55,1.0
1553799605.2424676,56,1.0
1553799617.010483,57,0.9990253448486328
1553799628.6720073,58,0.9990253448486328
1553799640.3869069,59,0.9902533888816833
1553799652.1322722,60,0.9980506896972656
1553799663.862792,61,0.9980506896972656
1553799675.6087046,62,1.0
1553799687.2858303,63,1.0
1553799698.9538243,64,1.0
1553799711.2073307,65,1.0
1553799722.9535267,66,1.0
1553799734.7529101,67,1.0
1553799746.4990838,68,1.0
1553799758.1983762,69,1.0
1553799769.9450579,70,1.0
1553799781.644362,71,1.0
1553799793.3749084,72,1.0
1553799805.0671067,73,1.0
1553799816.866667,74,1.0
1553799828.6440296,75,1.0
1553799840.296198,76,1.0
1553799851.9733636,77,1.0
1553799863.7192323,78,1.0
1553799875.3651366,79,1.0
1553799887.101946,80,1.0
1553799898.8480687,81,1.0
1553799910.540694,82,1.0
1553799922.3396974,83,1.0
1553799933.9699364,84,1.0
1553799945.7157934,85,1.0
1553799957.3833616,86,1.0
1553799969.145159,87,1.0
1553799980.8441446,88,1.0
1553799992.5213263,89,1.0
1553800004.227229,90,1.0
1553800015.888752,91,1.0
1553800027.6036572,92,1.0
1553800039.4186144,93,1.0
1553800051.1178937,94,1.0
1553800062.794988,95,1.0
1553800074.4470572,96,1.0
1553800086.055204,97,1.0
1553800097.8228006,98,1.0
1553800109.5689046,99,1.0
