Wall time,Step,Value
1553795948.9235544,0,0.9067787528038025
1553795965.607392,1,0.6923637390136719
1553795980.2277446,2,0.5672690868377686
1553795994.993296,3,0.4172963798046112
1553796009.0833628,4,0.27841150760650635
1553796023.7372992,5,0.2020377218723297
1553796038.147596,6,0.11484991759061813
1553796053.4232178,7,0.0790807455778122
1553796068.6432722,8,0.0690632313489914
1553796083.4976873,9,0.039449241012334824
1553796098.5072484,10,0.06445199251174927
1553796112.7032003,11,0.024719711393117905
1553796126.9172714,12,0.026402505114674568
1553796141.2776651,13,0.010928601957857609
1553796155.5833228,14,0.006361921783536673
1553796170.1735618,15,0.005157437175512314
1553796184.917595,16,0.004075662232935429
1553796199.7869298,17,0.0033500157296657562
1553796214.3532033,18,0.002474681008607149
1553796229.283531,19,0.0019921644125133753
1553796243.8633704,20,0.0017900599632412195
1553796258.6373103,21,0.0016521220095455647
1553796272.9934666,22,0.0015331829199567437
1553796287.363517,23,0.0012462458107620478
1553796302.6532066,24,0.0010926995892077684
1553796318.5376277,25,0.0009967013029381633
1553796332.6562538,26,0.0009214538731612265
1553796347.4474504,27,0.0008624696056358516
1553796363.8536005,28,0.06521536409854889
1553796379.4373777,29,0.16655384004116058
1553796393.9035444,30,0.0956105962395668
1553796408.693089,31,0.12206821143627167
1553796422.9975247,32,0.05493372306227684
1553796437.7516022,33,0.021221237257122993
1553796452.8775706,34,0.012548933736979961
1553796468.2731364,35,0.008443054743111134
1553796483.0431886,36,0.007087185513228178
1553796497.9670959,37,0.0053861383348703384
1553796513.5866587,38,0.004749545827507973
1553796529.5764244,39,0.004041624721139669
1553796544.4571164,40,0.0034926647786051035
1553796559.2534401,41,0.0031148227863013744
1553796574.177057,42,0.0027161408215761185
1553796589.2134054,43,0.002448617946356535
1553796604.3532858,44,0.002193811349570751
1553796619.2263036,45,0.0019500517519190907
1553796633.3472877,46,0.001797848497517407
1553796648.0533113,47,0.001630350947380066
1553796661.9733691,48,0.0014692881377413869
1553796676.1732423,49,0.0013348717475309968
1553796690.533212,50,0.0012780274264514446
1553796704.9533947,51,0.0011463816044852138
1553796719.2932415,52,0.00105881760828197
1553796734.1968145,53,0.000991069944575429
1553796748.7833624,54,0.0009163772338069975
1553796763.333383,55,0.0008621547021903098
1553796778.2432175,56,0.0008065556176006794
1553796792.4331748,57,0.0007595735369250178
1553796806.6565254,58,0.000713334244210273
1553796821.277272,59,0.0006726155406795442
1553796836.8633804,60,0.0006354163051582873
1553796851.793325,61,0.0006004241295158863
1553796866.4969838,62,0.0005703329225070775
1553796880.7430754,63,0.0005389953730627894
1553796894.8773828,64,0.0005052212509326637
1553796908.6871293,65,0.00047988351434469223
1553796922.4671826,66,0.000456467765616253
1553796936.5929513,67,0.0004351937095634639
1553796950.9733624,68,0.00041512318421155214
1553796965.5430193,69,0.00039427782758139074
1553796980.1370902,70,0.00037612771848216653
1553796994.6772747,71,0.00035771867260336876
1553797009.2170627,72,0.0003407718613743782
1553797024.2333784,73,0.0003240280784666538
1553797038.1728697,74,0.00030881233396939933
1553797052.5666876,75,0.00029317097505554557
1553797067.3571212,76,0.0002786930708680302
1553797081.8883684,77,0.0002634149568621069
1553797096.2330787,78,0.00025043077766895294
1553797110.3818212,79,0.00023803299700375646
1553797124.7706552,80,0.00022599910153076053
1553797139.4169526,81,0.0002147206396330148
1553797153.1672158,82,0.008169542998075485
1553797167.1532218,83,0.27073830366134644
1553797181.2070627,84,0.1176314577460289
1553797195.3870173,85,0.09001445770263672
1553797210.4731889,86,0.028931593522429466
1553797224.4272394,87,0.01703334040939808
1553797238.34316,88,0.012303825467824936
1553797252.3070707,89,0.008965278044342995
1553797266.2171712,90,0.007237319368869066
1553797280.9169168,91,0.006114931311458349
1553797295.4569826,92,0.005324430298060179
1553797310.4072156,93,0.0047330958768725395
1553797324.8470974,94,0.004151518456637859
1553797339.095621,95,0.003728138515725732
1553797353.536384,96,0.003373680403456092
1553797368.357022,97,0.0030736359767615795
1553797382.983132,98,0.00270510814152658
1553797397.3271124,99,0.002477915957570076
